"system","property","simulations","time","falsified","input"
"AT","AT1","150","51.872379665","yes","[0.0 100.0 0.0; 5.0 100.0 0.0; 10.0 100.0 0.0; 15.0 100.0 0.0; 20.0 0.0 0.0]"
"AT","AT1","169","55.872339243","yes","[0.0 100.0 0.0; 5.0 100.0 0.0; 10.0 100.0 0.0; 15.0 100.0 0.0; 20.0 0.0 325.0]"
"AT","AT1","2731","590.833742032","yes","[0.0 100.0 0.0; 2.0 100.0 0.0; 4.0 100.0 0.0; 6.0 100.0 0.0; 8.0 100.0 0.0; 10.0 100.0 0.0; 12.0 100.0 0.0; 14.0 100.0 0.0; 16.0 100.0 0.0; 18.0 100.0 0.0; 20.0 0.0 0.0]"
"AT","AT1","643","140.997006303","yes","[0.0 100.0 0.0; 2.0 100.0 0.0; 4.0 100.0 0.0; 6.0 100.0 0.0; 8.0 100.0 0.0; 10.0 100.0 0.0; 12.0 100.0 0.0; 14.0 100.0 0.0; 16.0 100.0 0.0; 18.0 100.0 0.0; 20.0 0.0 325.0]"
"AT","AT2","1033","219.440319014","yes","[0.0 100.0 0.0; 2.0 0.0 0.0; 4.0 100.0 325.0; 6.0 100.0 325.0; 8.0 100.0 325.0; 10.0 100.0 325.0]"
"AT","AT2","1105","238.238891464","yes","[0.0 100.0 325.0; 2.0 100.0 325.0; 4.0 0.0 0.0; 6.0 100.0 325.0; 8.0 100.0 325.0; 10.0 0.0 325.0]"
"AT","AT2","1270","253.331913238","yes","[0.0 100.0 0.0; 2.0 0.0 0.0; 4.0 100.0 325.0; 6.0 100.0 325.0; 8.0 100.0 325.0; 10.0 100.0 0.0]"
"AT","AT2","150","44.918082328","yes","[0.0 100.0 325.0; 2.0 100.0 325.0; 4.0 0.0 0.0; 6.0 100.0 325.0; 8.0 100.0 325.0; 10.0 100.0 0.0]"
"AT","AT2","2504","624.749372859","yes","[0.0 100.0 0.0; 2.0 0.0 0.0; 4.0 100.0 325.0; 6.0 100.0 325.0; 8.0 100.0 325.0; 10.0 0.0 325.0]"
"AT","AT2","2860","607.474278968","yes","[0.0 100.0 0.0; 2.0 0.0 0.0; 4.0 100.0 325.0; 6.0 100.0 325.0; 8.0 100.0 325.0; 10.0 0.0 0.0]"
"AT","AT2","543","138.008170378","yes","[0.0 25.0 65.0; 5.0 100.0 0.0; 10.0 75.0 130.0]"
"AT","AT2","820","171.972042816","yes","[0.0 100.0 325.0; 2.0 100.0 325.0; 4.0 0.0 0.0; 6.0 100.0 325.0; 8.0 100.0 325.0; 10.0 0.0 0.0]"
"AT","AT6a","1010","163.266496777","yes","[0.0 50.0 0.0; 2.0 50.0 0.0; 4.0 50.0 325.0; 6.0 50.0 325.0; 8.0 50.0 0.0; 10.0 50.0 0.0; 12.0 50.0 0.0; 14.0 50.0 325.0; 16.0 50.0 325.0; 18.0 50.0 325.0; 20.0 50.0 325.0; 22.0 50.0 0.0; 24.0 0.0 325.0; 26.0 50.0 0.0; 28.0 0.0 325.0; 30.0 50.0 0.0]"
"AT","AT6a","1044","181.454404925","yes","[0.0 50.0 0.0; 2.0 50.0 0.0; 4.0 50.0 325.0; 6.0 50.0 0.0; 8.0 50.0 0.0; 10.0 50.0 325.0; 12.0 0.0 325.0; 14.0 50.0 325.0; 16.0 0.0 325.0; 18.0 50.0 325.0; 20.0 0.0 325.0; 22.0 50.0 325.0; 24.0 0.0 325.0; 26.0 50.0 325.0; 28.0 0.0 325.0; 30.0 50.0 325.0]"
"AT","AT6a","1092","226.275603954","yes","[0.0 50.0 0.0; 2.0 50.0 0.0; 4.0 0.0 325.0; 6.0 0.0 325.0; 8.0 0.0 325.0; 10.0 0.0 325.0; 12.0 0.0 0.0; 14.0 0.0 0.0; 16.0 0.0 0.0; 18.0 0.0 0.0; 20.0 0.0 0.0; 22.0 0.0 0.0; 24.0 0.0 0.0; 26.0 0.0 0.0; 28.0 0.0 325.0; 30.0 100.0 325.0]"
"AT","AT6a","1102","187.415330683","yes","[0.0 50.0 0.0; 2.0 50.0 0.0; 4.0 50.0 325.0; 6.0 50.0 0.0; 8.0 50.0 0.0; 10.0 50.0 0.0; 12.0 50.0 0.0; 14.0 50.0 0.0; 16.0 50.0 325.0; 18.0 50.0 325.0; 20.0 50.0 0.0; 22.0 0.0 0.0; 24.0 50.0 325.0; 26.0 0.0 325.0; 28.0 0.0 0.0; 30.0 100.0 325.0]"
"AT","AT6a","1171","206.968237161","yes","[0.0 50.0 0.0; 2.0 50.0 0.0; 4.0 50.0 0.0; 6.0 50.0 0.0; 8.0 50.0 325.0; 10.0 50.0 0.0; 12.0 0.0 0.0; 14.0 50.0 325.0; 16.0 0.0 0.0; 18.0 50.0 325.0; 20.0 0.0 0.0; 22.0 50.0 325.0; 24.0 0.0 0.0; 26.0 50.0 325.0; 28.0 50.0 0.0; 30.0 100.0 0.0]"
"AT","AT6a","1180","193.078789988","yes","[0.0 50.0 0.0; 2.0 50.0 0.0; 4.0 50.0 0.0; 6.0 50.0 0.0; 8.0 50.0 0.0; 10.0 50.0 0.0; 12.0 0.0 325.0; 14.0 50.0 0.0; 16.0 50.0 325.0; 18.0 50.0 325.0; 20.0 50.0 325.0; 22.0 50.0 325.0; 24.0 50.0 325.0; 26.0 0.0 0.0; 28.0 50.0 0.0; 30.0 100.0 0.0]"
"AT","AT6a","1209","194.812969408","yes","[0.0 50.0 0.0; 2.0 50.0 0.0; 4.0 50.0 0.0; 6.0 50.0 0.0; 8.0 50.0 325.0; 10.0 50.0 0.0; 12.0 50.0 0.0; 14.0 50.0 0.0; 16.0 0.0 325.0; 18.0 50.0 0.0; 20.0 50.0 325.0; 22.0 50.0 325.0; 24.0 50.0 325.0; 26.0 50.0 325.0; 28.0 0.0 325.0; 30.0 100.0 0.0]"
"AT","AT6a","1216","197.998949533","yes","[0.0 50.0 0.0; 2.0 50.0 0.0; 4.0 50.0 0.0; 6.0 50.0 325.0; 8.0 50.0 0.0; 10.0 50.0 0.0; 12.0 50.0 0.0; 14.0 0.0 325.0; 16.0 50.0 0.0; 18.0 0.0 325.0; 20.0 50.0 325.0; 22.0 0.0 0.0; 24.0 0.0 325.0; 26.0 50.0 0.0; 28.0 50.0 0.0; 30.0 0.0 325.0]"
"AT","AT6a","1265","241.895311971","yes","[0.0 50.0 0.0; 2.0 50.0 325.0; 4.0 50.0 0.0; 6.0 50.0 325.0; 8.0 0.0 325.0; 10.0 0.0 325.0; 12.0 50.0 325.0; 14.0 0.0 325.0; 16.0 50.0 325.0; 18.0 0.0 325.0; 20.0 50.0 325.0; 22.0 0.0 325.0; 24.0 50.0 325.0; 26.0 0.0 325.0; 28.0 0.0 325.0; 30.0 100.0 325.0]"
"AT","AT6a","1317","208.609689046","yes","[0.0 50.0 0.0; 2.0 50.0 0.0; 4.0 50.0 325.0; 6.0 50.0 0.0; 8.0 50.0 0.0; 10.0 0.0 0.0; 12.0 50.0 325.0; 14.0 0.0 0.0; 16.0 50.0 325.0; 18.0 0.0 0.0; 20.0 50.0 325.0; 22.0 0.0 0.0; 24.0 50.0 325.0; 26.0 0.0 0.0; 28.0 0.0 325.0; 30.0 100.0 0.0]"
"AT","AT6a","1485","261.66505925","yes","[0.0 50.0 0.0; 2.0 50.0 0.0; 4.0 50.0 0.0; 6.0 50.0 325.0; 8.0 50.0 0.0; 10.0 50.0 0.0; 12.0 50.0 0.0; 14.0 50.0 0.0; 16.0 50.0 0.0; 18.0 50.0 0.0; 20.0 50.0 325.0; 22.0 50.0 325.0; 24.0 50.0 325.0; 26.0 50.0 325.0; 28.0 50.0 325.0; 30.0 50.0 325.0]"
"AT","AT6a","1541","255.138612887","yes","[0.0 50.0 0.0; 2.0 50.0 0.0; 4.0 0.0 0.0; 6.0 50.0 0.0; 8.0 50.0 0.0; 10.0 50.0 0.0; 12.0 50.0 325.0; 14.0 0.0 0.0; 16.0 50.0 325.0; 18.0 0.0 0.0; 20.0 50.0 325.0; 22.0 0.0 0.0; 24.0 50.0 325.0; 26.0 0.0 0.0; 28.0 50.0 325.0; 30.0 0.0 0.0]"
"AT","AT6a","307","70.754801161","yes","[0.0 50.0 0.0; 2.0 50.0 325.0; 4.0 0.0 325.0; 6.0 0.0 325.0; 8.0 0.0 325.0; 10.0 0.0 325.0; 12.0 0.0 325.0; 14.0 0.0 325.0; 16.0 0.0 325.0; 18.0 0.0 325.0; 20.0 0.0 325.0; 22.0 0.0 325.0; 24.0 0.0 325.0; 26.0 0.0 325.0; 28.0 0.0 325.0; 30.0 0.0 325.0]"
"AT","AT6a","314","65.346954077","yes","[0.0 50.0 0.0; 2.0 50.0 0.0; 4.0 50.0 0.0; 6.0 50.0 0.0; 8.0 50.0 325.0; 10.0 50.0 0.0; 12.0 0.0 325.0; 14.0 50.0 0.0; 16.0 0.0 325.0; 18.0 50.0 0.0; 20.0 0.0 325.0; 22.0 50.0 0.0; 24.0 0.0 325.0; 26.0 50.0 0.0; 28.0 0.0 325.0; 30.0 50.0 0.0]"
"AT","AT6a","325","69.114716296","yes","[0.0 50.0 0.0; 2.0 50.0 0.0; 4.0 50.0 325.0; 6.0 0.0 0.0; 8.0 0.0 325.0; 10.0 0.0 325.0; 12.0 50.0 325.0; 14.0 0.0 325.0; 16.0 50.0 325.0; 18.0 0.0 325.0; 20.0 50.0 325.0; 22.0 0.0 325.0; 24.0 50.0 325.0; 26.0 0.0 325.0; 28.0 0.0 325.0; 30.0 100.0 325.0]"
"AT","AT6a","331","71.867462798","yes","[0.0 50.0 0.0; 2.0 50.0 325.0; 4.0 0.0 325.0; 6.0 0.0 325.0; 8.0 0.0 325.0; 10.0 0.0 325.0; 12.0 0.0 0.0; 14.0 0.0 325.0; 16.0 0.0 0.0; 18.0 0.0 325.0; 20.0 0.0 0.0; 22.0 0.0 325.0; 24.0 0.0 0.0; 26.0 0.0 325.0; 28.0 0.0 0.0; 30.0 0.0 325.0]"
"AT","AT6a","432","85.825933294","yes","[0.0 50.0 0.0; 2.0 50.0 325.0; 4.0 50.0 0.0; 6.0 0.0 325.0; 8.0 50.0 325.0; 10.0 0.0 325.0; 12.0 50.0 325.0; 14.0 0.0 325.0; 16.0 50.0 325.0; 18.0 0.0 325.0; 20.0 50.0 325.0; 22.0 0.0 325.0; 24.0 50.0 325.0; 26.0 0.0 325.0; 28.0 50.0 325.0; 30.0 0.0 325.0]"
"AT","AT6a","450","87.42934808","yes","[0.0 50.0 0.0; 2.0 50.0 325.0; 4.0 0.0 325.0; 6.0 0.0 325.0; 8.0 0.0 325.0; 10.0 0.0 325.0; 12.0 0.0 325.0; 14.0 0.0 325.0; 16.0 0.0 325.0; 18.0 0.0 325.0; 20.0 0.0 325.0; 22.0 0.0 325.0; 24.0 0.0 325.0; 26.0 0.0 325.0; 28.0 50.0 0.0; 30.0 100.0 325.0]"
"AT","AT6a","463","87.68119748","yes","[0.0 50.0 0.0; 2.0 50.0 325.0; 4.0 0.0 325.0; 6.0 50.0 325.0; 8.0 50.0 325.0; 10.0 50.0 0.0; 12.0 50.0 0.0; 14.0 50.0 325.0; 16.0 0.0 325.0; 18.0 50.0 325.0; 20.0 0.0 325.0; 22.0 50.0 325.0; 24.0 0.0 325.0; 26.0 50.0 325.0; 28.0 0.0 325.0; 30.0 50.0 325.0]"
"AT","AT6a","463","90.646564579","yes","[0.0 50.0 0.0; 2.0 50.0 0.0; 4.0 50.0 325.0; 6.0 0.0 0.0; 8.0 0.0 325.0; 10.0 0.0 325.0; 12.0 50.0 325.0; 14.0 0.0 325.0; 16.0 50.0 325.0; 18.0 0.0 325.0; 20.0 50.0 325.0; 22.0 0.0 325.0; 24.0 50.0 325.0; 26.0 0.0 325.0; 28.0 50.0 325.0; 30.0 0.0 325.0]"
"AT","AT6a","510","93.628404012","yes","[0.0 50.0 0.0; 2.0 50.0 0.0; 4.0 50.0 0.0; 6.0 50.0 0.0; 8.0 50.0 0.0; 10.0 50.0 0.0; 12.0 0.0 325.0; 14.0 50.0 0.0; 16.0 50.0 325.0; 18.0 50.0 325.0; 20.0 50.0 0.0; 22.0 0.0 0.0; 24.0 0.0 325.0; 26.0 50.0 325.0; 28.0 50.0 325.0; 30.0 50.0 0.0]"
"AT","AT6a","536","96.204193307","yes","[0.0 50.0 0.0; 2.0 50.0 0.0; 4.0 50.0 0.0; 6.0 50.0 325.0; 8.0 0.0 0.0; 10.0 0.0 0.0; 12.0 0.0 325.0; 14.0 50.0 325.0; 16.0 0.0 325.0; 18.0 50.0 325.0; 20.0 0.0 325.0; 22.0 50.0 325.0; 24.0 0.0 325.0; 26.0 50.0 325.0; 28.0 0.0 325.0; 30.0 50.0 325.0]"
"AT","AT6a","536","98.876191608","yes","[0.0 50.0 0.0; 2.0 50.0 0.0; 4.0 50.0 325.0; 6.0 50.0 325.0; 8.0 50.0 0.0; 10.0 50.0 0.0; 12.0 50.0 325.0; 14.0 50.0 325.0; 16.0 50.0 325.0; 18.0 50.0 325.0; 20.0 50.0 325.0; 22.0 50.0 325.0; 24.0 50.0 325.0; 26.0 50.0 325.0; 28.0 50.0 325.0; 30.0 50.0 325.0]"
"AT","AT6a","541","96.471743529","yes","[0.0 50.0 0.0; 2.0 50.0 0.0; 4.0 50.0 0.0; 6.0 50.0 325.0; 8.0 50.0 0.0; 10.0 50.0 0.0; 12.0 0.0 0.0; 14.0 50.0 325.0; 16.0 0.0 0.0; 18.0 50.0 325.0; 20.0 0.0 0.0; 22.0 50.0 325.0; 24.0 0.0 0.0; 26.0 50.0 325.0; 28.0 50.0 325.0; 30.0 100.0 0.0]"
"AT","AT6a","551","100.020843998","yes","[0.0 50.0 0.0; 2.0 50.0 325.0; 4.0 0.0 325.0; 6.0 0.0 325.0; 8.0 0.0 325.0; 10.0 0.0 325.0; 12.0 0.0 0.0; 14.0 0.0 325.0; 16.0 0.0 0.0; 18.0 0.0 325.0; 20.0 0.0 0.0; 22.0 0.0 325.0; 24.0 0.0 0.0; 26.0 0.0 325.0; 28.0 50.0 0.0; 30.0 100.0 0.0]"
"AT","AT6a","558","108.714413186","yes","[0.0 50.0 325.0; 2.0 50.0 0.0; 4.0 0.0 325.0; 6.0 0.0 325.0; 8.0 0.0 325.0; 10.0 0.0 0.0; 12.0 0.0 325.0; 14.0 0.0 0.0; 16.0 0.0 0.0; 18.0 0.0 325.0; 20.0 0.0 325.0; 22.0 50.0 325.0; 24.0 50.0 0.0; 26.0 50.0 0.0; 28.0 0.0 325.0; 30.0 100.0 0.0]"
"AT","AT6a","561","109.856700076","yes","[0.0 50.0 0.0; 2.0 50.0 0.0; 4.0 50.0 325.0; 6.0 50.0 0.0; 8.0 0.0 0.0; 10.0 50.0 325.0; 12.0 0.0 325.0; 14.0 50.0 0.0; 16.0 0.0 0.0; 18.0 50.0 325.0; 20.0 0.0 0.0; 22.0 50.0 325.0; 24.0 0.0 0.0; 26.0 50.0 325.0; 28.0 50.0 0.0; 30.0 50.0 0.0]"
"AT","AT6a","562","100.825463759","yes","[0.0 50.0 325.0; 2.0 50.0 325.0; 4.0 0.0 325.0; 6.0 0.0 325.0; 8.0 0.0 325.0; 10.0 0.0 325.0; 12.0 0.0 0.0; 14.0 0.0 325.0; 16.0 0.0 0.0; 18.0 0.0 0.0; 20.0 0.0 0.0; 22.0 0.0 0.0; 24.0 0.0 325.0; 26.0 50.0 325.0; 28.0 50.0 0.0; 30.0 0.0 325.0]"
"AT","AT6a","576","110.188622526","yes","[0.0 50.0 0.0; 2.0 50.0 0.0; 4.0 50.0 325.0; 6.0 50.0 325.0; 8.0 50.0 0.0; 10.0 50.0 0.0; 12.0 50.0 0.0; 14.0 50.0 0.0; 16.0 0.0 325.0; 18.0 50.0 0.0; 20.0 0.0 325.0; 22.0 50.0 0.0; 24.0 0.0 325.0; 26.0 50.0 0.0; 28.0 50.0 0.0; 30.0 100.0 0.0]"
"AT","AT6a","582","113.317937183","yes","[0.0 50.0 0.0; 2.0 50.0 325.0; 4.0 0.0 325.0; 6.0 0.0 325.0; 8.0 50.0 0.0; 10.0 0.0 325.0; 12.0 0.0 325.0; 14.0 0.0 0.0; 16.0 50.0 325.0; 18.0 0.0 0.0; 20.0 0.0 0.0; 22.0 0.0 0.0; 24.0 0.0 325.0; 26.0 0.0 0.0; 28.0 50.0 325.0; 30.0 0.0 0.0]"
"AT","AT6a","586","115.37482027","yes","[0.0 50.0 0.0; 2.0 50.0 325.0; 4.0 0.0 325.0; 6.0 0.0 0.0; 8.0 0.0 325.0; 10.0 50.0 325.0; 12.0 0.0 0.0; 14.0 0.0 0.0; 16.0 0.0 325.0; 18.0 50.0 325.0; 20.0 0.0 0.0; 22.0 0.0 0.0; 24.0 0.0 325.0; 26.0 50.0 325.0; 28.0 0.0 0.0; 30.0 0.0 0.0]"
"AT","AT6a","614","111.332271745","yes","[0.0 50.0 0.0; 2.0 50.0 325.0; 4.0 50.0 0.0; 6.0 0.0 0.0; 8.0 0.0 325.0; 10.0 50.0 325.0; 12.0 0.0 325.0; 14.0 50.0 325.0; 16.0 0.0 325.0; 18.0 50.0 325.0; 20.0 0.0 325.0; 22.0 50.0 325.0; 24.0 0.0 325.0; 26.0 50.0 325.0; 28.0 0.0 325.0; 30.0 50.0 325.0]"
"AT","AT6a","632","114.953898253","yes","[0.0 50.0 0.0; 2.0 50.0 325.0; 4.0 50.0 0.0; 6.0 0.0 325.0; 8.0 50.0 325.0; 10.0 0.0 325.0; 12.0 50.0 325.0; 14.0 0.0 325.0; 16.0 50.0 325.0; 18.0 0.0 325.0; 20.0 50.0 325.0; 22.0 0.0 325.0; 24.0 50.0 325.0; 26.0 0.0 325.0; 28.0 50.0 325.0; 30.0 0.0 0.0]"
"AT","AT6a","659","116.093560758","yes","[0.0 50.0 0.0; 2.0 50.0 0.0; 4.0 50.0 0.0; 6.0 50.0 0.0; 8.0 50.0 0.0; 10.0 50.0 0.0; 12.0 50.0 0.0; 14.0 50.0 0.0; 16.0 50.0 325.0; 18.0 50.0 325.0; 20.0 50.0 325.0; 22.0 50.0 325.0; 24.0 50.0 325.0; 26.0 50.0 325.0; 28.0 50.0 325.0; 30.0 50.0 325.0]"
"AT","AT6a","675","141.88129047","yes","[0.0 50.0 0.0; 2.0 50.0 0.0; 4.0 50.0 0.0; 6.0 50.0 325.0; 8.0 50.0 325.0; 10.0 0.0 325.0; 12.0 50.0 325.0; 14.0 50.0 325.0; 16.0 0.0 0.0; 18.0 50.0 325.0; 20.0 0.0 0.0; 22.0 50.0 325.0; 24.0 0.0 0.0; 26.0 50.0 325.0; 28.0 0.0 0.0; 30.0 50.0 325.0]"
"AT","AT6a","682","135.618070966","yes","[0.0 50.0 0.0; 2.0 50.0 0.0; 4.0 50.0 0.0; 6.0 50.0 0.0; 8.0 50.0 0.0; 10.0 50.0 0.0; 12.0 0.0 0.0; 14.0 50.0 325.0; 16.0 0.0 0.0; 18.0 50.0 325.0; 20.0 0.0 0.0; 22.0 50.0 325.0; 24.0 0.0 0.0; 26.0 50.0 325.0; 28.0 0.0 0.0; 30.0 50.0 325.0]"
"AT","AT6a","736","117.894960088","yes","[0.0 50.0 0.0; 2.0 50.0 0.0; 4.0 0.0 325.0; 6.0 0.0 325.0; 8.0 50.0 0.0; 10.0 0.0 0.0; 12.0 0.0 325.0; 14.0 0.0 325.0; 16.0 50.0 0.0; 18.0 0.0 0.0; 20.0 0.0 325.0; 22.0 0.0 325.0; 24.0 50.0 0.0; 26.0 0.0 0.0; 28.0 0.0 325.0; 30.0 0.0 325.0]"
"AT","AT6a","745","130.594239757","yes","[0.0 50.0 0.0; 2.0 50.0 0.0; 4.0 0.0 0.0; 6.0 0.0 325.0; 8.0 50.0 0.0; 10.0 0.0 0.0; 12.0 0.0 0.0; 14.0 50.0 0.0; 16.0 0.0 325.0; 18.0 0.0 0.0; 20.0 0.0 0.0; 22.0 50.0 0.0; 24.0 0.0 325.0; 26.0 0.0 0.0; 28.0 0.0 0.0; 30.0 50.0 0.0]"
"AT","AT6a","827","140.859033277","yes","[0.0 50.0 0.0; 2.0 50.0 0.0; 4.0 0.0 0.0; 6.0 0.0 325.0; 8.0 50.0 325.0; 10.0 0.0 325.0; 12.0 50.0 325.0; 14.0 0.0 325.0; 16.0 50.0 325.0; 18.0 0.0 325.0; 20.0 50.0 325.0; 22.0 0.0 325.0; 24.0 50.0 325.0; 26.0 0.0 325.0; 28.0 50.0 325.0; 30.0 0.0 0.0]"
"AT","AT6a","884","150.877898468","yes","[0.0 50.0 0.0; 2.0 50.0 325.0; 4.0 50.0 0.0; 6.0 50.0 0.0; 8.0 50.0 0.0; 10.0 50.0 0.0; 12.0 50.0 0.0; 14.0 50.0 325.0; 16.0 50.0 325.0; 18.0 50.0 325.0; 20.0 50.0 325.0; 22.0 50.0 325.0; 24.0 50.0 325.0; 26.0 0.0 0.0; 28.0 50.0 0.0; 30.0 100.0 0.0]"
"AT","AT6a","887","153.576894833","yes","[0.0 50.0 0.0; 2.0 50.0 0.0; 4.0 0.0 325.0; 6.0 0.0 325.0; 8.0 50.0 0.0; 10.0 50.0 0.0; 12.0 0.0 325.0; 14.0 0.0 325.0; 16.0 50.0 325.0; 18.0 0.0 325.0; 20.0 50.0 325.0; 22.0 0.0 325.0; 24.0 50.0 325.0; 26.0 0.0 325.0; 28.0 50.0 325.0; 30.0 0.0 325.0]"
"AT","AT6a","917","166.150580827","yes","[0.0 50.0 0.0; 2.0 50.0 0.0; 4.0 50.0 0.0; 6.0 0.0 0.0; 8.0 50.0 0.0; 10.0 50.0 0.0; 12.0 0.0 325.0; 14.0 50.0 325.0; 16.0 50.0 325.0; 18.0 0.0 0.0; 20.0 0.0 0.0; 22.0 50.0 325.0; 24.0 0.0 0.0; 26.0 50.0 325.0; 28.0 0.0 0.0; 30.0 50.0 325.0]"
"AT","AT6a","939","179.340936679","yes","[0.0 50.0 0.0; 2.0 50.0 0.0; 4.0 50.0 325.0; 6.0 50.0 325.0; 8.0 50.0 0.0; 10.0 50.0 0.0; 12.0 50.0 0.0; 14.0 0.0 0.0; 16.0 0.0 0.0; 18.0 0.0 325.0; 20.0 50.0 0.0; 22.0 0.0 325.0; 24.0 50.0 0.0; 26.0 0.0 325.0; 28.0 50.0 0.0; 30.0 0.0 325.0]"
"AT","AT6a","977","167.234977466","yes","[0.0 50.0 325.0; 2.0 50.0 0.0; 4.0 50.0 0.0; 6.0 50.0 0.0; 8.0 50.0 0.0; 10.0 50.0 0.0; 12.0 50.0 0.0; 14.0 50.0 325.0; 16.0 50.0 0.0; 18.0 0.0 325.0; 20.0 50.0 325.0; 22.0 50.0 325.0; 24.0 50.0 0.0; 26.0 50.0 325.0; 28.0 0.0 0.0; 30.0 50.0 325.0]"
"AT","AT6a","983","169.912655823","yes","[0.0 50.0 0.0; 2.0 50.0 0.0; 4.0 50.0 325.0; 6.0 50.0 0.0; 8.0 50.0 0.0; 10.0 50.0 0.0; 12.0 50.0 0.0; 14.0 50.0 0.0; 16.0 0.0 325.0; 18.0 50.0 0.0; 20.0 50.0 325.0; 22.0 50.0 325.0; 24.0 50.0 325.0; 26.0 50.0 325.0; 28.0 0.0 325.0; 30.0 100.0 325.0]"
"AT","AT6a","997","172.934050524","yes","[0.0 50.0 0.0; 2.0 50.0 0.0; 4.0 50.0 0.0; 6.0 50.0 325.0; 8.0 50.0 0.0; 10.0 50.0 0.0; 12.0 50.0 0.0; 14.0 50.0 0.0; 16.0 50.0 325.0; 18.0 50.0 325.0; 20.0 50.0 325.0; 22.0 50.0 325.0; 24.0 50.0 325.0; 26.0 50.0 325.0; 28.0 50.0 0.0; 30.0 100.0 0.0]"
"AT","AT6b","1001","158.312986462","yes","[0.0 50.0 0.0; 2.0 50.0 0.0; 4.0 50.0 0.0; 6.0 0.0 325.0; 8.0 0.0 325.0; 10.0 0.0 0.0; 12.0 0.0 325.0; 14.0 0.0 325.0; 16.0 50.0 0.0; 18.0 0.0 0.0; 20.0 50.0 325.0; 22.0 0.0 325.0; 24.0 50.0 325.0; 26.0 0.0 325.0; 28.0 50.0 325.0; 30.0 0.0 325.0]"
"AT","AT6b","1016","169.193555298","yes","[0.0 50.0 0.0; 2.0 50.0 0.0; 4.0 50.0 0.0; 6.0 50.0 325.0; 8.0 50.0 0.0; 10.0 50.0 325.0; 12.0 0.0 325.0; 14.0 50.0 0.0; 16.0 0.0 325.0; 18.0 0.0 325.0; 20.0 50.0 325.0; 22.0 50.0 0.0; 24.0 0.0 325.0; 26.0 50.0 0.0; 28.0 0.0 325.0; 30.0 50.0 0.0]"
"AT","AT6b","1032","176.339312123","yes","[0.0 50.0 0.0; 2.0 50.0 0.0; 4.0 50.0 0.0; 6.0 0.0 325.0; 8.0 0.0 325.0; 10.0 50.0 325.0; 12.0 0.0 325.0; 14.0 50.0 325.0; 16.0 0.0 325.0; 18.0 50.0 325.0; 20.0 0.0 325.0; 22.0 50.0 325.0; 24.0 0.0 325.0; 26.0 50.0 325.0; 28.0 50.0 0.0; 30.0 100.0 0.0]"
"AT","AT6b","1112","191.572042222","yes","[0.0 50.0 0.0; 2.0 50.0 325.0; 4.0 50.0 0.0; 6.0 50.0 325.0; 8.0 50.0 325.0; 10.0 0.0 0.0; 12.0 0.0 0.0; 14.0 0.0 0.0; 16.0 0.0 325.0; 18.0 50.0 325.0; 20.0 0.0 325.0; 22.0 50.0 325.0; 24.0 50.0 0.0; 26.0 50.0 0.0; 28.0 0.0 325.0; 30.0 100.0 325.0]"
"AT","AT6b","1129","180.087989698","yes","[0.0 50.0 0.0; 2.0 50.0 0.0; 4.0 50.0 0.0; 6.0 0.0 0.0; 8.0 50.0 0.0; 10.0 50.0 0.0; 12.0 50.0 325.0; 14.0 0.0 0.0; 16.0 50.0 325.0; 18.0 0.0 0.0; 20.0 50.0 325.0; 22.0 0.0 0.0; 24.0 50.0 325.0; 26.0 0.0 0.0; 28.0 50.0 325.0; 30.0 0.0 0.0]"
"AT","AT6b","1147","199.734593205","yes","[0.0 50.0 0.0; 2.0 50.0 0.0; 4.0 50.0 0.0; 6.0 0.0 325.0; 8.0 0.0 325.0; 10.0 50.0 325.0; 12.0 0.0 0.0; 14.0 0.0 325.0; 16.0 0.0 0.0; 18.0 0.0 325.0; 20.0 0.0 325.0; 22.0 0.0 0.0; 24.0 50.0 0.0; 26.0 0.0 0.0; 28.0 50.0 0.0; 30.0 100.0 325.0]"
"AT","AT6b","1179","204.117146611","yes","[0.0 50.0 0.0; 2.0 50.0 0.0; 4.0 50.0 0.0; 6.0 0.0 0.0; 8.0 0.0 325.0; 10.0 0.0 325.0; 12.0 50.0 0.0; 14.0 50.0 325.0; 16.0 0.0 325.0; 18.0 50.0 325.0; 20.0 0.0 325.0; 22.0 50.0 325.0; 24.0 0.0 325.0; 26.0 50.0 325.0; 28.0 0.0 325.0; 30.0 50.0 325.0]"
"AT","AT6b","1248","216.095800137","yes","[0.0 50.0 0.0; 2.0 50.0 0.0; 4.0 50.0 0.0; 6.0 50.0 325.0; 8.0 50.0 0.0; 10.0 50.0 0.0; 12.0 0.0 325.0; 14.0 50.0 0.0; 16.0 0.0 325.0; 18.0 50.0 0.0; 20.0 0.0 325.0; 22.0 50.0 0.0; 24.0 0.0 325.0; 26.0 50.0 0.0; 28.0 0.0 325.0; 30.0 50.0 0.0]"
"AT","AT6b","1312","202.895820634","yes","[0.0 50.0 0.0; 2.0 50.0 0.0; 4.0 50.0 0.0; 6.0 0.0 325.0; 8.0 0.0 325.0; 10.0 0.0 325.0; 12.0 0.0 0.0; 14.0 0.0 325.0; 16.0 0.0 0.0; 18.0 0.0 0.0; 20.0 0.0 0.0; 22.0 0.0 0.0; 24.0 0.0 0.0; 26.0 0.0 0.0; 28.0 50.0 0.0; 30.0 0.0 325.0]"
"AT","AT6b","1338","238.339988623","yes","[0.0 50.0 0.0; 2.0 50.0 0.0; 4.0 50.0 0.0; 6.0 0.0 325.0; 8.0 0.0 325.0; 10.0 0.0 0.0; 12.0 0.0 325.0; 14.0 50.0 325.0; 16.0 50.0 0.0; 18.0 0.0 0.0; 20.0 50.0 0.0; 22.0 50.0 0.0; 24.0 0.0 325.0; 26.0 50.0 0.0; 28.0 0.0 325.0; 30.0 50.0 0.0]"
"AT","AT6b","1345","229.970118426","yes","[0.0 50.0 0.0; 2.0 50.0 325.0; 4.0 50.0 325.0; 6.0 50.0 0.0; 8.0 0.0 0.0; 10.0 0.0 0.0; 12.0 0.0 0.0; 14.0 0.0 325.0; 16.0 50.0 325.0; 18.0 0.0 0.0; 20.0 50.0 0.0; 22.0 0.0 325.0; 24.0 50.0 0.0; 26.0 50.0 0.0; 28.0 0.0 325.0; 30.0 50.0 0.0]"
"AT","AT6b","1671","308.552940158","yes","[0.0 50.0 0.0; 2.0 50.0 325.0; 4.0 50.0 0.0; 6.0 50.0 0.0; 8.0 50.0 0.0; 10.0 50.0 0.0; 12.0 0.0 325.0; 14.0 50.0 0.0; 16.0 0.0 325.0; 18.0 50.0 0.0; 20.0 0.0 325.0; 22.0 50.0 0.0; 24.0 0.0 325.0; 26.0 50.0 0.0; 28.0 0.0 325.0; 30.0 100.0 0.0]"
"AT","AT6b","1981","352.136059094","yes","[0.0 50.0 0.0; 2.0 50.0 0.0; 4.0 50.0 0.0; 6.0 0.0 325.0; 8.0 0.0 325.0; 10.0 0.0 0.0; 12.0 0.0 0.0; 14.0 0.0 325.0; 16.0 50.0 325.0; 18.0 50.0 325.0; 20.0 0.0 325.0; 22.0 50.0 325.0; 24.0 0.0 325.0; 26.0 50.0 325.0; 28.0 0.0 325.0; 30.0 50.0 325.0]"
"AT","AT6b","356","72.505693633","yes","[0.0 50.0 0.0; 2.0 50.0 0.0; 4.0 50.0 0.0; 6.0 0.0 325.0; 8.0 0.0 325.0; 10.0 0.0 325.0; 12.0 0.0 325.0; 14.0 50.0 325.0; 16.0 0.0 325.0; 18.0 50.0 0.0; 20.0 0.0 0.0; 22.0 50.0 325.0; 24.0 0.0 0.0; 26.0 50.0 325.0; 28.0 50.0 0.0; 30.0 100.0 0.0]"
"AT","AT6b","396","74.97801403","yes","[0.0 50.0 0.0; 2.0 50.0 0.0; 4.0 50.0 0.0; 6.0 50.0 325.0; 8.0 0.0 325.0; 10.0 0.0 325.0; 12.0 50.0 325.0; 14.0 0.0 325.0; 16.0 50.0 325.0; 18.0 0.0 325.0; 20.0 50.0 325.0; 22.0 0.0 325.0; 24.0 50.0 325.0; 26.0 0.0 325.0; 28.0 50.0 325.0; 30.0 0.0 325.0]"
"AT","AT6b","421","79.919482823","yes","[0.0 50.0 0.0; 2.0 50.0 0.0; 4.0 50.0 0.0; 6.0 50.0 325.0; 8.0 0.0 0.0; 10.0 50.0 325.0; 12.0 0.0 0.0; 14.0 50.0 325.0; 16.0 0.0 0.0; 18.0 50.0 325.0; 20.0 0.0 0.0; 22.0 50.0 325.0; 24.0 0.0 0.0; 26.0 50.0 325.0; 28.0 0.0 0.0; 30.0 50.0 325.0]"
"AT","AT6b","436","85.346919398","yes","[0.0 50.0 0.0; 2.0 50.0 0.0; 4.0 50.0 0.0; 6.0 0.0 325.0; 8.0 0.0 325.0; 10.0 0.0 325.0; 12.0 0.0 325.0; 14.0 0.0 0.0; 16.0 0.0 0.0; 18.0 0.0 0.0; 20.0 50.0 325.0; 22.0 50.0 0.0; 24.0 0.0 325.0; 26.0 50.0 0.0; 28.0 0.0 325.0; 30.0 100.0 0.0]"
"AT","AT6b","437","87.598159991","yes","[0.0 50.0 0.0; 2.0 50.0 0.0; 4.0 50.0 0.0; 6.0 0.0 325.0; 8.0 0.0 325.0; 10.0 0.0 325.0; 12.0 0.0 325.0; 14.0 50.0 325.0; 16.0 0.0 0.0; 18.0 0.0 0.0; 20.0 0.0 0.0; 22.0 0.0 0.0; 24.0 50.0 325.0; 26.0 50.0 0.0; 28.0 0.0 325.0; 30.0 100.0 0.0]"
"AT","AT6b","441","82.389626648","yes","[0.0 50.0 0.0; 2.0 50.0 0.0; 4.0 50.0 0.0; 6.0 0.0 325.0; 8.0 0.0 325.0; 10.0 50.0 325.0; 12.0 0.0 325.0; 14.0 50.0 325.0; 16.0 0.0 325.0; 18.0 0.0 0.0; 20.0 50.0 325.0; 22.0 0.0 0.0; 24.0 50.0 325.0; 26.0 0.0 0.0; 28.0 50.0 0.0; 30.0 100.0 0.0]"
"AT","AT6b","463","99.539960357","yes","[0.0 50.0 0.0; 2.0 50.0 325.0; 4.0 50.0 0.0; 6.0 50.0 0.0; 8.0 50.0 0.0; 10.0 50.0 0.0; 12.0 50.0 0.0; 14.0 0.0 0.0; 16.0 50.0 325.0; 18.0 0.0 0.0; 20.0 50.0 325.0; 22.0 0.0 0.0; 24.0 50.0 325.0; 26.0 0.0 0.0; 28.0 50.0 325.0; 30.0 0.0 0.0]"
"AT","AT6b","475","91.246023995","yes","[0.0 50.0 0.0; 2.0 50.0 325.0; 4.0 50.0 0.0; 6.0 50.0 0.0; 8.0 50.0 0.0; 10.0 50.0 325.0; 12.0 50.0 0.0; 14.0 50.0 0.0; 16.0 50.0 0.0; 18.0 50.0 0.0; 20.0 0.0 0.0; 22.0 50.0 325.0; 24.0 50.0 325.0; 26.0 50.0 325.0; 28.0 50.0 325.0; 30.0 50.0 325.0]"
"AT","AT6b","480","89.176567389","yes","[0.0 50.0 0.0; 2.0 50.0 0.0; 4.0 50.0 0.0; 6.0 0.0 325.0; 8.0 0.0 325.0; 10.0 0.0 325.0; 12.0 0.0 325.0; 14.0 0.0 325.0; 16.0 0.0 0.0; 18.0 0.0 325.0; 20.0 0.0 325.0; 22.0 50.0 325.0; 24.0 50.0 0.0; 26.0 50.0 325.0; 28.0 0.0 0.0; 30.0 0.0 0.0]"
"AT","AT6b","480","96.306428577","yes","[0.0 50.0 0.0; 2.0 50.0 0.0; 4.0 50.0 0.0; 6.0 0.0 325.0; 8.0 0.0 325.0; 10.0 0.0 325.0; 12.0 0.0 325.0; 14.0 0.0 0.0; 16.0 0.0 0.0; 18.0 0.0 0.0; 20.0 0.0 0.0; 22.0 0.0 0.0; 24.0 50.0 325.0; 26.0 50.0 0.0; 28.0 0.0 325.0; 30.0 100.0 0.0]"
"AT","AT6b","499","91.768313468","yes","[0.0 50.0 0.0; 2.0 50.0 0.0; 4.0 50.0 0.0; 6.0 0.0 325.0; 8.0 0.0 325.0; 10.0 0.0 325.0; 12.0 0.0 325.0; 14.0 0.0 0.0; 16.0 0.0 325.0; 18.0 0.0 0.0; 20.0 0.0 325.0; 22.0 50.0 325.0; 24.0 50.0 0.0; 26.0 50.0 0.0; 28.0 50.0 0.0; 30.0 100.0 325.0]"
"AT","AT6b","555","104.890828077","yes","[0.0 50.0 0.0; 2.0 50.0 325.0; 4.0 50.0 0.0; 6.0 50.0 0.0; 8.0 50.0 0.0; 10.0 50.0 0.0; 12.0 0.0 325.0; 14.0 50.0 0.0; 16.0 0.0 325.0; 18.0 50.0 0.0; 20.0 0.0 325.0; 22.0 50.0 0.0; 24.0 0.0 325.0; 26.0 50.0 0.0; 28.0 0.0 325.0; 30.0 50.0 0.0]"
"AT","AT6b","582","105.739798386","yes","[0.0 50.0 0.0; 2.0 50.0 0.0; 4.0 50.0 0.0; 6.0 50.0 325.0; 8.0 50.0 0.0; 10.0 0.0 0.0; 12.0 50.0 325.0; 14.0 0.0 0.0; 16.0 50.0 325.0; 18.0 0.0 0.0; 20.0 50.0 325.0; 22.0 0.0 0.0; 24.0 50.0 325.0; 26.0 0.0 0.0; 28.0 0.0 325.0; 30.0 100.0 325.0]"
"AT","AT6b","599","105.427329609","yes","[0.0 50.0 0.0; 2.0 50.0 325.0; 4.0 50.0 0.0; 6.0 50.0 0.0; 8.0 50.0 0.0; 10.0 50.0 0.0; 12.0 0.0 0.0; 14.0 50.0 325.0; 16.0 0.0 0.0; 18.0 50.0 325.0; 20.0 0.0 0.0; 22.0 50.0 325.0; 24.0 0.0 0.0; 26.0 50.0 325.0; 28.0 0.0 0.0; 30.0 50.0 325.0]"
"AT","AT6b","605","112.207232427","yes","[0.0 50.0 0.0; 2.0 50.0 0.0; 4.0 50.0 0.0; 6.0 50.0 325.0; 8.0 50.0 0.0; 10.0 50.0 0.0; 12.0 50.0 0.0; 14.0 50.0 0.0; 16.0 0.0 325.0; 18.0 0.0 325.0; 20.0 50.0 0.0; 22.0 0.0 325.0; 24.0 50.0 0.0; 26.0 0.0 325.0; 28.0 50.0 0.0; 30.0 0.0 325.0]"
"AT","AT6b","624","118.911826775","yes","[0.0 50.0 0.0; 2.0 50.0 0.0; 4.0 50.0 0.0; 6.0 0.0 325.0; 8.0 0.0 325.0; 10.0 0.0 325.0; 12.0 0.0 325.0; 14.0 0.0 0.0; 16.0 50.0 0.0; 18.0 50.0 0.0; 20.0 50.0 325.0; 22.0 0.0 0.0; 24.0 0.0 0.0; 26.0 50.0 325.0; 28.0 50.0 0.0; 30.0 100.0 325.0]"
"AT","AT6b","630","126.939940094","yes","[0.0 50.0 0.0; 2.0 50.0 0.0; 4.0 50.0 0.0; 6.0 50.0 325.0; 8.0 50.0 0.0; 10.0 50.0 0.0; 12.0 50.0 0.0; 14.0 0.0 0.0; 16.0 50.0 325.0; 18.0 0.0 0.0; 20.0 50.0 325.0; 22.0 0.0 0.0; 24.0 50.0 325.0; 26.0 0.0 0.0; 28.0 50.0 325.0; 30.0 0.0 0.0]"
"AT","AT6b","640","114.246015224","yes","[0.0 50.0 0.0; 2.0 50.0 325.0; 4.0 50.0 0.0; 6.0 50.0 325.0; 8.0 0.0 325.0; 10.0 50.0 325.0; 12.0 0.0 0.0; 14.0 0.0 325.0; 16.0 50.0 0.0; 18.0 0.0 0.0; 20.0 0.0 325.0; 22.0 50.0 325.0; 24.0 0.0 325.0; 26.0 50.0 325.0; 28.0 50.0 325.0; 30.0 100.0 325.0]"
"AT","AT6b","652","113.078857945","yes","[0.0 50.0 0.0; 2.0 50.0 0.0; 4.0 50.0 0.0; 6.0 0.0 325.0; 8.0 0.0 325.0; 10.0 0.0 325.0; 12.0 0.0 325.0; 14.0 0.0 325.0; 16.0 0.0 325.0; 18.0 0.0 325.0; 20.0 0.0 325.0; 22.0 0.0 325.0; 24.0 0.0 325.0; 26.0 0.0 325.0; 28.0 50.0 0.0; 30.0 100.0 0.0]"
"AT","AT6b","667","117.172017339","yes","[0.0 50.0 325.0; 2.0 50.0 325.0; 4.0 50.0 0.0; 6.0 50.0 0.0; 8.0 50.0 325.0; 10.0 50.0 325.0; 12.0 0.0 0.0; 14.0 50.0 325.0; 16.0 0.0 0.0; 18.0 50.0 325.0; 20.0 0.0 0.0; 22.0 50.0 325.0; 24.0 0.0 0.0; 26.0 50.0 325.0; 28.0 0.0 0.0; 30.0 50.0 325.0]"
"AT","AT6b","707","113.565238876","yes","[0.0 50.0 0.0; 2.0 50.0 0.0; 4.0 50.0 0.0; 6.0 50.0 325.0; 8.0 50.0 0.0; 10.0 50.0 0.0; 12.0 50.0 325.0; 14.0 50.0 325.0; 16.0 50.0 325.0; 18.0 50.0 325.0; 20.0 50.0 325.0; 22.0 50.0 325.0; 24.0 50.0 325.0; 26.0 50.0 325.0; 28.0 50.0 0.0; 30.0 100.0 325.0]"
"AT","AT6b","716","120.751641272","yes","[0.0 0.0 0.0; 2.0 50.0 0.0; 4.0 50.0 0.0; 6.0 50.0 0.0; 8.0 0.0 325.0; 10.0 0.0 325.0; 12.0 0.0 325.0; 14.0 0.0 325.0; 16.0 0.0 325.0; 18.0 0.0 325.0; 20.0 0.0 0.0; 22.0 0.0 325.0; 24.0 50.0 325.0; 26.0 0.0 325.0; 28.0 0.0 325.0; 30.0 0.0 0.0]"
"AT","AT6b","725","124.21554331","yes","[0.0 50.0 0.0; 2.0 50.0 0.0; 4.0 50.0 0.0; 6.0 0.0 325.0; 8.0 0.0 325.0; 10.0 0.0 325.0; 12.0 0.0 325.0; 14.0 0.0 325.0; 16.0 0.0 325.0; 18.0 0.0 0.0; 20.0 0.0 0.0; 22.0 50.0 325.0; 24.0 0.0 0.0; 26.0 50.0 0.0; 28.0 50.0 0.0; 30.0 50.0 325.0]"
"AT","AT6b","771","127.141835993","yes","[0.0 50.0 0.0; 2.0 50.0 0.0; 4.0 50.0 0.0; 6.0 50.0 325.0; 8.0 50.0 0.0; 10.0 0.0 0.0; 12.0 50.0 0.0; 14.0 50.0 325.0; 16.0 0.0 0.0; 18.0 50.0 325.0; 20.0 0.0 0.0; 22.0 50.0 325.0; 24.0 0.0 0.0; 26.0 50.0 325.0; 28.0 50.0 0.0; 30.0 100.0 0.0]"
"AT","AT6b","780","138.947796147","yes","[0.0 50.0 0.0; 2.0 50.0 0.0; 4.0 50.0 0.0; 6.0 50.0 325.0; 8.0 50.0 0.0; 10.0 50.0 0.0; 12.0 0.0 0.0; 14.0 50.0 325.0; 16.0 0.0 0.0; 18.0 50.0 325.0; 20.0 0.0 0.0; 22.0 50.0 325.0; 24.0 0.0 0.0; 26.0 50.0 325.0; 28.0 50.0 0.0; 30.0 100.0 0.0]"
"AT","AT6b","784","145.718180596","yes","[0.0 50.0 0.0; 2.0 50.0 0.0; 4.0 50.0 0.0; 6.0 50.0 325.0; 8.0 0.0 0.0; 10.0 50.0 325.0; 12.0 0.0 0.0; 14.0 50.0 325.0; 16.0 0.0 0.0; 18.0 50.0 325.0; 20.0 0.0 0.0; 22.0 50.0 325.0; 24.0 0.0 0.0; 26.0 50.0 325.0; 28.0 50.0 325.0; 30.0 100.0 325.0]"
"AT","AT6b","791","141.763300441","yes","[0.0 50.0 0.0; 2.0 50.0 0.0; 4.0 50.0 0.0; 6.0 0.0 325.0; 8.0 50.0 0.0; 10.0 50.0 0.0; 12.0 0.0 0.0; 14.0 50.0 325.0; 16.0 0.0 0.0; 18.0 50.0 325.0; 20.0 0.0 0.0; 22.0 50.0 325.0; 24.0 0.0 0.0; 26.0 50.0 325.0; 28.0 0.0 0.0; 30.0 50.0 325.0]"
"AT","AT6b","804","139.832247714","yes","[0.0 50.0 0.0; 2.0 50.0 0.0; 4.0 50.0 0.0; 6.0 50.0 325.0; 8.0 50.0 0.0; 10.0 50.0 0.0; 12.0 50.0 0.0; 14.0 50.0 0.0; 16.0 0.0 325.0; 18.0 50.0 0.0; 20.0 0.0 325.0; 22.0 50.0 0.0; 24.0 0.0 325.0; 26.0 50.0 0.0; 28.0 0.0 325.0; 30.0 100.0 0.0]"
"AT","AT6b","823","142.92537386","yes","[0.0 50.0 0.0; 2.0 50.0 0.0; 4.0 50.0 0.0; 6.0 0.0 0.0; 8.0 50.0 325.0; 10.0 0.0 325.0; 12.0 0.0 0.0; 14.0 50.0 325.0; 16.0 0.0 325.0; 18.0 0.0 325.0; 20.0 50.0 325.0; 22.0 0.0 325.0; 24.0 50.0 325.0; 26.0 0.0 325.0; 28.0 50.0 325.0; 30.0 0.0 325.0]"
"AT","AT6b","825","134.836421255","yes","[0.0 50.0 0.0; 2.0 50.0 325.0; 4.0 50.0 0.0; 6.0 50.0 0.0; 8.0 50.0 0.0; 10.0 50.0 325.0; 12.0 0.0 0.0; 14.0 50.0 325.0; 16.0 0.0 0.0; 18.0 50.0 325.0; 20.0 0.0 0.0; 22.0 50.0 325.0; 24.0 0.0 0.0; 26.0 50.0 325.0; 28.0 0.0 0.0; 30.0 50.0 325.0]"
"AT","AT6b","831","146.842331973","yes","[0.0 50.0 0.0; 2.0 50.0 0.0; 4.0 50.0 0.0; 6.0 50.0 325.0; 8.0 50.0 0.0; 10.0 50.0 0.0; 12.0 50.0 0.0; 14.0 50.0 0.0; 16.0 0.0 325.0; 18.0 50.0 0.0; 20.0 0.0 325.0; 22.0 50.0 0.0; 24.0 0.0 325.0; 26.0 50.0 0.0; 28.0 0.0 325.0; 30.0 50.0 0.0]"
"AT","AT6b","858","142.424691062","yes","[0.0 50.0 0.0; 2.0 50.0 0.0; 4.0 50.0 0.0; 6.0 50.0 325.0; 8.0 0.0 0.0; 10.0 50.0 325.0; 12.0 0.0 0.0; 14.0 0.0 0.0; 16.0 50.0 325.0; 18.0 50.0 325.0; 20.0 0.0 0.0; 22.0 50.0 0.0; 24.0 0.0 0.0; 26.0 0.0 0.0; 28.0 0.0 0.0; 30.0 50.0 325.0]"
"AT","AT6b","869","157.971298573","yes","[0.0 50.0 0.0; 2.0 50.0 325.0; 4.0 50.0 0.0; 6.0 50.0 0.0; 8.0 50.0 0.0; 10.0 50.0 0.0; 12.0 50.0 0.0; 14.0 50.0 0.0; 16.0 50.0 0.0; 18.0 50.0 0.0; 20.0 50.0 325.0; 22.0 50.0 325.0; 24.0 50.0 325.0; 26.0 50.0 325.0; 28.0 50.0 325.0; 30.0 50.0 325.0]"
"AT","AT6b","931","168.354915552","yes","[0.0 50.0 0.0; 2.0 50.0 325.0; 4.0 50.0 0.0; 6.0 50.0 0.0; 8.0 50.0 0.0; 10.0 50.0 0.0; 12.0 0.0 325.0; 14.0 50.0 0.0; 16.0 0.0 325.0; 18.0 50.0 0.0; 20.0 0.0 325.0; 22.0 50.0 0.0; 24.0 0.0 325.0; 26.0 50.0 0.0; 28.0 50.0 0.0; 30.0 100.0 0.0]"
"AT","AT6b","978","163.182944117","yes","[0.0 50.0 0.0; 2.0 50.0 325.0; 4.0 50.0 0.0; 6.0 50.0 0.0; 8.0 50.0 0.0; 10.0 50.0 325.0; 12.0 50.0 0.0; 14.0 50.0 0.0; 16.0 0.0 325.0; 18.0 50.0 0.0; 20.0 0.0 325.0; 22.0 50.0 0.0; 24.0 0.0 325.0; 26.0 50.0 0.0; 28.0 50.0 0.0; 30.0 100.0 325.0]"
"AT","AT6b","998","164.375442076","yes","[0.0 50.0 0.0; 2.0 50.0 0.0; 4.0 50.0 0.0; 6.0 50.0 325.0; 8.0 50.0 0.0; 10.0 0.0 0.0; 12.0 50.0 0.0; 14.0 0.0 325.0; 16.0 50.0 0.0; 18.0 0.0 325.0; 20.0 50.0 325.0; 22.0 0.0 0.0; 24.0 50.0 325.0; 26.0 0.0 0.0; 28.0 0.0 325.0; 30.0 100.0 325.0]"
"AT","AT6c","1029","165.028059035","yes","[0.0 50.0 0.0; 2.0 50.0 325.0; 4.0 50.0 325.0; 6.0 50.0 0.0; 8.0 50.0 0.0; 10.0 50.0 0.0; 12.0 0.0 325.0; 14.0 0.0 325.0; 16.0 0.0 325.0; 18.0 0.0 325.0; 20.0 50.0 325.0; 22.0 0.0 325.0; 24.0 50.0 325.0; 26.0 0.0 325.0; 28.0 50.0 325.0; 30.0 0.0 325.0]"
"AT","AT6c","1031","166.833618519","yes","[0.0 50.0 0.0; 2.0 50.0 0.0; 4.0 50.0 0.0; 6.0 0.0 325.0; 8.0 0.0 0.0; 10.0 50.0 0.0; 12.0 0.0 0.0; 14.0 50.0 0.0; 16.0 50.0 325.0; 18.0 50.0 0.0; 20.0 50.0 0.0; 22.0 50.0 325.0; 24.0 50.0 325.0; 26.0 50.0 325.0; 28.0 50.0 325.0; 30.0 50.0 325.0]"
"AT","AT6c","1047","185.652718203","yes","[0.0 50.0 0.0; 2.0 50.0 325.0; 4.0 50.0 0.0; 6.0 50.0 325.0; 8.0 0.0 325.0; 10.0 50.0 0.0; 12.0 50.0 0.0; 14.0 50.0 325.0; 16.0 0.0 0.0; 18.0 50.0 325.0; 20.0 0.0 0.0; 22.0 50.0 325.0; 24.0 0.0 0.0; 26.0 50.0 325.0; 28.0 50.0 0.0; 30.0 50.0 0.0]"
"AT","AT6c","1069","200.792536207","yes","[0.0 50.0 0.0; 2.0 50.0 325.0; 4.0 50.0 0.0; 6.0 0.0 0.0; 8.0 50.0 0.0; 10.0 50.0 0.0; 12.0 0.0 325.0; 14.0 50.0 325.0; 16.0 50.0 325.0; 18.0 50.0 0.0; 20.0 0.0 0.0; 22.0 50.0 325.0; 24.0 0.0 0.0; 26.0 50.0 325.0; 28.0 0.0 0.0; 30.0 50.0 325.0]"
"AT","AT6c","1134","187.985907795","yes","[0.0 50.0 0.0; 2.0 50.0 0.0; 4.0 50.0 0.0; 6.0 50.0 0.0; 8.0 50.0 325.0; 10.0 50.0 0.0; 12.0 0.0 325.0; 14.0 0.0 325.0; 16.0 0.0 325.0; 18.0 0.0 0.0; 20.0 50.0 325.0; 22.0 50.0 325.0; 24.0 0.0 325.0; 26.0 50.0 0.0; 28.0 0.0 0.0; 30.0 100.0 325.0]"
"AT","AT6c","1138","200.687131322","yes","[0.0 50.0 0.0; 2.0 50.0 0.0; 4.0 50.0 0.0; 6.0 50.0 0.0; 8.0 50.0 0.0; 10.0 50.0 325.0; 12.0 50.0 0.0; 14.0 50.0 0.0; 16.0 50.0 0.0; 18.0 50.0 0.0; 20.0 50.0 325.0; 22.0 50.0 325.0; 24.0 50.0 325.0; 26.0 50.0 325.0; 28.0 50.0 325.0; 30.0 50.0 325.0]"
"AT","AT6c","1174","197.421457429","yes","[0.0 50.0 0.0; 2.0 50.0 0.0; 4.0 50.0 0.0; 6.0 50.0 325.0; 8.0 50.0 0.0; 10.0 50.0 0.0; 12.0 50.0 0.0; 14.0 50.0 0.0; 16.0 50.0 325.0; 18.0 50.0 325.0; 20.0 50.0 325.0; 22.0 50.0 0.0; 24.0 0.0 0.0; 26.0 50.0 325.0; 28.0 0.0 0.0; 30.0 50.0 325.0]"
"AT","AT6c","1209","196.015482059","yes","[0.0 50.0 0.0; 2.0 50.0 325.0; 4.0 50.0 325.0; 6.0 50.0 325.0; 8.0 0.0 325.0; 10.0 50.0 325.0; 12.0 50.0 0.0; 14.0 50.0 0.0; 16.0 50.0 325.0; 18.0 50.0 325.0; 20.0 0.0 0.0; 22.0 50.0 325.0; 24.0 0.0 0.0; 26.0 50.0 325.0; 28.0 0.0 0.0; 30.0 50.0 325.0]"
"AT","AT6c","1232","194.420586069","yes","[0.0 50.0 0.0; 2.0 50.0 0.0; 4.0 50.0 325.0; 6.0 50.0 325.0; 8.0 50.0 0.0; 10.0 50.0 0.0; 12.0 50.0 0.0; 14.0 50.0 0.0; 16.0 50.0 0.0; 18.0 50.0 0.0; 20.0 50.0 325.0; 22.0 50.0 325.0; 24.0 50.0 325.0; 26.0 50.0 325.0; 28.0 50.0 325.0; 30.0 50.0 325.0]"
"AT","AT6c","1277","225.575270358","yes","[0.0 50.0 0.0; 2.0 50.0 0.0; 4.0 50.0 325.0; 6.0 50.0 0.0; 8.0 50.0 0.0; 10.0 50.0 0.0; 12.0 50.0 0.0; 14.0 50.0 0.0; 16.0 50.0 0.0; 18.0 0.0 0.0; 20.0 50.0 325.0; 22.0 50.0 0.0; 24.0 50.0 0.0; 26.0 0.0 325.0; 28.0 0.0 0.0; 30.0 50.0 0.0]"
"AT","AT6c","1308","226.055464196","yes","[0.0 50.0 0.0; 2.0 50.0 325.0; 4.0 50.0 325.0; 6.0 50.0 0.0; 8.0 50.0 0.0; 10.0 50.0 0.0; 12.0 0.0 325.0; 14.0 0.0 325.0; 16.0 0.0 325.0; 18.0 0.0 325.0; 20.0 0.0 325.0; 22.0 0.0 325.0; 24.0 50.0 0.0; 26.0 50.0 325.0; 28.0 0.0 325.0; 30.0 50.0 325.0]"
"AT","AT6c","1348","242.026038959","yes","[0.0 50.0 0.0; 2.0 50.0 0.0; 4.0 50.0 0.0; 6.0 50.0 0.0; 8.0 50.0 0.0; 10.0 50.0 325.0; 12.0 50.0 0.0; 14.0 50.0 0.0; 16.0 50.0 0.0; 18.0 50.0 0.0; 20.0 0.0 0.0; 22.0 50.0 325.0; 24.0 50.0 325.0; 26.0 50.0 0.0; 28.0 50.0 325.0; 30.0 50.0 0.0]"
"AT","AT6c","140","45.686903352","yes","[0.0 50.0 0.0; 5.0 50.0 325.0; 10.0 50.0 0.0; 15.0 0.0 325.0; 20.0 0.0 0.0; 25.0 0.0 0.0; 30.0 50.0 0.0]"
"AT","AT6c","150","49.525954695","yes","[0.0 50.0 0.0; 5.0 50.0 0.0; 10.0 50.0 0.0; 15.0 0.0 325.0; 20.0 0.0 0.0; 25.0 0.0 0.0; 30.0 0.0 0.0]"
"AT","AT6c","1502","246.653530903","yes","[0.0 50.0 0.0; 2.0 50.0 325.0; 4.0 50.0 325.0; 6.0 50.0 0.0; 8.0 50.0 0.0; 10.0 50.0 325.0; 12.0 0.0 0.0; 14.0 50.0 325.0; 16.0 0.0 0.0; 18.0 50.0 0.0; 20.0 50.0 325.0; 22.0 0.0 0.0; 24.0 50.0 325.0; 26.0 0.0 0.0; 28.0 50.0 325.0; 30.0 0.0 0.0]"
"AT","AT6c","1517","286.408249637","yes","[0.0 0.0 325.0; 2.0 50.0 0.0; 4.0 50.0 0.0; 6.0 50.0 0.0; 8.0 0.0 0.0; 10.0 50.0 0.0; 12.0 50.0 0.0; 14.0 50.0 325.0; 16.0 50.0 0.0; 18.0 0.0 325.0; 20.0 0.0 0.0; 22.0 50.0 325.0; 24.0 0.0 0.0; 26.0 50.0 325.0; 28.0 50.0 0.0; 30.0 0.0 325.0]"
"AT","AT6c","157","48.65937205","yes","[0.0 50.0 0.0; 5.0 50.0 325.0; 10.0 50.0 0.0; 15.0 0.0 325.0; 20.0 0.0 0.0; 25.0 0.0 325.0; 30.0 50.0 0.0]"
"AT","AT6c","161","51.984661297","yes","[0.0 50.0 0.0; 5.0 50.0 325.0; 10.0 50.0 0.0; 15.0 0.0 325.0; 20.0 0.0 0.0; 25.0 0.0 0.0; 30.0 0.0 0.0]"
"AT","AT6c","169","55.530241787","yes","[0.0 50.0 0.0; 5.0 50.0 325.0; 10.0 50.0 0.0; 15.0 0.0 325.0; 20.0 50.0 325.0; 25.0 50.0 0.0; 30.0 100.0 0.0]"
"AT","AT6c","1692","300.055884969","yes","[0.0 50.0 0.0; 2.0 50.0 0.0; 4.0 50.0 0.0; 6.0 50.0 0.0; 8.0 50.0 0.0; 10.0 50.0 0.0; 12.0 50.0 0.0; 14.0 50.0 0.0; 16.0 50.0 0.0; 18.0 50.0 0.0; 20.0 50.0 325.0; 22.0 50.0 325.0; 24.0 50.0 325.0; 26.0 50.0 325.0; 28.0 50.0 325.0; 30.0 50.0 325.0]"
"AT","AT6c","1717","267.424434269","yes","[0.0 50.0 0.0; 2.0 50.0 325.0; 4.0 50.0 0.0; 6.0 50.0 0.0; 8.0 50.0 0.0; 10.0 50.0 325.0; 12.0 0.0 325.0; 14.0 0.0 325.0; 16.0 0.0 0.0; 18.0 0.0 325.0; 20.0 0.0 325.0; 22.0 0.0 325.0; 24.0 50.0 0.0; 26.0 50.0 0.0; 28.0 50.0 0.0; 30.0 50.0 325.0]"
"AT","AT6c","1753","297.898135971","yes","[0.0 50.0 0.0; 2.0 50.0 0.0; 4.0 50.0 0.0; 6.0 50.0 0.0; 8.0 50.0 0.0; 10.0 50.0 0.0; 12.0 50.0 0.0; 14.0 50.0 0.0; 16.0 50.0 325.0; 18.0 50.0 325.0; 20.0 50.0 325.0; 22.0 50.0 0.0; 24.0 0.0 0.0; 26.0 50.0 0.0; 28.0 0.0 0.0; 30.0 50.0 0.0]"
"AT","AT6c","176","52.80144869","yes","[0.0 50.0 0.0; 5.0 50.0 325.0; 10.0 50.0 0.0; 15.0 0.0 325.0; 20.0 0.0 0.0; 25.0 50.0 325.0; 30.0 100.0 0.0]"
"AT","AT6c","1889","324.169469187","yes","[0.0 50.0 0.0; 2.0 50.0 0.0; 4.0 50.0 0.0; 6.0 50.0 325.0; 8.0 50.0 325.0; 10.0 50.0 325.0; 12.0 50.0 0.0; 14.0 50.0 0.0; 16.0 50.0 0.0; 18.0 50.0 325.0; 20.0 0.0 0.0; 22.0 50.0 325.0; 24.0 0.0 0.0; 26.0 50.0 325.0; 28.0 50.0 325.0; 30.0 100.0 325.0]"
"AT","AT6c","189","56.78755442","yes","[0.0 50.0 0.0; 5.0 50.0 0.0; 10.0 50.0 0.0; 15.0 50.0 325.0; 20.0 50.0 325.0; 25.0 0.0 325.0; 30.0 100.0 325.0]"
"AT","AT6c","190","53.386477907","yes","[0.0 0.0 0.0; 5.0 50.0 0.0; 10.0 50.0 0.0; 15.0 0.0 325.0; 20.0 0.0 325.0; 25.0 0.0 325.0; 30.0 0.0 325.0]"
"AT","AT6c","192","59.236612079","yes","[0.0 50.0 0.0; 5.0 50.0 0.0; 10.0 50.0 325.0; 15.0 0.0 325.0; 20.0 0.0 325.0; 25.0 50.0 325.0; 30.0 0.0 325.0]"
"AT","AT6c","2005","383.751887677","yes","[0.0 50.0 0.0; 2.0 50.0 0.0; 4.0 50.0 0.0; 6.0 50.0 325.0; 8.0 50.0 0.0; 10.0 50.0 0.0; 12.0 0.0 325.0; 14.0 0.0 325.0; 16.0 0.0 325.0; 18.0 0.0 325.0; 20.0 50.0 325.0; 22.0 50.0 0.0; 24.0 0.0 0.0; 26.0 50.0 325.0; 28.0 0.0 0.0; 30.0 50.0 325.0]"
"AT","AT6c","208","57.622091305","yes","[0.0 50.0 0.0; 5.0 50.0 325.0; 10.0 50.0 0.0; 15.0 0.0 325.0; 20.0 0.0 325.0; 25.0 50.0 325.0; 30.0 0.0 325.0]"
"AT","AT6c","213","58.372517875","yes","[0.0 0.0 0.0; 5.0 50.0 0.0; 10.0 50.0 0.0; 15.0 50.0 0.0; 20.0 50.0 0.0; 25.0 50.0 325.0; 30.0 50.0 325.0]"
"AT","AT6c","218","63.08594192","yes","[0.0 50.0 0.0; 5.0 50.0 325.0; 10.0 50.0 0.0; 15.0 0.0 325.0; 20.0 0.0 325.0; 25.0 0.0 325.0; 30.0 50.0 325.0]"
"AT","AT6c","222","60.488671306","yes","[0.0 50.0 0.0; 5.0 50.0 325.0; 10.0 50.0 325.0; 15.0 50.0 0.0; 20.0 50.0 325.0; 25.0 50.0 325.0; 30.0 50.0 0.0]"
"AT","AT6c","236","67.171249805","yes","[0.0 50.0 0.0; 5.0 50.0 0.0; 10.0 50.0 0.0; 15.0 0.0 325.0; 20.0 0.0 325.0; 25.0 0.0 325.0; 30.0 0.0 325.0]"
"AT","AT6c","237","65.881697978","yes","[0.0 50.0 0.0; 5.0 50.0 325.0; 10.0 50.0 0.0; 15.0 0.0 325.0; 20.0 0.0 325.0; 25.0 0.0 325.0; 30.0 0.0 325.0]"
"AT","AT6c","239","61.969980023","yes","[0.0 50.0 0.0; 5.0 50.0 325.0; 10.0 50.0 0.0; 15.0 0.0 325.0; 20.0 0.0 325.0; 25.0 0.0 325.0; 30.0 50.0 0.0]"
"AT","AT6c","2402","386.421522771","yes","[0.0 50.0 325.0; 2.0 50.0 0.0; 4.0 50.0 0.0; 6.0 0.0 325.0; 8.0 50.0 325.0; 10.0 50.0 0.0; 12.0 50.0 0.0; 14.0 50.0 325.0; 16.0 0.0 0.0; 18.0 50.0 325.0; 20.0 0.0 0.0; 22.0 50.0 325.0; 24.0 0.0 0.0; 26.0 50.0 325.0; 28.0 0.0 0.0; 30.0 50.0 325.0]"
"AT","AT6c","269","69.838749202","yes","[0.0 50.0 325.0; 5.0 50.0 0.0; 10.0 50.0 0.0; 15.0 0.0 325.0; 20.0 0.0 325.0; 25.0 0.0 325.0; 30.0 100.0 325.0]"
"AT","AT6c","273","73.688974257","yes","[0.0 50.0 325.0; 5.0 50.0 0.0; 10.0 50.0 325.0; 15.0 0.0 0.0; 20.0 0.0 325.0; 25.0 50.0 325.0; 30.0 0.0 325.0]"
"AT","AT6c","279","74.942250446","yes","[0.0 50.0 0.0; 5.0 50.0 325.0; 10.0 50.0 325.0; 15.0 50.0 0.0; 20.0 50.0 325.0; 25.0 0.0 325.0; 30.0 50.0 325.0]"
"AT","AT6c","280","71.742517174","yes","[0.0 50.0 0.0; 5.0 50.0 0.0; 10.0 50.0 325.0; 15.0 50.0 325.0; 20.0 0.0 0.0; 25.0 0.0 325.0; 30.0 100.0 325.0]"
"AT","AT6c","282","74.338868613","yes","[0.0 50.0 0.0; 5.0 50.0 325.0; 10.0 50.0 0.0; 15.0 0.0 325.0; 20.0 0.0 325.0; 25.0 0.0 0.0; 30.0 0.0 0.0]"
"AT","AT6c","283","74.066231854","yes","[0.0 50.0 0.0; 5.0 50.0 325.0; 10.0 50.0 325.0; 15.0 50.0 0.0; 20.0 50.0 325.0; 25.0 0.0 0.0; 30.0 50.0 325.0]"
"AT","AT6c","303","76.609003896","yes","[0.0 50.0 325.0; 5.0 50.0 325.0; 10.0 50.0 0.0; 15.0 0.0 325.0; 20.0 0.0 325.0; 25.0 50.0 0.0; 30.0 0.0 325.0]"
"AT","AT6c","309","82.183917216","yes","[0.0 50.0 0.0; 5.0 50.0 0.0; 10.0 50.0 325.0; 15.0 0.0 325.0; 20.0 0.0 325.0; 25.0 50.0 0.0; 30.0 50.0 325.0]"
"AT","AT6c","345","95.247517536","yes","[0.0 50.0 0.0; 5.0 50.0 0.0; 10.0 50.0 0.0; 15.0 0.0 325.0; 20.0 0.0 0.0; 25.0 50.0 0.0; 30.0 50.0 0.0]"
"AT","AT6c","351","84.457860352","yes","[0.0 50.0 0.0; 5.0 50.0 325.0; 10.0 50.0 325.0; 15.0 50.0 0.0; 20.0 50.0 0.0; 25.0 0.0 0.0; 30.0 50.0 325.0]"
"AT","AT6c","421","83.312476875","yes","[0.0 50.0 0.0; 2.0 50.0 0.0; 4.0 50.0 0.0; 6.0 50.0 0.0; 8.0 50.0 0.0; 10.0 50.0 0.0; 12.0 50.0 0.0; 14.0 50.0 0.0; 16.0 0.0 325.0; 18.0 50.0 0.0; 20.0 0.0 325.0; 22.0 50.0 0.0; 24.0 0.0 325.0; 26.0 50.0 0.0; 28.0 0.0 325.0; 30.0 50.0 0.0]"
"AT","AT6c","433","88.363316881","yes","[0.0 50.0 0.0; 2.0 50.0 0.0; 4.0 50.0 0.0; 6.0 50.0 0.0; 8.0 50.0 0.0; 10.0 50.0 325.0; 12.0 0.0 325.0; 14.0 0.0 325.0; 16.0 0.0 325.0; 18.0 50.0 0.0; 20.0 0.0 0.0; 22.0 0.0 325.0; 24.0 0.0 325.0; 26.0 0.0 325.0; 28.0 0.0 325.0; 30.0 0.0 325.0]"
"AT","AT6c","439","114.160062969","yes","[0.0 50.0 0.0; 5.0 50.0 325.0; 10.0 50.0 0.0; 15.0 0.0 325.0; 20.0 50.0 325.0; 25.0 0.0 325.0; 30.0 50.0 325.0]"
"AT","AT6c","449","82.117276327","yes","[0.0 50.0 0.0; 2.0 50.0 0.0; 4.0 50.0 0.0; 6.0 50.0 325.0; 8.0 50.0 0.0; 10.0 0.0 0.0; 12.0 50.0 325.0; 14.0 0.0 0.0; 16.0 50.0 325.0; 18.0 50.0 0.0; 20.0 50.0 325.0; 22.0 50.0 0.0; 24.0 0.0 325.0; 26.0 50.0 0.0; 28.0 0.0 325.0; 30.0 50.0 0.0]"
"AT","AT6c","469","107.877842508","yes","[0.0 50.0 325.0; 5.0 50.0 0.0; 10.0 50.0 325.0; 15.0 0.0 325.0; 20.0 0.0 325.0; 25.0 0.0 325.0; 30.0 0.0 325.0]"
"AT","AT6c","500","95.011600911","yes","[0.0 50.0 0.0; 2.0 50.0 0.0; 4.0 50.0 325.0; 6.0 50.0 325.0; 8.0 50.0 0.0; 10.0 50.0 0.0; 12.0 0.0 325.0; 14.0 50.0 325.0; 16.0 0.0 325.0; 18.0 0.0 325.0; 20.0 0.0 325.0; 22.0 50.0 325.0; 24.0 0.0 325.0; 26.0 50.0 325.0; 28.0 50.0 0.0; 30.0 100.0 325.0]"
"AT","AT6c","546","135.484894794","yes","[0.0 50.0 0.0; 5.0 50.0 0.0; 10.0 50.0 0.0; 15.0 0.0 325.0; 20.0 50.0 0.0; 25.0 0.0 325.0; 30.0 50.0 0.0]"
"AT","AT6c","608","110.844363159","yes","[0.0 50.0 0.0; 2.0 50.0 0.0; 4.0 50.0 0.0; 6.0 50.0 0.0; 8.0 50.0 0.0; 10.0 50.0 325.0; 12.0 0.0 325.0; 14.0 0.0 325.0; 16.0 0.0 325.0; 18.0 0.0 0.0; 20.0 50.0 0.0; 22.0 50.0 0.0; 24.0 50.0 325.0; 26.0 50.0 0.0; 28.0 50.0 0.0; 30.0 100.0 0.0]"
"AT","AT6c","640","110.301790017","yes","[0.0 50.0 0.0; 2.0 50.0 0.0; 4.0 50.0 0.0; 6.0 50.0 325.0; 8.0 50.0 0.0; 10.0 50.0 0.0; 12.0 0.0 0.0; 14.0 50.0 0.0; 16.0 0.0 325.0; 18.0 0.0 0.0; 20.0 50.0 325.0; 22.0 0.0 0.0; 24.0 50.0 325.0; 26.0 0.0 0.0; 28.0 0.0 325.0; 30.0 50.0 0.0]"
"AT","AT6c","645","122.048738169","yes","[0.0 50.0 0.0; 2.0 50.0 0.0; 4.0 50.0 0.0; 6.0 50.0 0.0; 8.0 50.0 325.0; 10.0 50.0 0.0; 12.0 50.0 0.0; 14.0 50.0 0.0; 16.0 50.0 325.0; 18.0 50.0 325.0; 20.0 50.0 325.0; 22.0 50.0 325.0; 24.0 50.0 325.0; 26.0 50.0 325.0; 28.0 50.0 0.0; 30.0 50.0 0.0]"
"AT","AT6c","651","126.851047937","yes","[0.0 50.0 0.0; 2.0 50.0 0.0; 4.0 50.0 0.0; 6.0 50.0 0.0; 8.0 50.0 325.0; 10.0 50.0 0.0; 12.0 50.0 0.0; 14.0 50.0 0.0; 16.0 0.0 325.0; 18.0 50.0 0.0; 20.0 0.0 325.0; 22.0 50.0 0.0; 24.0 0.0 325.0; 26.0 50.0 0.0; 28.0 50.0 0.0; 30.0 100.0 0.0]"
"AT","AT6c","674","116.203781343","yes","[0.0 50.0 0.0; 2.0 50.0 0.0; 4.0 50.0 325.0; 6.0 50.0 325.0; 8.0 50.0 0.0; 10.0 50.0 0.0; 12.0 0.0 325.0; 14.0 0.0 0.0; 16.0 0.0 0.0; 18.0 0.0 325.0; 20.0 50.0 0.0; 22.0 50.0 325.0; 24.0 0.0 0.0; 26.0 50.0 325.0; 28.0 0.0 0.0; 30.0 50.0 325.0]"
"AT","AT6c","682","123.502501942","yes","[0.0 50.0 325.0; 2.0 50.0 0.0; 4.0 50.0 0.0; 6.0 50.0 0.0; 8.0 50.0 0.0; 10.0 50.0 0.0; 12.0 50.0 0.0; 14.0 50.0 0.0; 16.0 50.0 325.0; 18.0 50.0 325.0; 20.0 50.0 325.0; 22.0 50.0 325.0; 24.0 50.0 325.0; 26.0 50.0 325.0; 28.0 50.0 0.0; 30.0 100.0 0.0]"
"AT","AT6c","738","139.150544381","yes","[0.0 50.0 0.0; 2.0 50.0 0.0; 4.0 50.0 0.0; 6.0 50.0 325.0; 8.0 50.0 0.0; 10.0 50.0 0.0; 12.0 0.0 325.0; 14.0 0.0 325.0; 16.0 50.0 325.0; 18.0 0.0 325.0; 20.0 50.0 0.0; 22.0 0.0 325.0; 24.0 50.0 0.0; 26.0 0.0 325.0; 28.0 50.0 0.0; 30.0 0.0 325.0]"
"AT","AT6c","741","123.513192278","yes","[0.0 50.0 0.0; 2.0 50.0 0.0; 4.0 50.0 325.0; 6.0 50.0 325.0; 8.0 0.0 325.0; 10.0 50.0 0.0; 12.0 50.0 325.0; 14.0 0.0 0.0; 16.0 50.0 325.0; 18.0 50.0 0.0; 20.0 50.0 0.0; 22.0 50.0 0.0; 24.0 50.0 0.0; 26.0 50.0 0.0; 28.0 50.0 0.0; 30.0 50.0 0.0]"
"AT","AT6c","764","134.536959707","yes","[0.0 50.0 0.0; 2.0 50.0 0.0; 4.0 50.0 0.0; 6.0 50.0 0.0; 8.0 50.0 0.0; 10.0 50.0 0.0; 12.0 50.0 0.0; 14.0 50.0 0.0; 16.0 50.0 325.0; 18.0 50.0 325.0; 20.0 50.0 325.0; 22.0 50.0 325.0; 24.0 50.0 325.0; 26.0 50.0 325.0; 28.0 0.0 325.0; 30.0 100.0 325.0]"
"AT","AT6c","768","132.602445801","yes","[0.0 50.0 0.0; 2.0 50.0 325.0; 4.0 50.0 325.0; 6.0 0.0 0.0; 8.0 50.0 325.0; 10.0 50.0 0.0; 12.0 0.0 325.0; 14.0 50.0 325.0; 16.0 50.0 0.0; 18.0 50.0 0.0; 20.0 0.0 0.0; 22.0 50.0 325.0; 24.0 0.0 0.0; 26.0 50.0 325.0; 28.0 50.0 0.0; 30.0 100.0 0.0]"
"AT","AT6c","796","132.479758549","yes","[0.0 50.0 0.0; 2.0 50.0 325.0; 4.0 0.0 0.0; 6.0 50.0 325.0; 8.0 50.0 0.0; 10.0 50.0 325.0; 12.0 50.0 0.0; 14.0 0.0 0.0; 16.0 0.0 0.0; 18.0 50.0 0.0; 20.0 0.0 0.0; 22.0 0.0 0.0; 24.0 0.0 325.0; 26.0 50.0 325.0; 28.0 0.0 0.0; 30.0 50.0 325.0]"
"AT","AT6c","806","144.030967051","yes","[0.0 50.0 0.0; 2.0 50.0 0.0; 4.0 50.0 0.0; 6.0 50.0 325.0; 8.0 50.0 325.0; 10.0 50.0 0.0; 12.0 0.0 325.0; 14.0 0.0 325.0; 16.0 0.0 325.0; 18.0 0.0 325.0; 20.0 50.0 0.0; 22.0 50.0 325.0; 24.0 50.0 325.0; 26.0 50.0 0.0; 28.0 50.0 0.0; 30.0 100.0 0.0]"
"AT","AT6c","817","143.046308476","yes","[0.0 50.0 0.0; 2.0 50.0 0.0; 4.0 50.0 0.0; 6.0 50.0 0.0; 8.0 50.0 0.0; 10.0 50.0 0.0; 12.0 50.0 0.0; 14.0 0.0 0.0; 16.0 50.0 325.0; 18.0 50.0 325.0; 20.0 0.0 0.0; 22.0 50.0 325.0; 24.0 50.0 325.0; 26.0 0.0 0.0; 28.0 50.0 325.0; 30.0 50.0 325.0]"
"AT","AT6c","873","162.906197072","yes","[0.0 50.0 0.0; 2.0 50.0 0.0; 4.0 50.0 0.0; 6.0 50.0 0.0; 8.0 50.0 0.0; 10.0 0.0 0.0; 12.0 0.0 0.0; 14.0 50.0 0.0; 16.0 50.0 325.0; 18.0 50.0 325.0; 20.0 0.0 0.0; 22.0 50.0 325.0; 24.0 0.0 0.0; 26.0 50.0 325.0; 28.0 0.0 0.0; 30.0 50.0 325.0]"
"AT","AT6c","876","166.760243468","yes","[0.0 50.0 0.0; 2.0 50.0 0.0; 4.0 50.0 0.0; 6.0 50.0 325.0; 8.0 50.0 0.0; 10.0 50.0 0.0; 12.0 0.0 325.0; 14.0 0.0 0.0; 16.0 0.0 0.0; 18.0 50.0 325.0; 20.0 0.0 325.0; 22.0 50.0 325.0; 24.0 0.0 0.0; 26.0 50.0 325.0; 28.0 0.0 0.0; 30.0 50.0 325.0]"
"AT","AT6c","912","150.989815017","yes","[0.0 50.0 0.0; 2.0 50.0 0.0; 4.0 50.0 325.0; 6.0 50.0 325.0; 8.0 50.0 0.0; 10.0 50.0 0.0; 12.0 0.0 325.0; 14.0 0.0 325.0; 16.0 0.0 325.0; 18.0 0.0 325.0; 20.0 50.0 0.0; 22.0 50.0 325.0; 24.0 0.0 0.0; 26.0 50.0 0.0; 28.0 50.0 325.0; 30.0 0.0 0.0]"
"AT","AT6c","917","158.173666317","yes","[0.0 50.0 0.0; 2.0 50.0 0.0; 4.0 50.0 325.0; 6.0 50.0 325.0; 8.0 50.0 0.0; 10.0 50.0 0.0; 12.0 0.0 325.0; 14.0 0.0 0.0; 16.0 50.0 325.0; 18.0 0.0 325.0; 20.0 50.0 0.0; 22.0 0.0 325.0; 24.0 50.0 0.0; 26.0 0.0 325.0; 28.0 50.0 0.0; 30.0 0.0 325.0]"
"AT","AT6c","919","156.534417771","yes","[0.0 50.0 0.0; 2.0 50.0 0.0; 4.0 50.0 325.0; 6.0 50.0 325.0; 8.0 50.0 0.0; 10.0 50.0 0.0; 12.0 0.0 325.0; 14.0 50.0 0.0; 16.0 0.0 325.0; 18.0 50.0 0.0; 20.0 0.0 325.0; 22.0 50.0 0.0; 24.0 0.0 325.0; 26.0 50.0 0.0; 28.0 50.0 0.0; 30.0 100.0 0.0]"
"AT","AT6c","927","162.549246322","yes","[0.0 50.0 0.0; 2.0 50.0 0.0; 4.0 50.0 0.0; 6.0 50.0 0.0; 8.0 50.0 325.0; 10.0 50.0 0.0; 12.0 50.0 0.0; 14.0 50.0 0.0; 16.0 50.0 325.0; 18.0 50.0 325.0; 20.0 50.0 325.0; 22.0 50.0 325.0; 24.0 50.0 325.0; 26.0 50.0 325.0; 28.0 50.0 0.0; 30.0 100.0 0.0]"
"AT","AT6c","930","150.367981038","yes","[0.0 50.0 0.0; 2.0 50.0 325.0; 4.0 50.0 0.0; 6.0 50.0 0.0; 8.0 50.0 0.0; 10.0 50.0 0.0; 12.0 50.0 0.0; 14.0 50.0 0.0; 16.0 0.0 325.0; 18.0 50.0 0.0; 20.0 0.0 325.0; 22.0 50.0 0.0; 24.0 0.0 325.0; 26.0 50.0 0.0; 28.0 0.0 325.0; 30.0 50.0 0.0]"
"AT","AT6c","946","172.221755041","yes","[0.0 50.0 0.0; 2.0 50.0 0.0; 4.0 50.0 0.0; 6.0 50.0 325.0; 8.0 50.0 0.0; 10.0 50.0 0.0; 12.0 50.0 0.0; 14.0 50.0 0.0; 16.0 50.0 325.0; 18.0 50.0 325.0; 20.0 50.0 325.0; 22.0 50.0 325.0; 24.0 50.0 325.0; 26.0 50.0 325.0; 28.0 50.0 325.0; 30.0 50.0 325.0]"
"AT","AT6c","955","170.675259973","yes","[0.0 50.0 0.0; 2.0 50.0 0.0; 4.0 50.0 0.0; 6.0 50.0 0.0; 8.0 50.0 0.0; 10.0 50.0 0.0; 12.0 50.0 0.0; 14.0 50.0 0.0; 16.0 50.0 325.0; 18.0 50.0 325.0; 20.0 50.0 325.0; 22.0 50.0 325.0; 24.0 50.0 325.0; 26.0 50.0 325.0; 28.0 50.0 0.0; 30.0 50.0 0.0]"
"AT","AT6c","966","171.61276135","yes","[0.0 50.0 0.0; 2.0 50.0 325.0; 4.0 50.0 0.0; 6.0 50.0 0.0; 8.0 50.0 325.0; 10.0 0.0 0.0; 12.0 0.0 0.0; 14.0 50.0 325.0; 16.0 50.0 0.0; 18.0 50.0 325.0; 20.0 0.0 0.0; 22.0 50.0 325.0; 24.0 0.0 0.0; 26.0 50.0 325.0; 28.0 0.0 0.0; 30.0 50.0 325.0]"
"AT","AT6c","995","162.029170996","yes","[0.0 50.0 0.0; 2.0 50.0 0.0; 4.0 50.0 0.0; 6.0 50.0 0.0; 8.0 50.0 0.0; 10.0 50.0 0.0; 12.0 50.0 0.0; 14.0 50.0 0.0; 16.0 0.0 325.0; 18.0 50.0 0.0; 20.0 0.0 325.0; 22.0 50.0 0.0; 24.0 0.0 325.0; 26.0 50.0 0.0; 28.0 50.0 0.0; 30.0 100.0 0.0]"
"CC","CC1","108","106.069855551","yes","[0.0 1.0 0.0; 10.0 0.0 0.0; 20.0 1.0 0.0; 30.0 1.0 0.0]"
"CC","CC1","115","105.411647026","yes","[0.0 1.0 0.0; 10.0 0.0 0.0; 20.0 1.0 0.0; 30.0 1.0 1.0]"
"CC","CC1","121","114.45263205","yes","[0.0 1.0 0.0; 10.0 1.0 0.0; 20.0 1.0 0.0; 30.0 0.0 0.0]"
"CC","CC1","155","148.606457803","yes","[0.0 1.0 0.0; 10.0 1.0 0.0; 20.0 1.0 0.0; 30.0 1.0 0.0]"
"CC","CC1","177","157.984922656","yes","[0.0 1.0 0.0; 10.0 0.0 0.0; 20.0 1.0 0.0; 30.0 0.0 1.0]"
"CC","CC1","200","214.39345908","yes","[0.0 1.0 0.0; 10.0 1.0 0.0; 20.0 1.0 0.0; 30.0 0.0 1.0]"
"CC","CC1","265","233.270762761","yes","[0.0 1.0 0.0; 10.0 1.0 0.0; 20.0 1.0 0.0; 30.0 1.0 1.0]"
"CC","CC2","43","30.3764492","yes","[0.0 0.0 1.0; 10.0 0.0 1.0; 20.0 1.0 0.0; 30.0 0.0 1.0]"
"CC","CC3","106","102.431517488","yes","[0.0 0.0 1.0; 10.0 1.0 0.0; 20.0 1.0 0.0]"
"CC","CC3","118","113.589915185","yes","[0.0 0.0 1.0; 10.0 1.0 0.0; 20.0 1.0 1.0]"
"CC","CC3","165","182.267806344","yes","[0.0 0.0 1.0; 10.0 1.0 0.0; 20.0 0.0 0.0]"
"CC","CC3","212","186.101152842","yes","[0.0 0.0 1.0; 10.0 1.0 0.0; 20.0 0.0 1.0]"
