%!PS-Adobe-3.0 EPSF-3.0
%%Creator: (MATLAB, The Mathworks, Inc. Version 9.4.0.813654 \(R2018a\). Operating System: Linux)
%%Title: /media/matthias/Transcend/DATA/repositories/Software/CORAplots/probabilisticPrediction/braking_09August2018.eps
%%CreationDate: 2018-08-10T15:34:44
%%Pages: (atend)
%%BoundingBox: 0 0 420 315
%%LanguageLevel: 3
%%EndComments
%%BeginProlog
%%BeginResource: procset (Apache XML Graphics Std ProcSet) 1.2 0
%%Version: 1.2 0
%%Copyright: (Copyright 2001-2003,2010 The Apache Software Foundation. License terms: http://www.apache.org/licenses/LICENSE-2.0)
/bd{bind def}bind def
/ld{load def}bd
/GR/grestore ld
/GS/gsave ld
/RM/rmoveto ld
/C/curveto ld
/t/show ld
/L/lineto ld
/ML/setmiterlimit ld
/CT/concat ld
/f/fill ld
/N/newpath ld
/S/stroke ld
/CC/setcmykcolor ld
/A/ashow ld
/cp/closepath ld
/RC/setrgbcolor ld
/LJ/setlinejoin ld
/GC/setgray ld
/LW/setlinewidth ld
/M/moveto ld
/re {4 2 roll M
1 index 0 rlineto
0 exch rlineto
neg 0 rlineto
cp } bd
/_ctm matrix def
/_tm matrix def
/BT { _ctm currentmatrix pop matrix _tm copy pop 0 0 moveto } bd
/ET { _ctm setmatrix } bd
/iTm { _ctm setmatrix _tm concat } bd
/Tm { _tm astore pop iTm 0 0 moveto } bd
/ux 0.0 def
/uy 0.0 def
/F {
  /Tp exch def
  /Tf exch def
  Tf findfont Tp scalefont setfont
  /cf Tf def  /cs Tp def
} bd
/ULS {currentpoint /uy exch def /ux exch def} bd
/ULE {
  /Tcx currentpoint pop def
  gsave
  newpath
  cf findfont cs scalefont dup
  /FontMatrix get 0 get /Ts exch def /FontInfo get dup
  /UnderlinePosition get Ts mul /To exch def
  /UnderlineThickness get Ts mul /Tt exch def
  ux uy To add moveto  Tcx uy To add lineto
  Tt setlinewidth stroke
  grestore
} bd
/OLE {
  /Tcx currentpoint pop def
  gsave
  newpath
  cf findfont cs scalefont dup
  /FontMatrix get 0 get /Ts exch def /FontInfo get dup
  /UnderlinePosition get Ts mul /To exch def
  /UnderlineThickness get Ts mul /Tt exch def
  ux uy To add cs add moveto Tcx uy To add cs add lineto
  Tt setlinewidth stroke
  grestore
} bd
/SOE {
  /Tcx currentpoint pop def
  gsave
  newpath
  cf findfont cs scalefont dup
  /FontMatrix get 0 get /Ts exch def /FontInfo get dup
  /UnderlinePosition get Ts mul /To exch def
  /UnderlineThickness get Ts mul /Tt exch def
  ux uy To add cs 10 mul 26 idiv add moveto Tcx uy To add cs 10 mul 26 idiv add lineto
  Tt setlinewidth stroke
  grestore
} bd
/QT {
/Y22 exch store
/X22 exch store
/Y21 exch store
/X21 exch store
currentpoint
/Y21 load 2 mul add 3 div exch
/X21 load 2 mul add 3 div exch
/X21 load 2 mul /X22 load add 3 div
/Y21 load 2 mul /Y22 load add 3 div
/X22 load /Y22 load curveto
} bd
/SSPD {
dup length /d exch dict def
{
/v exch def
/k exch def
currentpagedevice k known {
/cpdv currentpagedevice k get def
v cpdv ne {
/upd false def
/nullv v type /nulltype eq def
/nullcpdv cpdv type /nulltype eq def
nullv nullcpdv or
{
/upd true def
} {
/sametype v type cpdv type eq def
sametype {
v type /arraytype eq {
/vlen v length def
/cpdvlen cpdv length def
vlen cpdvlen eq {
0 1 vlen 1 sub {
/i exch def
/obj v i get def
/cpdobj cpdv i get def
obj cpdobj ne {
/upd true def
exit
} if
} for
} {
/upd true def
} ifelse
} {
v type /dicttype eq {
v {
/dv exch def
/dk exch def
/cpddv cpdv dk get def
dv cpddv ne {
/upd true def
exit
} if
} forall
} {
/upd true def
} ifelse
} ifelse
} if
} ifelse
upd true eq {
d k v put
} if
} if
} if
} forall
d length 0 gt {
d setpagedevice
} if
} bd
/RE { % /NewFontName [NewEncodingArray] /FontName RE -
  findfont dup length dict begin
  {
    1 index /FID ne
    {def} {pop pop} ifelse
  } forall
  /Encoding exch def
  /FontName 1 index def
  currentdict definefont pop
  end
} bind def
%%EndResource
%%BeginResource: procset (Apache XML Graphics EPS ProcSet) 1.0 0
%%Version: 1.0 0
%%Copyright: (Copyright 2002-2003 The Apache Software Foundation. License terms: http://www.apache.org/licenses/LICENSE-2.0)
/BeginEPSF { %def
/b4_Inc_state save def         % Save state for cleanup
/dict_count countdictstack def % Count objects on dict stack
/op_count count 1 sub def      % Count objects on operand stack
userdict begin                 % Push userdict on dict stack
/showpage { } def              % Redefine showpage, { } = null proc
0 setgray 0 setlinecap         % Prepare graphics state
1 setlinewidth 0 setlinejoin
10 setmiterlimit [ ] 0 setdash newpath
/languagelevel where           % If level not equal to 1 then
{pop languagelevel             % set strokeadjust and
1 ne                           % overprint to their defaults.
{false setstrokeadjust false setoverprint
} if
} if
} bd
/EndEPSF { %def
count op_count sub {pop} repeat            % Clean up stacks
countdictstack dict_count sub {end} repeat
b4_Inc_state restore
} bd
%%EndResource
%FOPBeginFontDict
%%IncludeResource: font Courier-Oblique
%%IncludeResource: font Courier-BoldOblique
%%IncludeResource: font Courier-Bold
%%IncludeResource: font ZapfDingbats
%%IncludeResource: font Symbol
%%IncludeResource: font Helvetica
%%IncludeResource: font Helvetica-Oblique
%%IncludeResource: font Helvetica-Bold
%%IncludeResource: font Helvetica-BoldOblique
%%IncludeResource: font Times-Roman
%%IncludeResource: font Times-Italic
%%IncludeResource: font Times-Bold
%%IncludeResource: font Times-BoldItalic
%%IncludeResource: font Courier
%FOPEndFontDict
%%BeginResource: encoding WinAnsiEncoding
/WinAnsiEncoding [
/.notdef /.notdef /.notdef /.notdef /.notdef
/.notdef /.notdef /.notdef /.notdef /.notdef
/.notdef /.notdef /.notdef /.notdef /.notdef
/.notdef /.notdef /.notdef /.notdef /.notdef
/.notdef /.notdef /.notdef /.notdef /.notdef
/.notdef /.notdef /.notdef /.notdef /.notdef
/.notdef /.notdef /space /exclam /quotedbl
/numbersign /dollar /percent /ampersand /quotesingle
/parenleft /parenright /asterisk /plus /comma
/hyphen /period /slash /zero /one
/two /three /four /five /six
/seven /eight /nine /colon /semicolon
/less /equal /greater /question /at
/A /B /C /D /E
/F /G /H /I /J
/K /L /M /N /O
/P /Q /R /S /T
/U /V /W /X /Y
/Z /bracketleft /backslash /bracketright /asciicircum
/underscore /quoteleft /a /b /c
/d /e /f /g /h
/i /j /k /l /m
/n /o /p /q /r
/s /t /u /v /w
/x /y /z /braceleft /bar
/braceright /asciitilde /bullet /Euro /bullet
/quotesinglbase /florin /quotedblbase /ellipsis /dagger
/daggerdbl /circumflex /perthousand /Scaron /guilsinglleft
/OE /bullet /Zcaron /bullet /bullet
/quoteleft /quoteright /quotedblleft /quotedblright /bullet
/endash /emdash /asciitilde /trademark /scaron
/guilsinglright /oe /bullet /zcaron /Ydieresis
/space /exclamdown /cent /sterling /currency
/yen /brokenbar /section /dieresis /copyright
/ordfeminine /guillemotleft /logicalnot /sfthyphen /registered
/macron /degree /plusminus /twosuperior /threesuperior
/acute /mu /paragraph /middot /cedilla
/onesuperior /ordmasculine /guillemotright /onequarter /onehalf
/threequarters /questiondown /Agrave /Aacute /Acircumflex
/Atilde /Adieresis /Aring /AE /Ccedilla
/Egrave /Eacute /Ecircumflex /Edieresis /Igrave
/Iacute /Icircumflex /Idieresis /Eth /Ntilde
/Ograve /Oacute /Ocircumflex /Otilde /Odieresis
/multiply /Oslash /Ugrave /Uacute /Ucircumflex
/Udieresis /Yacute /Thorn /germandbls /agrave
/aacute /acircumflex /atilde /adieresis /aring
/ae /ccedilla /egrave /eacute /ecircumflex
/edieresis /igrave /iacute /icircumflex /idieresis
/eth /ntilde /ograve /oacute /ocircumflex
/otilde /odieresis /divide /oslash /ugrave
/uacute /ucircumflex /udieresis /yacute /thorn
/ydieresis
] def
%%EndResource
%FOPBeginFontReencode
/Courier-Oblique findfont
dup length dict begin
  {1 index /FID ne {def} {pop pop} ifelse} forall
  /Encoding WinAnsiEncoding def
  currentdict
end
/Courier-Oblique exch definefont pop
/Courier-BoldOblique findfont
dup length dict begin
  {1 index /FID ne {def} {pop pop} ifelse} forall
  /Encoding WinAnsiEncoding def
  currentdict
end
/Courier-BoldOblique exch definefont pop
/Courier-Bold findfont
dup length dict begin
  {1 index /FID ne {def} {pop pop} ifelse} forall
  /Encoding WinAnsiEncoding def
  currentdict
end
/Courier-Bold exch definefont pop
/Helvetica findfont
dup length dict begin
  {1 index /FID ne {def} {pop pop} ifelse} forall
  /Encoding WinAnsiEncoding def
  currentdict
end
/Helvetica exch definefont pop
/Helvetica-Oblique findfont
dup length dict begin
  {1 index /FID ne {def} {pop pop} ifelse} forall
  /Encoding WinAnsiEncoding def
  currentdict
end
/Helvetica-Oblique exch definefont pop
/Helvetica-Bold findfont
dup length dict begin
  {1 index /FID ne {def} {pop pop} ifelse} forall
  /Encoding WinAnsiEncoding def
  currentdict
end
/Helvetica-Bold exch definefont pop
/Helvetica-BoldOblique findfont
dup length dict begin
  {1 index /FID ne {def} {pop pop} ifelse} forall
  /Encoding WinAnsiEncoding def
  currentdict
end
/Helvetica-BoldOblique exch definefont pop
/Times-Roman findfont
dup length dict begin
  {1 index /FID ne {def} {pop pop} ifelse} forall
  /Encoding WinAnsiEncoding def
  currentdict
end
/Times-Roman exch definefont pop
/Times-Italic findfont
dup length dict begin
  {1 index /FID ne {def} {pop pop} ifelse} forall
  /Encoding WinAnsiEncoding def
  currentdict
end
/Times-Italic exch definefont pop
/Times-Bold findfont
dup length dict begin
  {1 index /FID ne {def} {pop pop} ifelse} forall
  /Encoding WinAnsiEncoding def
  currentdict
end
/Times-Bold exch definefont pop
/Times-BoldItalic findfont
dup length dict begin
  {1 index /FID ne {def} {pop pop} ifelse} forall
  /Encoding WinAnsiEncoding def
  currentdict
end
/Times-BoldItalic exch definefont pop
/Courier findfont
dup length dict begin
  {1 index /FID ne {def} {pop pop} ifelse} forall
  /Encoding WinAnsiEncoding def
  currentdict
end
/Courier exch definefont pop
%FOPEndFontReencode
%%EndProlog
%%Page: 1 1
%%PageBoundingBox: 0 0 420 315
%%BeginPageSetup
[1 0 0 -1 0 315] CT
%%EndPageSetup
GS
[0.75 0 0 0.75 0 0] CT
1 GC
N
0 0 560 420 re
f
GR
GS
[0.75 0 0 0.75 0 0] CT
1 GC
N
0 0 560 420 re
f
GR
GS
[0.75 0 0 0.75 0 0] CT
1 GC
N
73 374 M
192 374 L
192 32 L
73 32 L
cp
f
GR
GS
[0.75 0 0 0.75 0 0] CT
0.149 GC
2 setlinecap
1 LJ
0.667 LW
N
73 374 M
192 374 L
S
GR
GS
[0.75 0 0 0.75 0 0] CT
0.149 GC
2 setlinecap
1 LJ
0.667 LW
N
73 374 M
73 370.58 L
S
GR
GS
[0.75 0 0 0.75 0 0] CT
0.149 GC
2 setlinecap
1 LJ
0.667 LW
N
132.5 374 M
132.5 370.58 L
S
GR
GS
[0.75 0 0 0.75 0 0] CT
0.149 GC
2 setlinecap
1 LJ
0.667 LW
N
192 374 M
192 370.58 L
S
GR
GS
[0.75 0 0 0.75 54.75 284.9] CT
0.149 GC
/Helvetica 16 F
GS
[1 0 0 1 0 0] CT
-8 15 moveto 
1 -1 scale
(-5) t 
GR
GR
GS
[0.75 0 0 0.75 99.375 284.9] CT
0.149 GC
/Helvetica 16 F
GS
[1 0 0 1 0 0] CT
-5.5 15 moveto 
1 -1 scale
(0) t 
GR
GR
GS
[0.75 0 0 0.75 144 284.9] CT
0.149 GC
/Helvetica 16 F
GS
[1 0 0 1 0 0] CT
-5.5 15 moveto 
1 -1 scale
(5) t 
GR
GR
GS
[0.75 0 0 0.75 99.37505 300.15001] CT
0.149 GC
/Helvetica 16 F
GS
[1 0 0 1 0 0] CT
-21 15 moveto 
1 -1 scale
(car A) t 
GR
GR
GS
[0.75 0 0 0.75 0 0] CT
0.149 GC
2 setlinecap
1 LJ
0.667 LW
N
73 374 M
73 32 L
S
GR
GS
[0.75 0 0 0.75 0 0] CT
0.149 GC
2 setlinecap
1 LJ
0.667 LW
N
73 374 M
76.42 374 L
S
GR
GS
[0.75 0 0 0.75 0 0] CT
0.149 GC
2 setlinecap
1 LJ
0.667 LW
N
73 336 M
76.42 336 L
S
GR
GS
[0.75 0 0 0.75 0 0] CT
0.149 GC
2 setlinecap
1 LJ
0.667 LW
N
73 298 M
76.42 298 L
S
GR
GS
[0.75 0 0 0.75 0 0] CT
0.149 GC
2 setlinecap
1 LJ
0.667 LW
N
73 260 M
76.42 260 L
S
GR
GS
[0.75 0 0 0.75 0 0] CT
0.149 GC
2 setlinecap
1 LJ
0.667 LW
N
73 222 M
76.42 222 L
S
GR
GS
[0.75 0 0 0.75 0 0] CT
0.149 GC
2 setlinecap
1 LJ
0.667 LW
N
73 184 M
76.42 184 L
S
GR
GS
[0.75 0 0 0.75 0 0] CT
0.149 GC
2 setlinecap
1 LJ
0.667 LW
N
73 146 M
76.42 146 L
S
GR
GS
[0.75 0 0 0.75 0 0] CT
0.149 GC
2 setlinecap
1 LJ
0.667 LW
N
73 108 M
76.42 108 L
S
GR
GS
[0.75 0 0 0.75 0 0] CT
0.149 GC
2 setlinecap
1 LJ
0.667 LW
N
73 70 M
76.42 70 L
S
GR
GS
[0.75 0 0 0.75 0 0] CT
0.149 GC
2 setlinecap
1 LJ
0.667 LW
N
73 32 M
76.42 32 L
S
GR
GS
[0.75 0 0 0.75 50.35 280.5] CT
0.149 GC
/Helvetica 16 F
GS
[1 0 0 1 0 0] CT
-11 5.5 moveto 
1 -1 scale
(0) t 
GR
GR
GS
[0.75 0 0 0.75 50.35 252] CT
0.149 GC
/Helvetica 16 F
GS
[1 0 0 1 0 0] CT
-21 5.5 moveto 
1 -1 scale
(20) t 
GR
GR
GS
[0.75 0 0 0.75 50.35 223.5] CT
0.149 GC
/Helvetica 16 F
GS
[1 0 0 1 0 0] CT
-21 5.5 moveto 
1 -1 scale
(40) t 
GR
GR
GS
[0.75 0 0 0.75 50.35 195] CT
0.149 GC
/Helvetica 16 F
GS
[1 0 0 1 0 0] CT
-21 5.5 moveto 
1 -1 scale
(60) t 
GR
GR
GS
[0.75 0 0 0.75 50.35 166.5] CT
0.149 GC
/Helvetica 16 F
GS
[1 0 0 1 0 0] CT
-21 5.5 moveto 
1 -1 scale
(80) t 
GR
GR
GS
[0.75 0 0 0.75 50.35 138] CT
0.149 GC
/Helvetica 16 F
GS
[1 0 0 1 0 0] CT
-31 5.5 moveto 
1 -1 scale
(100) t 
GR
GR
GS
[0.75 0 0 0.75 50.35 109.5] CT
0.149 GC
/Helvetica 16 F
GS
[1 0 0 1 0 0] CT
-31 5.5 moveto 
1 -1 scale
(120) t 
GR
GR
GS
[0.75 0 0 0.75 50.35 81] CT
0.149 GC
/Helvetica 16 F
GS
[1 0 0 1 0 0] CT
-31 5.5 moveto 
1 -1 scale
(140) t 
GR
GR
GS
[0.75 0 0 0.75 50.35 52.5] CT
0.149 GC
/Helvetica 16 F
GS
[1 0 0 1 0 0] CT
-31 5.5 moveto 
1 -1 scale
(160) t 
GR
GR
GS
[0.75 0 0 0.75 50.35 24] CT
0.149 GC
/Helvetica 16 F
GS
[1 0 0 1 0 0] CT
-31 5.5 moveto 
1 -1 scale
(180) t 
GR
GR
GS
[0.75 0 0 0.75 0 0] CT
1 GC
N
132.5 79.5 M
132.5 89 L
139.3 89 L
139.3 79.5 L
cp
f
GR
GS
[0.75 0 0 0.75 0 0] CT
0.592 GC
N
139.3 79.5 M
139.3 89 L
146.1 89 L
146.1 79.5 L
cp
f
GR
GS
[0.75 0 0 0.75 0 0] CT
0.251 GC
N
146.1 79.5 M
146.1 89 L
152.9 89 L
152.9 79.5 L
cp
f
GR
GS
[0.75 0 0 0.75 0 0] CT
0.141 GC
N
152.9 79.5 M
152.9 89 L
159.7 89 L
159.7 79.5 L
cp
f
GR
GS
[0.75 0 0 0.75 0 0] CT
0.251 GC
N
159.7 79.5 M
159.7 89 L
166.5 89 L
166.5 79.5 L
cp
f
GR
GS
[0.75 0 0 0.75 0 0] CT
0.592 GC
N
166.5 79.5 M
166.5 89 L
173.3 89 L
173.3 79.5 L
cp
f
GR
GS
[0.75 0 0 0.75 0 0] CT
1 GC
N
173.3 79.5 M
173.3 89 L
180.1 89 L
180.1 79.5 L
cp
f
GR
GS
[0.75 0 0 0.75 0 0] CT
0.969 GC
N
132.5 70 M
132.5 79.5 L
139.3 79.5 L
139.3 70 L
cp
f
GR
GS
[0.75 0 0 0.75 0 0] CT
0.514 GC
N
139.3 70 M
139.3 79.5 L
146.1 79.5 L
146.1 70 L
cp
f
GR
GS
[0.75 0 0 0.75 0 0] CT
0.118 GC
N
146.1 70 M
146.1 79.5 L
152.9 79.5 L
152.9 70 L
cp
f
GR
GS
[0.75 0 0 0.75 0 0] CT
N
152.9 70 M
152.9 79.5 L
159.7 79.5 L
159.7 70 L
cp
f
GR
GS
[0.75 0 0 0.75 0 0] CT
0.118 GC
N
159.7 70 M
159.7 79.5 L
166.5 79.5 L
166.5 70 L
cp
f
GR
GS
[0.75 0 0 0.75 0 0] CT
0.514 GC
N
166.5 70 M
166.5 79.5 L
173.3 79.5 L
173.3 70 L
cp
f
GR
GS
[0.75 0 0 0.75 0 0] CT
0.969 GC
N
173.3 70 M
173.3 79.5 L
180.1 79.5 L
180.1 70 L
cp
f
GR
GS
[0.75 0 0 0.75 0 0] CT
1 LJ
0.667 LW
N
84.9 374 M
84.9 364.5 L
84.9 355 L
84.9 345.5 L
84.9 336 L
84.9 326.5 L
84.9 317 L
84.9 307.5 L
84.9 298 L
84.9 288.5 L
84.9 279 L
84.9 269.5 L
84.9 260 L
84.9 250.5 L
84.9 241 L
84.9 231.5 L
84.9 222 L
84.9 212.5 L
84.9 203 L
84.9 193.5 L
84.9 184 L
84.9 174.5 L
84.9 165 L
84.9 155.5 L
84.9 146 L
84.9 136.5 L
84.9 127 L
84.9 117.5 L
84.9 108 L
84.9 98.5 L
84.9 89 L
84.9 79.5 L
84.9 70 L
84.9 60.5 L
84.9 51 L
84.9 41.5 L
S
GR
GS
[0.75 0 0 0.75 0 0] CT
[10 6] 0 setdash
2 LJ
0.667 LW
N
132.5 374 M
132.5 364.5 L
132.5 355 L
132.5 345.5 L
132.5 336 L
132.5 326.5 L
132.5 317 L
132.5 307.5 L
132.5 298 L
132.5 288.5 L
132.5 279 L
132.5 269.5 L
132.5 260 L
132.5 250.5 L
132.5 241 L
132.5 231.5 L
132.5 222 L
132.5 212.5 L
132.5 203 L
132.5 193.5 L
132.5 184 L
132.5 174.5 L
132.5 165 L
132.5 155.5 L
132.5 146 L
132.5 136.5 L
132.5 127 L
132.5 117.5 L
132.5 108 L
132.5 98.5 L
132.5 89 L
132.5 79.5 L
132.5 70 L
132.5 60.5 L
132.5 51 L
132.5 41.5 L
S
GR
GS
[0.75 0 0 0.75 0 0] CT
1 LJ
0.667 LW
N
180.1 374 M
180.1 364.5 L
180.1 355 L
180.1 345.5 L
180.1 336 L
180.1 326.5 L
180.1 317 L
180.1 307.5 L
180.1 298 L
180.1 288.5 L
180.1 279 L
180.1 269.5 L
180.1 260 L
180.1 250.5 L
180.1 241 L
180.1 231.5 L
180.1 222 L
180.1 212.5 L
180.1 203 L
180.1 193.5 L
180.1 184 L
180.1 174.5 L
180.1 165 L
180.1 155.5 L
180.1 146 L
180.1 136.5 L
180.1 127 L
180.1 117.5 L
180.1 108 L
180.1 98.5 L
180.1 89 L
180.1 79.5 L
180.1 70 L
180.1 60.5 L
180.1 51 L
180.1 41.5 L
S
GR
GS
[0.75 0 0 0.75 0 0] CT
1 GC
N
230 374 M
350 374 L
350 32 L
230 32 L
cp
f
GR
GS
[0.75 0 0 0.75 0 0] CT
0.149 GC
2 setlinecap
1 LJ
0.667 LW
N
230 374 M
350 374 L
S
GR
GS
[0.75 0 0 0.75 0 0] CT
0.149 GC
2 setlinecap
1 LJ
0.667 LW
N
230 374 M
230 370.58 L
S
GR
GS
[0.75 0 0 0.75 0 0] CT
0.149 GC
2 setlinecap
1 LJ
0.667 LW
N
290 374 M
290 370.58 L
S
GR
GS
[0.75 0 0 0.75 0 0] CT
0.149 GC
2 setlinecap
1 LJ
0.667 LW
N
350 374 M
350 370.58 L
S
GR
GS
[0.75 0 0 0.75 172.5 284.9] CT
0.149 GC
/Helvetica 16 F
GS
[1 0 0 1 0 0] CT
-8 15 moveto 
1 -1 scale
(-5) t 
GR
GR
GS
[0.75 0 0 0.75 217.5 284.9] CT
0.149 GC
/Helvetica 16 F
GS
[1 0 0 1 0 0] CT
-5.5 15 moveto 
1 -1 scale
(0) t 
GR
GR
GS
[0.75 0 0 0.75 262.5 284.9] CT
0.149 GC
/Helvetica 16 F
GS
[1 0 0 1 0 0] CT
-5.5 15 moveto 
1 -1 scale
(5) t 
GR
GR
GS
[0.75 0 0 0.75 217.50005 300.15001] CT
0.149 GC
/Helvetica 16 F
GS
[1 0 0 1 0 0] CT
-21 15 moveto 
1 -1 scale
(car B) t 
GR
GR
GS
[0.75 0 0 0.75 0 0] CT
0.149 GC
2 setlinecap
1 LJ
0.667 LW
N
230 374 M
230 32 L
S
GR
GS
[0.75 0 0 0.75 0 0] CT
1 GC
N
290 193.5 M
290 203 L
296.857 203 L
296.857 193.5 L
cp
f
GR
GS
[0.75 0 0 0.75 0 0] CT
0.988 GC
N
296.857 193.5 M
296.857 203 L
303.714 203 L
303.714 193.5 L
cp
f
GR
GS
[0.75 0 0 0.75 0 0] CT
0.976 GC
N
303.714 193.5 M
303.714 203 L
310.571 203 L
317.429 203 L
324.286 203 L
324.286 193.5 L
317.429 193.5 L
310.571 193.5 L
cp
f
GR
GS
[0.75 0 0 0.75 0 0] CT
0.988 GC
N
324.286 193.5 M
324.286 203 L
331.143 203 L
331.143 193.5 L
cp
f
GR
GS
[0.75 0 0 0.75 0 0] CT
1 GC
N
331.143 193.5 M
331.143 203 L
338 203 L
338 193.5 L
cp
f
GR
GS
[0.75 0 0 0.75 0 0] CT
0.957 GC
N
290 184 M
290 193.5 L
296.857 193.5 L
296.857 184 L
cp
f
GR
GS
[0.75 0 0 0.75 0 0] CT
0.878 GC
N
296.857 184 M
296.857 193.5 L
303.714 193.5 L
303.714 184 L
cp
f
GR
GS
[0.75 0 0 0.75 0 0] CT
0.816 GC
N
303.714 184 M
303.714 193.5 L
310.571 193.5 L
310.571 184 L
cp
f
GR
GS
[0.75 0 0 0.75 0 0] CT
0.784 GC
N
310.571 184 M
310.571 193.5 L
317.429 193.5 L
317.429 184 L
cp
f
GR
GS
[0.75 0 0 0.75 0 0] CT
0.816 GC
N
317.429 184 M
317.429 193.5 L
324.286 193.5 L
324.286 184 L
cp
f
GR
GS
[0.75 0 0 0.75 0 0] CT
0.878 GC
N
324.286 184 M
324.286 193.5 L
331.143 193.5 L
331.143 184 L
cp
f
GR
GS
[0.75 0 0 0.75 0 0] CT
0.957 GC
N
331.143 184 M
331.143 193.5 L
338 193.5 L
338 184 L
cp
f
GR
GS
[0.75 0 0 0.75 0 0] CT
0.886 GC
N
290 174.5 M
290 184 L
296.857 184 L
296.857 174.5 L
cp
f
GR
GS
[0.75 0 0 0.75 0 0] CT
0.675 GC
N
296.857 174.5 M
296.857 184 L
303.714 184 L
303.714 174.5 L
cp
f
GR
GS
[0.75 0 0 0.75 0 0] CT
0.502 GC
N
303.714 174.5 M
303.714 184 L
310.571 184 L
310.571 174.5 L
cp
f
GR
GS
[0.75 0 0 0.75 0 0] CT
0.443 GC
N
310.571 174.5 M
310.571 184 L
317.429 184 L
317.429 174.5 L
cp
f
GR
GS
[0.75 0 0 0.75 0 0] CT
0.502 GC
N
317.429 174.5 M
317.429 184 L
324.286 184 L
324.286 174.5 L
cp
f
GR
GS
[0.75 0 0 0.75 0 0] CT
0.675 GC
N
324.286 174.5 M
324.286 184 L
331.143 184 L
331.143 174.5 L
cp
f
GR
GS
[0.75 0 0 0.75 0 0] CT
0.886 GC
N
331.143 174.5 M
331.143 184 L
338 184 L
338 174.5 L
cp
f
GR
GS
[0.75 0 0 0.75 0 0] CT
0.816 GC
N
290 165 M
290 174.5 L
296.857 174.5 L
296.857 165 L
cp
f
GR
GS
[0.75 0 0 0.75 0 0] CT
0.475 GC
N
296.857 165 M
296.857 174.5 L
303.714 174.5 L
303.714 165 L
cp
f
GR
GS
[0.75 0 0 0.75 0 0] CT
0.188 GC
N
303.714 165 M
303.714 174.5 L
310.571 174.5 L
310.571 165 L
cp
f
GR
GS
[0.75 0 0 0.75 0 0] CT
0.098 GC
N
310.571 165 M
310.571 174.5 L
317.429 174.5 L
317.429 165 L
cp
f
GR
GS
[0.75 0 0 0.75 0 0] CT
0.188 GC
N
317.429 165 M
317.429 174.5 L
324.286 174.5 L
324.286 165 L
cp
f
GR
GS
[0.75 0 0 0.75 0 0] CT
0.475 GC
N
324.286 165 M
324.286 174.5 L
331.143 174.5 L
331.143 165 L
cp
f
GR
GS
[0.75 0 0 0.75 0 0] CT
0.816 GC
N
331.143 165 M
331.143 174.5 L
338 174.5 L
338 165 L
cp
f
GR
GS
[0.75 0 0 0.75 0 0] CT
0.796 GC
N
290 155.5 M
290 165 L
296.857 165 L
296.857 155.5 L
cp
f
GR
GS
[0.75 0 0 0.75 0 0] CT
0.412 GC
N
296.857 155.5 M
296.857 165 L
303.714 165 L
303.714 155.5 L
cp
f
GR
GS
[0.75 0 0 0.75 0 0] CT
0.098 GC
N
303.714 155.5 M
303.714 165 L
310.571 165 L
310.571 155.5 L
cp
f
GR
GS
[0.75 0 0 0.75 0 0] CT
N
310.571 155.5 M
310.571 165 L
317.429 165 L
317.429 155.5 L
cp
f
GR
GS
[0.75 0 0 0.75 0 0] CT
0.098 GC
N
317.429 155.5 M
317.429 165 L
324.286 165 L
324.286 155.5 L
cp
f
GR
GS
[0.75 0 0 0.75 0 0] CT
0.412 GC
N
324.286 155.5 M
324.286 165 L
331.143 165 L
331.143 155.5 L
cp
f
GR
GS
[0.75 0 0 0.75 0 0] CT
0.796 GC
N
331.143 155.5 M
331.143 165 L
338 165 L
338 155.5 L
cp
f
GR
GS
[0.75 0 0 0.75 0 0] CT
0.847 GC
N
290 146 M
290 155.5 L
296.857 155.5 L
296.857 146 L
cp
f
GR
GS
[0.75 0 0 0.75 0 0] CT
0.553 GC
N
296.857 146 M
296.857 155.5 L
303.714 155.5 L
303.714 146 L
cp
f
GR
GS
[0.75 0 0 0.75 0 0] CT
0.302 GC
N
303.714 146 M
303.714 155.5 L
310.571 155.5 L
310.571 146 L
cp
f
GR
GS
[0.75 0 0 0.75 0 0] CT
0.22 GC
N
310.571 146 M
310.571 155.5 L
317.429 155.5 L
317.429 146 L
cp
f
GR
GS
[0.75 0 0 0.75 0 0] CT
0.302 GC
N
317.429 146 M
317.429 155.5 L
324.286 155.5 L
324.286 146 L
cp
f
GR
GS
[0.75 0 0 0.75 0 0] CT
0.553 GC
N
324.286 146 M
324.286 155.5 L
331.143 155.5 L
331.143 146 L
cp
f
GR
GS
[0.75 0 0 0.75 0 0] CT
0.847 GC
N
331.143 146 M
331.143 155.5 L
338 155.5 L
338 146 L
cp
f
GR
GS
[0.75 0 0 0.75 0 0] CT
0.918 GC
N
290 136.5 M
290 146 L
296.857 146 L
296.857 136.5 L
cp
f
GR
GS
[0.75 0 0 0.75 0 0] CT
0.745 GC
N
296.857 136.5 M
296.857 146 L
303.714 146 L
303.714 136.5 L
cp
f
GR
GS
[0.75 0 0 0.75 0 0] CT
0.616 GC
N
303.714 136.5 M
303.714 146 L
310.571 146 L
310.571 136.5 L
cp
f
GR
GS
[0.75 0 0 0.75 0 0] CT
0.565 GC
N
310.571 136.5 M
310.571 146 L
317.429 146 L
317.429 136.5 L
cp
f
GR
GS
[0.75 0 0 0.75 0 0] CT
0.616 GC
N
317.429 136.5 M
317.429 146 L
324.286 146 L
324.286 136.5 L
cp
f
GR
GS
[0.75 0 0 0.75 0 0] CT
0.745 GC
N
324.286 136.5 M
324.286 146 L
331.143 146 L
331.143 136.5 L
cp
f
GR
GS
[0.75 0 0 0.75 0 0] CT
0.918 GC
N
331.143 136.5 M
331.143 146 L
338 146 L
338 136.5 L
cp
f
GR
GS
[0.75 0 0 0.75 0 0] CT
0.976 GC
N
290 127 M
290 136.5 L
296.857 136.5 L
296.857 127 L
cp
f
GR
GS
[0.75 0 0 0.75 0 0] CT
0.925 GC
N
296.857 127 M
296.857 136.5 L
303.714 136.5 L
303.714 127 L
cp
f
GR
GS
[0.75 0 0 0.75 0 0] CT
0.886 GC
N
303.714 127 M
303.714 136.5 L
310.571 136.5 L
310.571 127 L
cp
f
GR
GS
[0.75 0 0 0.75 0 0] CT
0.867 GC
N
310.571 127 M
310.571 136.5 L
317.429 136.5 L
317.429 127 L
cp
f
GR
GS
[0.75 0 0 0.75 0 0] CT
0.886 GC
N
317.429 127 M
317.429 136.5 L
324.286 136.5 L
324.286 127 L
cp
f
GR
GS
[0.75 0 0 0.75 0 0] CT
0.925 GC
N
324.286 127 M
324.286 136.5 L
331.143 136.5 L
331.143 127 L
cp
f
GR
GS
[0.75 0 0 0.75 0 0] CT
0.976 GC
N
331.143 127 M
331.143 136.5 L
338 136.5 L
338 127 L
cp
f
GR
GS
[0.75 0 0 0.75 0 0] CT
1 GC
N
290 117.5 M
290 127 L
296.857 127 L
303.714 127 L
303.714 117.5 L
296.857 117.5 L
cp
f
GR
GS
[0.75 0 0 0.75 0 0] CT
0.988 GC
N
303.714 117.5 M
303.714 127 L
310.571 127 L
317.429 127 L
324.286 127 L
324.286 117.5 L
317.429 117.5 L
310.571 117.5 L
cp
f
GR
GS
[0.75 0 0 0.75 0 0] CT
1 GC
N
324.286 117.5 M
324.286 127 L
331.143 127 L
338 127 L
338 117.5 L
331.143 117.5 L
cp
f
GR
GS
[0.75 0 0 0.75 0 0] CT
1 LJ
0.667 LW
N
242 374 M
242 364.5 L
242 355 L
242 345.5 L
242 336 L
242 326.5 L
242 317 L
242 307.5 L
242 298 L
242 288.5 L
242 279 L
242 269.5 L
242 260 L
242 250.5 L
242 241 L
242 231.5 L
242 222 L
242 212.5 L
242 203 L
242 193.5 L
242 184 L
242 174.5 L
242 165 L
242 155.5 L
242 146 L
242 136.5 L
242 127 L
242 117.5 L
242 108 L
242 98.5 L
242 89 L
242 79.5 L
242 70 L
242 60.5 L
242 51 L
242 41.5 L
S
GR
GS
[0.75 0 0 0.75 0 0] CT
[10 6] 0 setdash
2 LJ
0.667 LW
N
290 374 M
290 364.5 L
290 355 L
290 345.5 L
290 336 L
290 326.5 L
290 317 L
290 307.5 L
290 298 L
290 288.5 L
290 279 L
290 269.5 L
290 260 L
290 250.5 L
290 241 L
290 231.5 L
290 222 L
290 212.5 L
290 203 L
290 193.5 L
290 184 L
290 174.5 L
290 165 L
290 155.5 L
290 146 L
290 136.5 L
290 127 L
290 117.5 L
290 108 L
290 98.5 L
290 89 L
290 79.5 L
290 70 L
290 60.5 L
290 51 L
290 41.5 L
S
GR
GS
[0.75 0 0 0.75 0 0] CT
1 LJ
0.667 LW
N
338 374 M
338 364.5 L
338 355 L
338 345.5 L
338 336 L
338 326.5 L
338 317 L
338 307.5 L
338 298 L
338 288.5 L
338 279 L
338 269.5 L
338 260 L
338 250.5 L
338 241 L
338 231.5 L
338 222 L
338 212.5 L
338 203 L
338 193.5 L
338 184 L
338 174.5 L
338 165 L
338 155.5 L
338 146 L
338 136.5 L
338 127 L
338 117.5 L
338 108 L
338 98.5 L
338 89 L
338 79.5 L
338 70 L
338 60.5 L
338 51 L
338 41.5 L
S
GR
GS
[0.75 0 0 0.75 0 0] CT
1 GC
N
387 374 M
507 374 L
507 32 L
387 32 L
cp
f
GR
GS
[0.75 0 0 0.75 0 0] CT
0.149 GC
2 setlinecap
1 LJ
0.667 LW
N
387 374 M
507 374 L
S
GR
GS
[0.75 0 0 0.75 0 0] CT
0.149 GC
2 setlinecap
1 LJ
0.667 LW
N
387 374 M
387 370.58 L
S
GR
GS
[0.75 0 0 0.75 0 0] CT
0.149 GC
2 setlinecap
1 LJ
0.667 LW
N
447 374 M
447 370.58 L
S
GR
GS
[0.75 0 0 0.75 0 0] CT
0.149 GC
2 setlinecap
1 LJ
0.667 LW
N
507 374 M
507 370.58 L
S
GR
GS
[0.75 0 0 0.75 290.25 284.9] CT
0.149 GC
/Helvetica 16 F
GS
[1 0 0 1 0 0] CT
-8 15 moveto 
1 -1 scale
(-5) t 
GR
GR
GS
[0.75 0 0 0.75 335.25 284.9] CT
0.149 GC
/Helvetica 16 F
GS
[1 0 0 1 0 0] CT
-5.5 15 moveto 
1 -1 scale
(0) t 
GR
GR
GS
[0.75 0 0 0.75 380.25 284.9] CT
0.149 GC
/Helvetica 16 F
GS
[1 0 0 1 0 0] CT
-5.5 15 moveto 
1 -1 scale
(5) t 
GR
GR
GS
[0.75 0 0 0.75 335.25005 300.15001] CT
0.149 GC
/Helvetica 16 F
GS
[1 0 0 1 0 0] CT
-21 15 moveto 
1 -1 scale
(car C) t 
GR
GR
GS
[0.75 0 0 0.75 0 0] CT
0.149 GC
2 setlinecap
1 LJ
0.667 LW
N
387 374 M
387 32 L
S
GR
GS
[0.75 0 0 0.75 0 0] CT
0.988 GC
N
447 326.5 M
447 336 L
453.857 336 L
453.857 326.5 L
cp
f
GR
GS
[0.75 0 0 0.75 0 0] CT
0.949 GC
N
453.857 326.5 M
453.857 336 L
460.714 336 L
460.714 326.5 L
cp
f
GR
GS
[0.75 0 0 0.75 0 0] CT
0.918 GC
N
460.714 326.5 M
460.714 336 L
467.571 336 L
467.571 326.5 L
cp
f
GR
GS
[0.75 0 0 0.75 0 0] CT
0.906 GC
N
467.571 326.5 M
467.571 336 L
474.429 336 L
474.429 326.5 L
cp
f
GR
GS
[0.75 0 0 0.75 0 0] CT
0.918 GC
N
474.429 326.5 M
474.429 336 L
481.286 336 L
481.286 326.5 L
cp
f
GR
GS
[0.75 0 0 0.75 0 0] CT
0.949 GC
N
481.286 326.5 M
481.286 336 L
488.143 336 L
488.143 326.5 L
cp
f
GR
GS
[0.75 0 0 0.75 0 0] CT
0.988 GC
N
488.143 326.5 M
488.143 336 L
495 336 L
495 326.5 L
cp
f
GR
GS
[0.75 0 0 0.75 0 0] CT
0.925 GC
N
447 317 M
447 326.5 L
453.857 326.5 L
453.857 317 L
cp
f
GR
GS
[0.75 0 0 0.75 0 0] CT
0.784 GC
N
453.857 317 M
453.857 326.5 L
460.714 326.5 L
460.714 317 L
cp
f
GR
GS
[0.75 0 0 0.75 0 0] CT
0.675 GC
N
460.714 317 M
460.714 326.5 L
467.571 326.5 L
467.571 317 L
cp
f
GR
GS
[0.75 0 0 0.75 0 0] CT
0.635 GC
N
467.571 317 M
467.571 326.5 L
474.429 326.5 L
474.429 317 L
cp
f
GR
GS
[0.75 0 0 0.75 0 0] CT
0.675 GC
N
474.429 317 M
474.429 326.5 L
481.286 326.5 L
481.286 317 L
cp
f
GR
GS
[0.75 0 0 0.75 0 0] CT
0.784 GC
N
481.286 317 M
481.286 326.5 L
488.143 326.5 L
488.143 317 L
cp
f
GR
GS
[0.75 0 0 0.75 0 0] CT
0.925 GC
N
488.143 317 M
488.143 326.5 L
495 326.5 L
495 317 L
cp
f
GR
GS
[0.75 0 0 0.75 0 0] CT
0.855 GC
N
447 307.5 M
447 317 L
453.857 317 L
453.857 307.5 L
cp
f
GR
GS
[0.75 0 0 0.75 0 0] CT
0.592 GC
N
453.857 307.5 M
453.857 317 L
460.714 317 L
460.714 307.5 L
cp
f
GR
GS
[0.75 0 0 0.75 0 0] CT
0.373 GC
N
460.714 307.5 M
460.714 317 L
467.571 317 L
467.571 307.5 L
cp
f
GR
GS
[0.75 0 0 0.75 0 0] CT
0.302 GC
N
467.571 307.5 M
467.571 317 L
474.429 317 L
474.429 307.5 L
cp
f
GR
GS
[0.75 0 0 0.75 0 0] CT
0.373 GC
N
474.429 307.5 M
474.429 317 L
481.286 317 L
481.286 307.5 L
cp
f
GR
GS
[0.75 0 0 0.75 0 0] CT
0.592 GC
N
481.286 307.5 M
481.286 317 L
488.143 317 L
488.143 307.5 L
cp
f
GR
GS
[0.75 0 0 0.75 0 0] CT
0.855 GC
N
488.143 307.5 M
488.143 317 L
495 317 L
495 307.5 L
cp
f
GR
GS
[0.75 0 0 0.75 0 0] CT
0.808 GC
N
447 298 M
447 307.5 L
453.857 307.5 L
453.857 298 L
cp
f
GR
GS
[0.75 0 0 0.75 0 0] CT
0.443 GC
N
453.857 298 M
453.857 307.5 L
460.714 307.5 L
460.714 298 L
cp
f
GR
GS
[0.75 0 0 0.75 0 0] CT
0.141 GC
N
460.714 298 M
460.714 307.5 L
467.571 307.5 L
467.571 298 L
cp
f
GR
GS
[0.75 0 0 0.75 0 0] CT
0.047 GC
N
467.571 298 M
467.571 307.5 L
474.429 307.5 L
474.429 298 L
cp
f
GR
GS
[0.75 0 0 0.75 0 0] CT
0.141 GC
N
474.429 298 M
474.429 307.5 L
481.286 307.5 L
481.286 298 L
cp
f
GR
GS
[0.75 0 0 0.75 0 0] CT
0.443 GC
N
481.286 298 M
481.286 307.5 L
488.143 307.5 L
488.143 298 L
cp
f
GR
GS
[0.75 0 0 0.75 0 0] CT
0.808 GC
N
488.143 298 M
488.143 307.5 L
495 307.5 L
495 298 L
cp
f
GR
GS
[0.75 0 0 0.75 0 0] CT
0.796 GC
N
447 288.5 M
447 298 L
453.857 298 L
453.857 288.5 L
cp
f
GR
GS
[0.75 0 0 0.75 0 0] CT
0.412 GC
N
453.857 288.5 M
453.857 298 L
460.714 298 L
460.714 288.5 L
cp
f
GR
GS
[0.75 0 0 0.75 0 0] CT
0.098 GC
N
460.714 288.5 M
460.714 298 L
467.571 298 L
467.571 288.5 L
cp
f
GR
GS
[0.75 0 0 0.75 0 0] CT
N
467.571 288.5 M
467.571 298 L
474.429 298 L
474.429 288.5 L
cp
f
GR
GS
[0.75 0 0 0.75 0 0] CT
0.098 GC
N
474.429 288.5 M
474.429 298 L
481.286 298 L
481.286 288.5 L
cp
f
GR
GS
[0.75 0 0 0.75 0 0] CT
0.412 GC
N
481.286 288.5 M
481.286 298 L
488.143 298 L
488.143 288.5 L
cp
f
GR
GS
[0.75 0 0 0.75 0 0] CT
0.796 GC
N
488.143 288.5 M
488.143 298 L
495 298 L
495 288.5 L
cp
f
GR
GS
[0.75 0 0 0.75 0 0] CT
0.827 GC
N
447 279 M
447 288.5 L
453.857 288.5 L
453.857 279 L
cp
f
GR
GS
[0.75 0 0 0.75 0 0] CT
0.514 GC
N
453.857 279 M
453.857 288.5 L
460.714 288.5 L
460.714 279 L
cp
f
GR
GS
[0.75 0 0 0.75 0 0] CT
0.251 GC
N
460.714 279 M
460.714 288.5 L
467.571 288.5 L
467.571 279 L
cp
f
GR
GS
[0.75 0 0 0.75 0 0] CT
0.161 GC
N
467.571 279 M
467.571 288.5 L
474.429 288.5 L
474.429 279 L
cp
f
GR
GS
[0.75 0 0 0.75 0 0] CT
0.251 GC
N
474.429 279 M
474.429 288.5 L
481.286 288.5 L
481.286 279 L
cp
f
GR
GS
[0.75 0 0 0.75 0 0] CT
0.514 GC
N
481.286 279 M
481.286 288.5 L
488.143 288.5 L
488.143 279 L
cp
f
GR
GS
[0.75 0 0 0.75 0 0] CT
0.827 GC
N
488.143 279 M
488.143 288.5 L
495 288.5 L
495 279 L
cp
f
GR
GS
[0.75 0 0 0.75 0 0] CT
0.898 GC
N
447 269.5 M
447 279 L
453.857 279 L
453.857 269.5 L
cp
f
GR
GS
[0.75 0 0 0.75 0 0] CT
0.694 GC
N
453.857 269.5 M
453.857 279 L
460.714 279 L
460.714 269.5 L
cp
f
GR
GS
[0.75 0 0 0.75 0 0] CT
0.522 GC
N
460.714 269.5 M
460.714 279 L
467.571 279 L
467.571 269.5 L
cp
f
GR
GS
[0.75 0 0 0.75 0 0] CT
0.463 GC
N
467.571 269.5 M
467.571 279 L
474.429 279 L
474.429 269.5 L
cp
f
GR
GS
[0.75 0 0 0.75 0 0] CT
0.522 GC
N
474.429 269.5 M
474.429 279 L
481.286 279 L
481.286 269.5 L
cp
f
GR
GS
[0.75 0 0 0.75 0 0] CT
0.694 GC
N
481.286 269.5 M
481.286 279 L
488.143 279 L
488.143 269.5 L
cp
f
GR
GS
[0.75 0 0 0.75 0 0] CT
0.898 GC
N
488.143 269.5 M
488.143 279 L
495 279 L
495 269.5 L
cp
f
GR
GS
[0.75 0 0 0.75 0 0] CT
0.957 GC
N
447 260 M
447 269.5 L
453.857 269.5 L
453.857 260 L
cp
f
GR
GS
[0.75 0 0 0.75 0 0] CT
0.878 GC
N
453.857 260 M
453.857 269.5 L
460.714 269.5 L
460.714 260 L
cp
f
GR
GS
[0.75 0 0 0.75 0 0] CT
0.808 GC
N
460.714 260 M
460.714 269.5 L
467.571 269.5 L
467.571 260 L
cp
f
GR
GS
[0.75 0 0 0.75 0 0] CT
0.776 GC
N
467.571 260 M
467.571 269.5 L
474.429 269.5 L
474.429 260 L
cp
f
GR
GS
[0.75 0 0 0.75 0 0] CT
0.808 GC
N
474.429 260 M
474.429 269.5 L
481.286 269.5 L
481.286 260 L
cp
f
GR
GS
[0.75 0 0 0.75 0 0] CT
0.878 GC
N
481.286 260 M
481.286 269.5 L
488.143 269.5 L
488.143 260 L
cp
f
GR
GS
[0.75 0 0 0.75 0 0] CT
0.957 GC
N
488.143 260 M
488.143 269.5 L
495 269.5 L
495 260 L
cp
f
GR
GS
[0.75 0 0 0.75 0 0] CT
1 GC
N
447 250.5 M
447 260 L
453.857 260 L
453.857 250.5 L
cp
f
GR
GS
[0.75 0 0 0.75 0 0] CT
0.976 GC
N
453.857 250.5 M
453.857 260 L
460.714 260 L
460.714 250.5 L
cp
f
GR
GS
[0.75 0 0 0.75 0 0] CT
0.969 GC
N
460.714 250.5 M
460.714 260 L
467.571 260 L
467.571 250.5 L
cp
f
GR
GS
[0.75 0 0 0.75 0 0] CT
0.957 GC
N
467.571 250.5 M
467.571 260 L
474.429 260 L
474.429 250.5 L
cp
f
GR
GS
[0.75 0 0 0.75 0 0] CT
0.969 GC
N
474.429 250.5 M
474.429 260 L
481.286 260 L
481.286 250.5 L
cp
f
GR
GS
[0.75 0 0 0.75 0 0] CT
0.976 GC
N
481.286 250.5 M
481.286 260 L
488.143 260 L
488.143 250.5 L
cp
f
GR
GS
[0.75 0 0 0.75 0 0] CT
1 GC
N
488.143 250.5 M
488.143 260 L
495 260 L
495 250.5 L
495 241 L
488.143 241 L
481.286 241 L
474.429 241 L
467.571 241 L
460.714 241 L
453.857 241 L
447 241 L
447 250.5 L
453.857 250.5 L
460.714 250.5 L
467.571 250.5 L
474.429 250.5 L
481.286 250.5 L
cp
f
GR
GS
[0.75 0 0 0.75 0 0] CT
1 LJ
0.667 LW
N
399 374 M
399 364.5 L
399 355 L
399 345.5 L
399 336 L
399 326.5 L
399 317 L
399 307.5 L
399 298 L
399 288.5 L
399 279 L
399 269.5 L
399 260 L
399 250.5 L
399 241 L
399 231.5 L
399 222 L
399 212.5 L
399 203 L
399 193.5 L
399 184 L
399 174.5 L
399 165 L
399 155.5 L
399 146 L
399 136.5 L
399 127 L
399 117.5 L
399 108 L
399 98.5 L
399 89 L
399 79.5 L
399 70 L
399 60.5 L
399 51 L
399 41.5 L
S
GR
GS
[0.75 0 0 0.75 0 0] CT
[10 6] 0 setdash
2 LJ
0.667 LW
N
447 374 M
447 364.5 L
447 355 L
447 345.5 L
447 336 L
447 326.5 L
447 317 L
447 307.5 L
447 298 L
447 288.5 L
447 279 L
447 269.5 L
447 260 L
447 250.5 L
447 241 L
447 231.5 L
447 222 L
447 212.5 L
447 203 L
447 193.5 L
447 184 L
447 174.5 L
447 165 L
447 155.5 L
447 146 L
447 136.5 L
447 127 L
447 117.5 L
447 108 L
447 98.5 L
447 89 L
447 79.5 L
447 70 L
447 60.5 L
447 51 L
447 41.5 L
S
GR
GS
[0.75 0 0 0.75 0 0] CT
1 LJ
0.667 LW
N
495 374 M
495 364.5 L
495 355 L
495 345.5 L
495 336 L
495 326.5 L
495 317 L
495 307.5 L
495 298 L
495 288.5 L
495 279 L
495 269.5 L
495 260 L
495 250.5 L
495 241 L
495 231.5 L
495 222 L
495 212.5 L
495 203 L
495 193.5 L
495 184 L
495 174.5 L
495 165 L
495 155.5 L
495 146 L
495 136.5 L
495 127 L
495 117.5 L
495 108 L
495 98.5 L
495 89 L
495 79.5 L
495 70 L
495 60.5 L
495 51 L
495 41.5 L
S
GR
%%Trailer
%%Pages: 1
%%EOF
