%!PS-Adobe-3.0 EPSF-3.0
%%Creator: (MATLAB, The Mathworks, Inc. Version 9.12.0.1956245 \(R2022a\) Update 2. Operating System: Windows 10)
%%Title: ./results/plots/cora_07_VCAS_middle_1.eps
%%CreationDate: 2022-08-17T10:20:17
%%Pages: (atend)
%%BoundingBox:    16     5   387   295
%%LanguageLevel: 3
%%EndComments
%%BeginProlog
%%BeginResource: procset (Apache XML Graphics Std ProcSet) 1.2 0
%%Version: 1.2 0
%%Copyright: (Copyright 2001-2003,2010 The Apache Software Foundation. License terms: http://www.apache.org/licenses/LICENSE-2.0)
/bd{bind def}bind def
/ld{load def}bd
/GR/grestore ld
/GS/gsave ld
/RM/rmoveto ld
/C/curveto ld
/t/show ld
/L/lineto ld
/ML/setmiterlimit ld
/CT/concat ld
/f/fill ld
/N/newpath ld
/S/stroke ld
/CC/setcmykcolor ld
/A/ashow ld
/cp/closepath ld
/RC/setrgbcolor ld
/LJ/setlinejoin ld
/GC/setgray ld
/LW/setlinewidth ld
/M/moveto ld
/re {4 2 roll M
1 index 0 rlineto
0 exch rlineto
neg 0 rlineto
cp } bd
/_ctm matrix def
/_tm matrix def
/BT { _ctm currentmatrix pop matrix _tm copy pop 0 0 moveto } bd
/ET { _ctm setmatrix } bd
/iTm { _ctm setmatrix _tm concat } bd
/Tm { _tm astore pop iTm 0 0 moveto } bd
/ux 0.0 def
/uy 0.0 def
/F {
  /Tp exch def
  /Tf exch def
  Tf findfont Tp scalefont setfont
  /cf Tf def  /cs Tp def
} bd
/ULS {currentpoint /uy exch def /ux exch def} bd
/ULE {
  /Tcx currentpoint pop def
  gsave
  newpath
  cf findfont cs scalefont dup
  /FontMatrix get 0 get /Ts exch def /FontInfo get dup
  /UnderlinePosition get Ts mul /To exch def
  /UnderlineThickness get Ts mul /Tt exch def
  ux uy To add moveto  Tcx uy To add lineto
  Tt setlinewidth stroke
  grestore
} bd
/OLE {
  /Tcx currentpoint pop def
  gsave
  newpath
  cf findfont cs scalefont dup
  /FontMatrix get 0 get /Ts exch def /FontInfo get dup
  /UnderlinePosition get Ts mul /To exch def
  /UnderlineThickness get Ts mul /Tt exch def
  ux uy To add cs add moveto Tcx uy To add cs add lineto
  Tt setlinewidth stroke
  grestore
} bd
/SOE {
  /Tcx currentpoint pop def
  gsave
  newpath
  cf findfont cs scalefont dup
  /FontMatrix get 0 get /Ts exch def /FontInfo get dup
  /UnderlinePosition get Ts mul /To exch def
  /UnderlineThickness get Ts mul /Tt exch def
  ux uy To add cs 10 mul 26 idiv add moveto Tcx uy To add cs 10 mul 26 idiv add lineto
  Tt setlinewidth stroke
  grestore
} bd
/QT {
/Y22 exch store
/X22 exch store
/Y21 exch store
/X21 exch store
currentpoint
/Y21 load 2 mul add 3 div exch
/X21 load 2 mul add 3 div exch
/X21 load 2 mul /X22 load add 3 div
/Y21 load 2 mul /Y22 load add 3 div
/X22 load /Y22 load curveto
} bd
/SSPD {
dup length /d exch dict def
{
/v exch def
/k exch def
currentpagedevice k known {
/cpdv currentpagedevice k get def
v cpdv ne {
/upd false def
/nullv v type /nulltype eq def
/nullcpdv cpdv type /nulltype eq def
nullv nullcpdv or
{
/upd true def
} {
/sametype v type cpdv type eq def
sametype {
v type /arraytype eq {
/vlen v length def
/cpdvlen cpdv length def
vlen cpdvlen eq {
0 1 vlen 1 sub {
/i exch def
/obj v i get def
/cpdobj cpdv i get def
obj cpdobj ne {
/upd true def
exit
} if
} for
} {
/upd true def
} ifelse
} {
v type /dicttype eq {
v {
/dv exch def
/dk exch def
/cpddv cpdv dk get def
dv cpddv ne {
/upd true def
exit
} if
} forall
} {
/upd true def
} ifelse
} ifelse
} if
} ifelse
upd true eq {
d k v put
} if
} if
} if
} forall
d length 0 gt {
d setpagedevice
} if
} bd
/RE { % /NewFontName [NewEncodingArray] /FontName RE -
  findfont dup length dict begin
  {
    1 index /FID ne
    {def} {pop pop} ifelse
  } forall
  /Encoding exch def
  /FontName 1 index def
  currentdict definefont pop
  end
} bind def
%%EndResource
%%BeginResource: procset (Apache XML Graphics EPS ProcSet) 1.0 0
%%Version: 1.0 0
%%Copyright: (Copyright 2002-2003 The Apache Software Foundation. License terms: http://www.apache.org/licenses/LICENSE-2.0)
/BeginEPSF { %def
/b4_Inc_state save def         % Save state for cleanup
/dict_count countdictstack def % Count objects on dict stack
/op_count count 1 sub def      % Count objects on operand stack
userdict begin                 % Push userdict on dict stack
/showpage { } def              % Redefine showpage, { } = null proc
0 setgray 0 setlinecap         % Prepare graphics state
1 setlinewidth 0 setlinejoin
10 setmiterlimit [ ] 0 setdash newpath
/languagelevel where           % If level not equal to 1 then
{pop languagelevel             % set strokeadjust and
1 ne                           % overprint to their defaults.
{false setstrokeadjust false setoverprint
} if
} if
} bd
/EndEPSF { %def
count op_count sub {pop} repeat            % Clean up stacks
countdictstack dict_count sub {end} repeat
b4_Inc_state restore
} bd
%%EndResource
%FOPBeginFontDict
%%IncludeResource: font Courier-Oblique
%%IncludeResource: font Courier-BoldOblique
%%IncludeResource: font Courier-Bold
%%IncludeResource: font ZapfDingbats
%%IncludeResource: font Symbol
%%IncludeResource: font Helvetica
%%IncludeResource: font Helvetica-Oblique
%%IncludeResource: font Helvetica-Bold
%%IncludeResource: font Helvetica-BoldOblique
%%IncludeResource: font Times-Roman
%%IncludeResource: font Times-Italic
%%IncludeResource: font Times-Bold
%%IncludeResource: font Times-BoldItalic
%%IncludeResource: font Courier
%FOPEndFontDict
%%BeginResource: encoding WinAnsiEncoding
/WinAnsiEncoding [
/.notdef /.notdef /.notdef /.notdef /.notdef
/.notdef /.notdef /.notdef /.notdef /.notdef
/.notdef /.notdef /.notdef /.notdef /.notdef
/.notdef /.notdef /.notdef /.notdef /.notdef
/.notdef /.notdef /.notdef /.notdef /.notdef
/.notdef /.notdef /.notdef /.notdef /.notdef
/.notdef /.notdef /space /exclam /quotedbl
/numbersign /dollar /percent /ampersand /quotesingle
/parenleft /parenright /asterisk /plus /comma
/hyphen /period /slash /zero /one
/two /three /four /five /six
/seven /eight /nine /colon /semicolon
/less /equal /greater /question /at
/A /B /C /D /E
/F /G /H /I /J
/K /L /M /N /O
/P /Q /R /S /T
/U /V /W /X /Y
/Z /bracketleft /backslash /bracketright /asciicircum
/underscore /quoteleft /a /b /c
/d /e /f /g /h
/i /j /k /l /m
/n /o /p /q /r
/s /t /u /v /w
/x /y /z /braceleft /bar
/braceright /asciitilde /bullet /Euro /bullet
/quotesinglbase /florin /quotedblbase /ellipsis /dagger
/daggerdbl /circumflex /perthousand /Scaron /guilsinglleft
/OE /bullet /Zcaron /bullet /bullet
/quoteleft /quoteright /quotedblleft /quotedblright /bullet
/endash /emdash /asciitilde /trademark /scaron
/guilsinglright /oe /bullet /zcaron /Ydieresis
/space /exclamdown /cent /sterling /currency
/yen /brokenbar /section /dieresis /copyright
/ordfeminine /guillemotleft /logicalnot /sfthyphen /registered
/macron /degree /plusminus /twosuperior /threesuperior
/acute /mu /paragraph /middot /cedilla
/onesuperior /ordmasculine /guillemotright /onequarter /onehalf
/threequarters /questiondown /Agrave /Aacute /Acircumflex
/Atilde /Adieresis /Aring /AE /Ccedilla
/Egrave /Eacute /Ecircumflex /Edieresis /Igrave
/Iacute /Icircumflex /Idieresis /Eth /Ntilde
/Ograve /Oacute /Ocircumflex /Otilde /Odieresis
/multiply /Oslash /Ugrave /Uacute /Ucircumflex
/Udieresis /Yacute /Thorn /germandbls /agrave
/aacute /acircumflex /atilde /adieresis /aring
/ae /ccedilla /egrave /eacute /ecircumflex
/edieresis /igrave /iacute /icircumflex /idieresis
/eth /ntilde /ograve /oacute /ocircumflex
/otilde /odieresis /divide /oslash /ugrave
/uacute /ucircumflex /udieresis /yacute /thorn
/ydieresis
] def
%%EndResource
%FOPBeginFontReencode
/Courier-Oblique findfont
dup length dict begin
  {1 index /FID ne {def} {pop pop} ifelse} forall
  /Encoding WinAnsiEncoding def
  currentdict
end
/Courier-Oblique exch definefont pop
/Courier-BoldOblique findfont
dup length dict begin
  {1 index /FID ne {def} {pop pop} ifelse} forall
  /Encoding WinAnsiEncoding def
  currentdict
end
/Courier-BoldOblique exch definefont pop
/Courier-Bold findfont
dup length dict begin
  {1 index /FID ne {def} {pop pop} ifelse} forall
  /Encoding WinAnsiEncoding def
  currentdict
end
/Courier-Bold exch definefont pop
/Helvetica findfont
dup length dict begin
  {1 index /FID ne {def} {pop pop} ifelse} forall
  /Encoding WinAnsiEncoding def
  currentdict
end
/Helvetica exch definefont pop
/Helvetica-Oblique findfont
dup length dict begin
  {1 index /FID ne {def} {pop pop} ifelse} forall
  /Encoding WinAnsiEncoding def
  currentdict
end
/Helvetica-Oblique exch definefont pop
/Helvetica-Bold findfont
dup length dict begin
  {1 index /FID ne {def} {pop pop} ifelse} forall
  /Encoding WinAnsiEncoding def
  currentdict
end
/Helvetica-Bold exch definefont pop
/Helvetica-BoldOblique findfont
dup length dict begin
  {1 index /FID ne {def} {pop pop} ifelse} forall
  /Encoding WinAnsiEncoding def
  currentdict
end
/Helvetica-BoldOblique exch definefont pop
/Times-Roman findfont
dup length dict begin
  {1 index /FID ne {def} {pop pop} ifelse} forall
  /Encoding WinAnsiEncoding def
  currentdict
end
/Times-Roman exch definefont pop
/Times-Italic findfont
dup length dict begin
  {1 index /FID ne {def} {pop pop} ifelse} forall
  /Encoding WinAnsiEncoding def
  currentdict
end
/Times-Italic exch definefont pop
/Times-Bold findfont
dup length dict begin
  {1 index /FID ne {def} {pop pop} ifelse} forall
  /Encoding WinAnsiEncoding def
  currentdict
end
/Times-Bold exch definefont pop
/Times-BoldItalic findfont
dup length dict begin
  {1 index /FID ne {def} {pop pop} ifelse} forall
  /Encoding WinAnsiEncoding def
  currentdict
end
/Times-BoldItalic exch definefont pop
/Courier findfont
dup length dict begin
  {1 index /FID ne {def} {pop pop} ifelse} forall
  /Encoding WinAnsiEncoding def
  currentdict
end
/Courier exch definefont pop
%FOPEndFontReencode
%%EndProlog
%%Page: 1 1
%%PageBoundingBox: 0 0 420 315
%%BeginPageSetup
N
   16     5 M
  403     5 L
  403   300 L
   16   300 L
cp
clip
[1 0 0 -1 0 315] CT
%%EndPageSetup
GS
[0.75 0 0 0.75 0 0] CT
1 GC
N
0 0 560 420 re
f
GR
GS
[0.75 0 0 0.75 0 0] CT
1 GC
N
0 0 560 420 re
f
GR
GS
[0.75 0 0 0.75 0 0] CT
1 GC
N
73 374 M
507 374 L
507 31 L
73 31 L
cp
f
GR
GS
[0.75 0 0 0.75 0 0] CT
0.149 GC
2 setlinecap
1 LJ
0.667 LW
N
73 374 M
507 374 L
S
GR
GS
[0.75 0 0 0.75 0 0] CT
0.149 GC
2 setlinecap
1 LJ
0.667 LW
N
73 31 M
507 31 L
S
GR
GS
[0.75 0 0 0.75 0 0] CT
0.149 GC
2 setlinecap
1 LJ
0.667 LW
N
73 374 M
73 369.66 L
S
GR
GS
[0.75 0 0 0.75 0 0] CT
0.149 GC
2 setlinecap
1 LJ
0.667 LW
N
116.4 374 M
116.4 369.66 L
S
GR
GS
[0.75 0 0 0.75 0 0] CT
0.149 GC
2 setlinecap
1 LJ
0.667 LW
N
159.8 374 M
159.8 369.66 L
S
GR
GS
[0.75 0 0 0.75 0 0] CT
0.149 GC
2 setlinecap
1 LJ
0.667 LW
N
203.2 374 M
203.2 369.66 L
S
GR
GS
[0.75 0 0 0.75 0 0] CT
0.149 GC
2 setlinecap
1 LJ
0.667 LW
N
246.6 374 M
246.6 369.66 L
S
GR
GS
[0.75 0 0 0.75 0 0] CT
0.149 GC
2 setlinecap
1 LJ
0.667 LW
N
290 374 M
290 369.66 L
S
GR
GS
[0.75 0 0 0.75 0 0] CT
0.149 GC
2 setlinecap
1 LJ
0.667 LW
N
333.4 374 M
333.4 369.66 L
S
GR
GS
[0.75 0 0 0.75 0 0] CT
0.149 GC
2 setlinecap
1 LJ
0.667 LW
N
376.8 374 M
376.8 369.66 L
S
GR
GS
[0.75 0 0 0.75 0 0] CT
0.149 GC
2 setlinecap
1 LJ
0.667 LW
N
420.2 374 M
420.2 369.66 L
S
GR
GS
[0.75 0 0 0.75 0 0] CT
0.149 GC
2 setlinecap
1 LJ
0.667 LW
N
463.6 374 M
463.6 369.66 L
S
GR
GS
[0.75 0 0 0.75 0 0] CT
0.149 GC
2 setlinecap
1 LJ
0.667 LW
N
507 374 M
507 369.66 L
S
GR
GS
[0.75 0 0 0.75 0 0] CT
0.149 GC
2 setlinecap
1 LJ
0.667 LW
N
73 31 M
73 35.34 L
S
GR
GS
[0.75 0 0 0.75 0 0] CT
0.149 GC
2 setlinecap
1 LJ
0.667 LW
N
116.4 31 M
116.4 35.34 L
S
GR
GS
[0.75 0 0 0.75 0 0] CT
0.149 GC
2 setlinecap
1 LJ
0.667 LW
N
159.8 31 M
159.8 35.34 L
S
GR
GS
[0.75 0 0 0.75 0 0] CT
0.149 GC
2 setlinecap
1 LJ
0.667 LW
N
203.2 31 M
203.2 35.34 L
S
GR
GS
[0.75 0 0 0.75 0 0] CT
0.149 GC
2 setlinecap
1 LJ
0.667 LW
N
246.6 31 M
246.6 35.34 L
S
GR
GS
[0.75 0 0 0.75 0 0] CT
0.149 GC
2 setlinecap
1 LJ
0.667 LW
N
290 31 M
290 35.34 L
S
GR
GS
[0.75 0 0 0.75 0 0] CT
0.149 GC
2 setlinecap
1 LJ
0.667 LW
N
333.4 31 M
333.4 35.34 L
S
GR
GS
[0.75 0 0 0.75 0 0] CT
0.149 GC
2 setlinecap
1 LJ
0.667 LW
N
376.8 31 M
376.8 35.34 L
S
GR
GS
[0.75 0 0 0.75 0 0] CT
0.149 GC
2 setlinecap
1 LJ
0.667 LW
N
420.2 31 M
420.2 35.34 L
S
GR
GS
[0.75 0 0 0.75 0 0] CT
0.149 GC
2 setlinecap
1 LJ
0.667 LW
N
463.6 31 M
463.6 35.34 L
S
GR
GS
[0.75 0 0 0.75 0 0] CT
0.149 GC
2 setlinecap
1 LJ
0.667 LW
N
507 31 M
507 35.34 L
S
GR
GS
[0.75 0 0 0.75 54.75 284.50001] CT
0.149 GC
/Helvetica 13.333 F
GS
[1 0 0 1 0 0] CT
-10 14 moveto 
1 -1 scale
(-25) t 
GR
GR
GS
[0.75 0 0 0.75 87.3 284.50001] CT
0.149 GC
/Helvetica 13.333 F
GS
[1 0 0 1 0 0] CT
-10 14 moveto 
1 -1 scale
(-24) t 
GR
GR
GS
[0.75 0 0 0.75 119.85 284.50001] CT
0.149 GC
/Helvetica 13.333 F
GS
[1 0 0 1 0 0] CT
-10 14 moveto 
1 -1 scale
(-23) t 
GR
GR
GS
[0.75 0 0 0.75 152.4 284.50001] CT
0.149 GC
/Helvetica 13.333 F
GS
[1 0 0 1 0 0] CT
-10 14 moveto 
1 -1 scale
(-22) t 
GR
GR
GS
[0.75 0 0 0.75 184.95 284.50001] CT
0.149 GC
/Helvetica 13.333 F
GS
[1 0 0 1 0 0] CT
-10 14 moveto 
1 -1 scale
(-21) t 
GR
GR
GS
[0.75 0 0 0.75 217.5 284.50001] CT
0.149 GC
/Helvetica 13.333 F
GS
[1 0 0 1 0 0] CT
-10 14 moveto 
1 -1 scale
(-20) t 
GR
GR
GS
[0.75 0 0 0.75 250.05 284.50001] CT
0.149 GC
/Helvetica 13.333 F
GS
[1 0 0 1 0 0] CT
-10 14 moveto 
1 -1 scale
(-19) t 
GR
GR
GS
[0.75 0 0 0.75 282.59999 284.50001] CT
0.149 GC
/Helvetica 13.333 F
GS
[1 0 0 1 0 0] CT
-10 14 moveto 
1 -1 scale
(-18) t 
GR
GR
GS
[0.75 0 0 0.75 315.15001 284.50001] CT
0.149 GC
/Helvetica 13.333 F
GS
[1 0 0 1 0 0] CT
-10 14 moveto 
1 -1 scale
(-17) t 
GR
GR
GS
[0.75 0 0 0.75 347.7 284.50001] CT
0.149 GC
/Helvetica 13.333 F
GS
[1 0 0 1 0 0] CT
-10 14 moveto 
1 -1 scale
(-16) t 
GR
GR
GS
[0.75 0 0 0.75 380.25 284.50001] CT
0.149 GC
/Helvetica 13.333 F
GS
[1 0 0 1 0 0] CT
-10 14 moveto 
1 -1 scale
(-15) t 
GR
GR
GS
[0.75 0 0 0.75 198.75 309.75] CT
0.149 GC
/Helvetica 14.667 F
GS
[1 0 0 1 0 0] CT
0 0 moveto 
1 -1 scale
(Time -) t 
GR
GR
GS
[0.75 0 0 0.75 230.25 309.75] CT
0.149 GC
N
2.344 -0.234 M
2.344 -0.328 2.359 -0.391 QT
3.938 -5.531 L
2.578 -5.531 L
2.031 -5.531 1.555 -5.188 QT
1.078 -4.844 0.766 -4.328 QT
0.734 -4.266 0.672 -4.266 QT
0.5 -4.266 L
0.359 -4.266 0.359 -4.406 QT
0.359 -4.438 0.391 -4.5 QT
0.875 -5.328 1.438 -5.898 QT
2 -6.469 2.703 -6.469 QT
7.297 -6.469 L
7.469 -6.469 7.578 -6.359 QT
7.688 -6.25 7.688 -6.094 QT
7.688 -5.859 7.531 -5.695 QT
7.375 -5.531 7.141 -5.531 QT
4.422 -5.531 L
3.422 -0.359 L
3.359 -0.125 3.203 0.039 QT
3.047 0.203 2.797 0.203 QT
2.594 0.203 2.469 0.078 QT
2.344 -0.047 2.344 -0.234 QT
cp
f
GR
GS
[0.75 0 0 0.75 0 0] CT
0.149 GC
2 setlinecap
1 LJ
0.667 LW
N
73 374 M
73 31 L
S
GR
GS
[0.75 0 0 0.75 0 0] CT
0.149 GC
2 setlinecap
1 LJ
0.667 LW
N
507 374 M
507 31 L
S
GR
GS
[0.75 0 0 0.75 0 0] CT
0.149 GC
2 setlinecap
1 LJ
0.667 LW
N
73 374 M
77.34 374 L
S
GR
GS
[0.75 0 0 0.75 0 0] CT
0.149 GC
2 setlinecap
1 LJ
0.667 LW
N
73 316.833 M
77.34 316.833 L
S
GR
GS
[0.75 0 0 0.75 0 0] CT
0.149 GC
2 setlinecap
1 LJ
0.667 LW
N
73 259.667 M
77.34 259.667 L
S
GR
GS
[0.75 0 0 0.75 0 0] CT
0.149 GC
2 setlinecap
1 LJ
0.667 LW
N
73 202.5 M
77.34 202.5 L
S
GR
GS
[0.75 0 0 0.75 0 0] CT
0.149 GC
2 setlinecap
1 LJ
0.667 LW
N
73 145.333 M
77.34 145.333 L
S
GR
GS
[0.75 0 0 0.75 0 0] CT
0.149 GC
2 setlinecap
1 LJ
0.667 LW
N
73 88.167 M
77.34 88.167 L
S
GR
GS
[0.75 0 0 0.75 0 0] CT
0.149 GC
2 setlinecap
1 LJ
0.667 LW
N
73 31 M
77.34 31 L
S
GR
GS
[0.75 0 0 0.75 0 0] CT
0.149 GC
2 setlinecap
1 LJ
0.667 LW
N
507 374 M
502.66 374 L
S
GR
GS
[0.75 0 0 0.75 0 0] CT
0.149 GC
2 setlinecap
1 LJ
0.667 LW
N
507 316.833 M
502.66 316.833 L
S
GR
GS
[0.75 0 0 0.75 0 0] CT
0.149 GC
2 setlinecap
1 LJ
0.667 LW
N
507 259.667 M
502.66 259.667 L
S
GR
GS
[0.75 0 0 0.75 0 0] CT
0.149 GC
2 setlinecap
1 LJ
0.667 LW
N
507 202.5 M
502.66 202.5 L
S
GR
GS
[0.75 0 0 0.75 0 0] CT
0.149 GC
2 setlinecap
1 LJ
0.667 LW
N
507 145.333 M
502.66 145.333 L
S
GR
GS
[0.75 0 0 0.75 0 0] CT
0.149 GC
2 setlinecap
1 LJ
0.667 LW
N
507 88.167 M
502.66 88.167 L
S
GR
GS
[0.75 0 0 0.75 0 0] CT
0.149 GC
2 setlinecap
1 LJ
0.667 LW
N
507 31 M
502.66 31 L
S
GR
GS
[0.75 0 0 0.75 50.74998 280.5] CT
0.149 GC
/Helvetica 13.333 F
GS
[1 0 0 1 0 0] CT
-27 5.5 moveto 
1 -1 scale
(-500) t 
GR
GR
GS
[0.75 0 0 0.75 50.74998 237.62501] CT
0.149 GC
/Helvetica 13.333 F
GS
[1 0 0 1 0 0] CT
-27 5.5 moveto 
1 -1 scale
(-400) t 
GR
GR
GS
[0.75 0 0 0.75 50.74998 194.74999] CT
0.149 GC
/Helvetica 13.333 F
GS
[1 0 0 1 0 0] CT
-27 5.5 moveto 
1 -1 scale
(-300) t 
GR
GR
GS
[0.75 0 0 0.75 50.74998 151.875] CT
0.149 GC
/Helvetica 13.333 F
GS
[1 0 0 1 0 0] CT
-27 5.5 moveto 
1 -1 scale
(-200) t 
GR
GR
GS
[0.75 0 0 0.75 50.74998 109] CT
0.149 GC
/Helvetica 13.333 F
GS
[1 0 0 1 0 0] CT
-27 5.5 moveto 
1 -1 scale
(-100) t 
GR
GR
GS
[0.75 0 0 0.75 50.74998 66.125] CT
0.149 GC
/Helvetica 13.333 F
GS
[1 0 0 1 0 0] CT
-8 5.5 moveto 
1 -1 scale
(0) t 
GR
GR
GS
[0.75 0 0 0.75 50.74998 23.25] CT
0.149 GC
/Helvetica 13.333 F
GS
[1 0 0 1 0 0] CT
-23 5.5 moveto 
1 -1 scale
(100) t 
GR
GR
GS
[0 -0.75 0.75 0 27.5 151.87487] CT
0.149 GC
/Helvetica 14.667 F
GS
[1 0 0 1 0 0] CT
-140 -4 moveto 
1 -1 scale
(h \(Relative Position of Intruder to Ownship\)) t 
GR
GR
GS
[0.75 0 0 0.75 0 0] CT
0.9 0.498 0.498 RC
N
73 31 M
73 145.333 L
507 145.333 L
507 31 L
cp
f
GR
GS
[0.75 0 0 0.75 0 0] CT
0.8 0 0 RC
2 setlinecap
10.0 ML
0.667 LW
N
73 145.333 M
507 145.333 L
507 31 L
73 31 L
73 145.333 L
73 145.333 L
S
GR
GS
[0.75 0 0 0.75 54.75 123.00839] CT
N
1.333 0 M
1.333 0.736 0.736 1.333 0 1.333 C
-0.736 1.333 -1.333 0.736 -1.333 0 C
-1.333 -0.736 -0.736 -1.333 0 -1.333 C
0.736 -1.333 1.333 -0.736 1.333 0 C
cp
f
GR
GS
[0.75 0 0 0.75 54.75 122.85844] CT
N
/f-1057828618{1.333 0 M
1.333 0.736 0.736 1.333 0 1.333 C
-0.736 1.333 -1.333 0.736 -1.333 0 C
-1.333 -0.736 -0.736 -1.333 0 -1.333 C
0.736 -1.333 1.333 -0.736 1.333 0 C
cp}def
f-1057828618
f
GR
GS
[0.75 0 0 0.75 54.75 122.35079] CT
N
f-1057828618
f
GR
GS
[0.75 0 0 0.75 54.75 121.80446] CT
N
f-1057828618
f
GR
GS
[0.75 0 0 0.75 54.75 121.90035] CT
N
f-1057828618
f
GR
GS
[0.75 0 0 0.75 54.75 121.5652] CT
N
f-1057828618
f
GR
GS
[0.75 0 0 0.75 54.75 122.10951] CT
N
f-1057828618
f
GR
GS
[0.75 0 0 0.75 54.75 123.12738] CT
N
f-1057828618
f
GR
GS
[0.75 0 0 0.75 54.75 122.39162] CT
N
f-1057828618
f
GR
GS
[0.75 0 0 0.75 54.75 122.21364] CT
N
f-1057828618
f
GR
GS
[0.75 0 0 0.75 87.3 113.26298] CT
N
f-1057828618
f
GR
GS
[0.75 0 0 0.75 87.3 116.23071] CT
N
f-1057828618
f
GR
GS
[0.75 0 0 0.75 87.3 112.37226] CT
N
f-1057828618
f
GR
GS
[0.75 0 0 0.75 87.3 113.73288] CT
N
f-1057828618
f
GR
GS
[0.75 0 0 0.75 87.3 114.61022] CT
N
f-1057828618
f
GR
GS
[0.75 0 0 0.75 87.3 114.38226] CT
N
f-1057828618
f
GR
GS
[0.75 0 0 0.75 87.3 114.9989] CT
N
f-1057828618
f
GR
GS
[0.75 0 0 0.75 87.3 113.35198] CT
N
f-1057828618
f
GR
GS
[0.75 0 0 0.75 87.3 115.13056] CT
N
f-1057828618
f
GR
GS
[0.75 0 0 0.75 87.3 113.0169] CT
N
f-1057828618
f
GR
GS
[0.75 0 0 0.75 119.85 107.54424] CT
N
f-1057828618
f
GR
GS
[0.75 0 0 0.75 119.85 113.62965] CT
N
f-1057828618
f
GR
GS
[0.75 0 0 0.75 119.85 106.42042] CT
N
f-1057828618
f
GR
GS
[0.75 0 0 0.75 119.85 109.68799] CT
N
f-1057828618
f
GR
GS
[0.75 0 0 0.75 119.85 111.34677] CT
N
f-1057828618
f
GR
GS
[0.75 0 0 0.75 119.85 111.22599] CT
N
f-1057828618
f
GR
GS
[0.75 0 0 0.75 119.85 111.91497] CT
N
f-1057828618
f
GR
GS
[0.75 0 0 0.75 119.85 107.60326] CT
N
f-1057828618
f
GR
GS
[0.75 0 0 0.75 119.85 111.89619] CT
N
f-1057828618
f
GR
GS
[0.75 0 0 0.75 119.85 107.84682] CT
N
f-1057828618
f
GR
GS
[0.75 0 0 0.75 152.4 105.85218] CT
N
f-1057828618
f
GR
GS
[0.75 0 0 0.75 152.4 115.05527] CT
N
f-1057828618
f
GR
GS
[0.75 0 0 0.75 152.4 104.49526] CT
N
f-1057828618
f
GR
GS
[0.75 0 0 0.75 152.4 109.66977] CT
N
f-1057828618
f
GR
GS
[0.75 0 0 0.75 152.4 112.11] CT
N
f-1057828618
f
GR
GS
[0.75 0 0 0.75 152.4 112.09639] CT
N
f-1057828618
f
GR
GS
[0.75 0 0 0.75 152.4 112.85771] CT
N
f-1057828618
f
GR
GS
[0.75 0 0 0.75 152.4 105.8812] CT
N
f-1057828618
f
GR
GS
[0.75 0 0 0.75 152.4 112.6885] CT
N
f-1057828618
f
GR
GS
[0.75 0 0 0.75 152.4 106.70343] CT
N
f-1057828618
f
GR
GS
[0.75 0 0 0.75 184.95 108.1868] CT
N
f-1057828618
f
GR
GS
[0.75 0 0 0.75 184.95 120.50757] CT
N
f-1057828618
f
GR
GS
[0.75 0 0 0.75 184.95 106.59676] CT
N
f-1057828618
f
GR
GS
[0.75 0 0 0.75 184.95 113.67823] CT
N
f-1057828618
f
GR
GS
[0.75 0 0 0.75 184.95 116.8999] CT
N
f-1057828618
f
GR
GS
[0.75 0 0 0.75 184.95 116.99348] CT
N
f-1057828618
f
GR
GS
[0.75 0 0 0.75 184.95 117.82712] CT
N
f-1057828618
f
GR
GS
[0.75 0 0 0.75 184.95 108.18583] CT
N
f-1057828618
f
GR
GS
[0.75 0 0 0.75 184.95 117.50748] CT
N
f-1057828618
f
GR
GS
[0.75 0 0 0.75 184.95 109.58671] CT
N
f-1057828618
f
GR
GS
[0.75 0 0 0.75 217.5 114.5481] CT
N
f-1057828618
f
GR
GS
[0.75 0 0 0.75 217.5 129.98655] CT
N
f-1057828618
f
GR
GS
[0.75 0 0 0.75 217.5 112.72496] CT
N
f-1057828618
f
GR
GS
[0.75 0 0 0.75 217.5 121.71335] CT
N
f-1057828618
f
GR
GS
[0.75 0 0 0.75 217.5 125.71648] CT
N
f-1057828618
f
GR
GS
[0.75 0 0 0.75 217.5 125.91724] CT
N
f-1057828618
f
GR
GS
[0.75 0 0 0.75 217.5 126.82323] CT
N
f-1057828618
f
GR
GS
[0.75 0 0 0.75 217.5 114.51712] CT
N
f-1057828618
f
GR
GS
[0.75 0 0 0.75 217.5 126.35312] CT
N
f-1057828618
f
GR
GS
[0.75 0 0 0.75 217.5 116.49667] CT
N
f-1057828618
f
GR
GS
[0.75 0 0 0.75 250.05 124.93608] CT
N
f-1057828618
f
GR
GS
[0.75 0 0 0.75 250.05 143.4922] CT
N
f-1057828618
f
GR
GS
[0.75 0 0 0.75 250.05 122.87981] CT
N
f-1057828618
f
GR
GS
[0.75 0 0 0.75 250.05 133.77517] CT
N
f-1057828618
f
GR
GS
[0.75 0 0 0.75 250.05 138.55974] CT
N
f-1057828618
f
GR
GS
[0.75 0 0 0.75 250.05 138.86768] CT
N
f-1057828618
f
GR
GS
[0.75 0 0 0.75 250.05 139.846] CT
N
f-1057828618
f
GR
GS
[0.75 0 0 0.75 250.05 124.8751] CT
N
f-1057828618
f
GR
GS
[0.75 0 0 0.75 250.05 139.22546] CT
N
f-1057828618
f
GR
GS
[0.75 0 0 0.75 250.05 127.4333] CT
N
f-1057828618
f
GR
GS
[0.75 0 0 0.75 282.59999 139.35072] CT
N
f-1057828618
f
GR
GS
[0.75 0 0 0.75 282.59999 161.02454] CT
N
f-1057828618
f
GR
GS
[0.75 0 0 0.75 282.59999 137.06136] CT
N
f-1057828618
f
GR
GS
[0.75 0 0 0.75 282.59999 149.86366] CT
N
f-1057828618
f
GR
GS
[0.75 0 0 0.75 282.59999 155.42968] CT
N
f-1057828618
f
GR
GS
[0.75 0 0 0.75 282.59999 155.8448] CT
N
f-1057828618
f
GR
GS
[0.75 0 0 0.75 282.59999 156.89545] CT
N
f-1057828618
f
GR
GS
[0.75 0 0 0.75 282.59999 139.25977] CT
N
f-1057828618
f
GR
GS
[0.75 0 0 0.75 282.59999 156.12447] CT
N
f-1057828618
f
GR
GS
[0.75 0 0 0.75 282.59999 142.39661] CT
N
f-1057828618
f
GR
GS
[0.75 0 0 0.75 315.15001 157.79205] CT
N
f-1057828618
f
GR
GS
[0.75 0 0 0.75 315.15001 182.58354] CT
N
f-1057828618
f
GR
GS
[0.75 0 0 0.75 315.15001 155.26958] CT
N
f-1057828618
f
GR
GS
[0.75 0 0 0.75 315.15001 169.97883] CT
N
f-1057828618
f
GR
GS
[0.75 0 0 0.75 315.15001 176.3263] CT
N
f-1057828618
f
GR
GS
[0.75 0 0 0.75 315.15001 176.84858] CT
N
f-1057828618
f
GR
GS
[0.75 0 0 0.75 315.15001 177.97157] CT
N
f-1057828618
f
GR
GS
[0.75 0 0 0.75 315.15001 157.67109] CT
N
f-1057828618
f
GR
GS
[0.75 0 0 0.75 315.15001 177.05016] CT
N
f-1057828618
f
GR
GS
[0.75 0 0 0.75 315.15001 161.3866] CT
N
f-1057828618
f
GR
GS
[0.75 0 0 0.75 347.7 180.26004] CT
N
f-1057828618
f
GR
GS
[0.75 0 0 0.75 347.7 208.16922] CT
N
f-1057828618
f
GR
GS
[0.75 0 0 0.75 347.7 177.50447] CT
N
f-1057828618
f
GR
GS
[0.75 0 0 0.75 347.7 194.12066] CT
N
f-1057828618
f
GR
GS
[0.75 0 0 0.75 347.7 201.2496] CT
N
f-1057828618
f
GR
GS
[0.75 0 0 0.75 347.7 201.87904] CT
N
f-1057828618
f
GR
GS
[0.75 0 0 0.75 347.7 203.07438] CT
N
f-1057828618
f
GR
GS
[0.75 0 0 0.75 347.7 180.10911] CT
N
f-1057828618
f
GR
GS
[0.75 0 0 0.75 347.7 202.00253] CT
N
f-1057828618
f
GR
GS
[0.75 0 0 0.75 347.7 184.40326] CT
N
f-1057828618
f
GR
GS
[0.75 0 0 0.75 380.25 206.75473] CT
N
f-1057828618
f
GR
GS
[0.75 0 0 0.75 380.25 237.78159] CT
N
f-1057828618
f
GR
GS
[0.75 0 0 0.75 380.25 203.76606] CT
N
f-1057828618
f
GR
GS
[0.75 0 0 0.75 380.25 222.28919] CT
N
f-1057828618
f
GR
GS
[0.75 0 0 0.75 380.25 230.19955] CT
N
f-1057828618
f
GR
GS
[0.75 0 0 0.75 380.25 230.93619] CT
N
f-1057828618
f
GR
GS
[0.75 0 0 0.75 380.25 232.20387] CT
N
f-1057828618
f
GR
GS
[0.75 0 0 0.75 380.25 206.5738] CT
N
f-1057828618
f
GR
GS
[0.75 0 0 0.75 380.25 230.98155] CT
N
f-1057828618
f
GR
GS
[0.75 0 0 0.75 380.25 211.4466] CT
N
f-1057828618
f
GR
GS
[0.75 0 0 0.75 0 0] CT
1 GC
N
496 78 M
496 42 L
382 42 L
382 78 L
cp
f
GR
GS
[0.75 0 0 0.75 321.75 38.89726] CT
/Helvetica 12 F
GS
[1 0 0 1 0 0] CT
0 5 moveto 
1 -1 scale
(NMAC) t 
GR
GR
GS
[0.75 0 0 0.75 0 0] CT
0.9 0.498 0.498 RC
N
426 57.781 M
426 45.945 L
386 45.945 L
386 57.781 L
cp
f
GR
GS
[0.75 0 0 0.75 0 0] CT
0.8 0 0 RC
10.0 ML
0.667 LW
N
386 57.781 M
386 45.945 L
426 45.945 L
426 57.781 L
cp
S
GR
GS
[0.75 0 0 0.75 321.75 51.10274] CT
/Helvetica 12 F
GS
[1 0 0 1 0 0] CT
0 5 moveto 
1 -1 scale
(Simulations) t 
GR
GR
GS
[0.75 0 0 0.75 304.5 51.10274] CT
N
f-1057828618
f
GR
GS
[0.75 0 0 0.75 0 0] CT
0.149 GC
10.0 ML
0.667 LW
N
382 78 M
382 42 L
496 42 L
496 78 L
cp
S
GR
%%Trailer
%%Pages: 1
%%EOF
