filename;phi_str;algorithm;hill_climbing_by;controlpoints;scalar;partitions_1;partitions_2;T_playout;N_max;falsified_at_all;total_time
mctsbasic_AT2_3_0.2_3_5_40_cmaes_15;alw_[0, 10](RPM[t] < 4750.0);mctsbasic;cmaes;3;0.2;3;5;15;40;10;8.8745026
mctsbasic_AT1_5_0.2_3_5_40_cmaes_15;alw_[0,20] (speed[t] < 120);mctsbasic;cmaes;5;0.2;3;5;15;40;1;896.624559
mctsbasic_AT51_5_0.2_3_5_40_cmaes_15;alw_[0.0, 30.0] ((not(gear[t] == 1.0) and ev_[0.001, 0.1] (gear[t] == 1.0)) => ev_[0.001, 0.1] alw_[0.0, 2.5] (gear[t] == 1.0));mctsbasic;cmaes;5;0.2;3;5;15;40;10;8.0215801
mctsbasic_AT52_5_0.2_3_5_40_cmaes_15;alw_[0.0, 30.0] ((not(gear[t] == 2.0) and ev_[0.001, 0.1] (gear[t] == 2.0)) => ev_[0.001, 0.1] alw_[0.0, 2.5] (gear[t] == 2.0));mctsbasic;cmaes;5;0.2;3;5;15;40;10;1.1625038
mctsbasic_AT53_5_0.2_3_5_40_cmaes_15;alw_[0.0, 30.0] ((not(gear[t] == 3.0) and ev_[0.001, 0.1] (gear[t] == 3.0)) => ev_[0.001, 0.1] alw_[0.0, 2.5] (gear[t] == 3.0));mctsbasic;cmaes;5;0.2;3;5;15;40;10;1.4120596
mctsbasic_AT54_5_0.2_3_5_40_cmaes_15;alw_[0.0, 30.0] ((not(gear[t] == 4.0) and ev_[0.001, 0.1] (gear[t] == 4.0)) => ev_[0.001, 0.1] alw_[0.0, 2.5] (gear[t] == 4.0));mctsbasic;cmaes;5;0.2;3;5;15;40;10;1.4129016
mctsbasic_AT6a_5_0.2_3_5_40_cmaes_15;(alw_[0.0, 30.0] (RPM[t] < 3000.0) => alw_[0.0, 4.0] (speed[t] < 35.0));mctsbasic;cmaes;5;0.2;3;5;15;40;10;48.2110936
mctsbasic_AT6b_5_0.2_3_5_40_cmaes_15;(alw_[0.0, 30.0] (RPM[t] < 3000.0) => alw_[0.0, 8.0] (speed[t] < 50.0));mctsbasic;cmaes;5;0.2;3;5;15;40;10;139.2916077
mctsbasic_AT6c_5_0.2_3_5_40_cmaes_15;(alw_[0.0, 30.0] (RPM[t] < 3000.0) => alw_[0.0, 20.0] (speed[t] < 65.0));mctsbasic;cmaes;5;0.2;3;5;15;40;10;71.319774
mctsbasic_afc27_10_0.2_3_5_80_cmaes_8;alw_[11.0, 50.0] ((((throttle[t] < 8.8) and ev_[0.0, 0.05] (40.0 < throttle[t])) or ((40.0 < throttle[t]) and ev_[0.0, 0.05] (throttle[t] < 8.8))) => alw_[1.0, 5.0] (mu[t] < 0.008 and mu[t]>-0.008));mctsbasic;cmaes;10;0.2;3;5;8;80;10;38.3617015
mctsbasic_afc29_10_0.2_3_5_80_cmaes_8;alw_[11.0, 50.0] (mu[t] < 0.007 and mu[t] > -0.007);mctsbasic;cmaes;10;0.2;3;5;8;80;10;6.1418749
mctsbasic_afc33_10_0.2_3_5_80_cmaes_8;alw_[11.0, 50.0] (mu[t] < 0.007 and mu[t] > -0.007);mctsbasic;cmaes;10;0.2;3;5;8;80;10;5.6965187
mctsbasic_nn1_3_0.2_3_40_cmaes_15;alw_[0, 18]((not (abs(Pos[t] - Ref[t]) <= 0.005+ 0.03*abs(Ref[t])))=> ev_[0, 2] (alw_[0, 1] (abs(Pos[t] - Ref[t]) <= 0.005+ 0.03*abs(Ref[t]))));mctsbasic;cmaes;3;0.2;3;no;15;40;10;43.8345111
