benchmark,model,property,algorithm,seed,simulations,time,robustness,falsified,input,control points,exploration ratio,budget
AFC27,AbstractFuelControl_M1,"□_[11.0, 50.0] ((((throttle < 8.8) && ◇_[0.0, 0.05] (40.0 < throttle)) || ((40.0 < throttle) && ◇_[0.0, 0.05] (throttle < 8.8))) ==> □_[1.0, 5.0] (abs(mu) < 0.008))",adaptive,0,4,36,-0.000101043934894,yes,[0.0 0.0 1100.0; 5.5 45.825 1100.0; 11.0 61.1 1100.0; 16.5 61.1 1100.0; 22.0 45.825 1100.0; 27.5 0.0 1100.0; 33.0 61.1 1100.0; 38.5 61.1 1100.0; 44.0 30.55 1100.0; 49.5 38.1875 1100.0; 55.0 38.1875 1100.0],10 10 10 10 10,0.25,300
AFC27,AbstractFuelControl_M1,"□_[11.0, 50.0] ((((throttle < 8.8) && ◇_[0.0, 0.05] (40.0 < throttle)) || ((40.0 < throttle) && ◇_[0.0, 0.05] (throttle < 8.8))) ==> □_[1.0, 5.0] (abs(mu) < 0.008))",adaptive,-7.24425311912924E+018,2,6,-0.000462398956958,yes,[0.0 30.55 1100.0; 5.5 30.55 1100.0; 11.0 30.55 1100.0; 16.5 61.1 1100.0; 22.0 30.55 1100.0; 27.5 53.4625 1100.0; 33.0 0.0 1100.0; 38.5 19.09375 1100.0; 44.0 15.275 1100.0; 49.5 0.0 1100.0; 55.0 0.0 1100.0],10 10 10 10 10,0.25,300
AFC27,AbstractFuelControl_M1,"□_[11.0, 50.0] ((((throttle < 8.8) && ◇_[0.0, 0.05] (40.0 < throttle)) || ((40.0 < throttle) && ◇_[0.0, 0.05] (throttle < 8.8))) ==> □_[1.0, 5.0] (abs(mu) < 0.008))",adaptive,1.89045799431629E+018,3,8,-0.000612559645129,yes,[0.0 0.0 1100.0; 5.5 15.275 1100.0; 11.0 19.09375 1100.0; 16.5 61.1 1100.0; 22.0 0.0 1100.0; 27.5 15.275 1100.0; 33.0 0.0 1100.0; 38.5 61.1 1100.0; 44.0 15.275 1100.0; 49.5 0.0 1100.0; 55.0 0.0 1100.0],10 10 10 10 10,0.25,300
AFC27,AbstractFuelControl_M1,"□_[11.0, 50.0] ((((throttle < 8.8) && ◇_[0.0, 0.05] (40.0 < throttle)) || ((40.0 < throttle) && ◇_[0.0, 0.05] (throttle < 8.8))) ==> □_[1.0, 5.0] (abs(mu) < 0.008))",adaptive,3.59718092702162E+018,1,2,-0.000477473669621,yes,[0.0 38.1875 1100.0; 5.5 30.55 1100.0; 11.0 45.825 1100.0; 16.5 0.0 1100.0; 22.0 61.1 1100.0; 27.5 49.643750000000004 1100.0; 33.0 30.55 1100.0; 38.5 15.275 1100.0; 44.0 61.1 1100.0; 49.5 45.825 1100.0; 55.0 45.825 1100.0],10 10 10 10 10,0.25,300
AFC27,AbstractFuelControl_M1,"□_[11.0, 50.0] ((((throttle < 8.8) && ◇_[0.0, 0.05] (40.0 < throttle)) || ((40.0 < throttle) && ◇_[0.0, 0.05] (throttle < 8.8))) ==> □_[1.0, 5.0] (abs(mu) < 0.008))",adaptive,-5.3478429715116E+018,1,2,-0.000434108393157,yes,[0.0 61.1 1075.0; 5.5 30.55 1075.0; 11.0 0.0 1075.0; 16.5 30.55 1075.0; 22.0 30.55 1075.0; 27.5 0.0 1075.0; 33.0 61.1 1075.0; 38.5 0.0 1075.0; 44.0 30.55 1075.0; 49.5 30.55 1075.0; 55.0 30.55 1075.0],10 10 10 10 10,0.25,300
AFC27,AbstractFuelControl_M1,"□_[11.0, 50.0] ((((throttle < 8.8) && ◇_[0.0, 0.05] (40.0 < throttle)) || ((40.0 < throttle) && ◇_[0.0, 0.05] (throttle < 8.8))) ==> □_[1.0, 5.0] (abs(mu) < 0.008))",adaptive,-3.08809438244377E+018,2,5,-0.000298193480527,yes,[0.0 0.0 1100.0; 5.5 0.0 1100.0; 11.0 7.6375 1100.0; 16.5 0.0 1100.0; 22.0 45.825 1100.0; 27.5 45.825 1100.0; 33.0 0.0 1100.0; 38.5 30.55 1100.0; 44.0 0.0 1100.0; 49.5 0.0 1100.0; 55.0 0.0 1100.0],10 10 10 10 10,0.25,300
AFC27,AbstractFuelControl_M1,"□_[11.0, 50.0] ((((throttle < 8.8) && ◇_[0.0, 0.05] (40.0 < throttle)) || ((40.0 < throttle) && ◇_[0.0, 0.05] (throttle < 8.8))) ==> □_[1.0, 5.0] (abs(mu) < 0.008))",adaptive,1.90411817648544E+018,6,16,-0.000557958342087,yes,[0.0 30.55 1100.0; 5.5 0.0 1100.0; 11.0 0.0 1100.0; 16.5 30.55 1100.0; 22.0 61.1 1100.0; 27.5 0.0 1100.0; 33.0 30.55 1100.0; 38.5 30.55 1100.0; 44.0 61.1 1100.0; 49.5 61.1 1100.0; 55.0 61.1 1100.0],10 10 10 10 10,0.25,300
AFC27,AbstractFuelControl_M1,"□_[11.0, 50.0] ((((throttle < 8.8) && ◇_[0.0, 0.05] (40.0 < throttle)) || ((40.0 < throttle) && ◇_[0.0, 0.05] (throttle < 8.8))) ==> □_[1.0, 5.0] (abs(mu) < 0.008))",adaptive,1.81444770688179E+018,1,2,-0.000599028525092,yes,[0.0 30.55 1100.0; 5.5 30.55 1100.0; 11.0 30.55 1100.0; 16.5 30.55 1100.0; 22.0 30.55 1100.0; 27.5 30.55 1100.0; 33.0 30.55 1100.0; 38.5 61.1 1100.0; 44.0 0.0 1100.0; 49.5 30.55 1100.0; 55.0 30.55 1100.0],10 10 10 10 10,0.25,300
AFC27,AbstractFuelControl_M1,"□_[11.0, 50.0] ((((throttle < 8.8) && ◇_[0.0, 0.05] (40.0 < throttle)) || ((40.0 < throttle) && ◇_[0.0, 0.05] (throttle < 8.8))) ==> □_[1.0, 5.0] (abs(mu) < 0.008))",adaptive,4.58766241053201E+018,3,8,-0.000595675769158,yes,[0.0 0.0 1100.0; 5.5 61.1 1100.0; 11.0 0.0 1100.0; 16.5 30.55 1100.0; 22.0 30.55 1100.0; 27.5 61.1 1100.0; 33.0 61.1 1100.0; 38.5 61.1 1100.0; 44.0 0.0 1100.0; 49.5 53.4625 1100.0; 55.0 53.4625 1100.0],10 10 10 10 10,0.25,300
AFC27,AbstractFuelControl_M1,"□_[11.0, 50.0] ((((throttle < 8.8) && ◇_[0.0, 0.05] (40.0 < throttle)) || ((40.0 < throttle) && ◇_[0.0, 0.05] (throttle < 8.8))) ==> □_[1.0, 5.0] (abs(mu) < 0.008))",adaptive,8.24238319818588E+018,10,26,-0.000606376214385,yes,[0.0 0.0 1100.0; 5.5 0.0 1100.0; 11.0 61.1 1100.0; 16.5 0.0 1100.0; 22.0 30.55 1100.0; 27.5 30.55 1100.0; 33.0 0.0 1100.0; 38.5 53.4625 1100.0; 44.0 57.28125 1100.0; 49.5 30.55 1100.0; 55.0 30.55 1100.0],10 10 10 10 10,0.25,300
AFC27,AbstractFuelControl_M1,"□_[11.0, 50.0] ((((throttle < 8.8) && ◇_[0.0, 0.05] (40.0 < throttle)) || ((40.0 < throttle) && ◇_[0.0, 0.05] (throttle < 8.8))) ==> □_[1.0, 5.0] (abs(mu) < 0.008))",adaptive,5.29270916671063E+018,2,5,-0.000330148143429,yes,[0.0 0.0 1100.0; 5.5 30.55 1100.0; 11.0 30.55 1100.0; 16.5 30.55 1100.0; 22.0 30.55 1100.0; 27.5 30.55 1100.0; 33.0 0.0 1100.0; 38.5 45.825 1100.0; 44.0 0.0 1100.0; 49.5 30.55 1100.0; 55.0 30.55 1100.0],10 10 10 10 10,0.25,300
AFC27,AbstractFuelControl_M1,"□_[11.0, 50.0] ((((throttle < 8.8) && ◇_[0.0, 0.05] (40.0 < throttle)) || ((40.0 < throttle) && ◇_[0.0, 0.05] (throttle < 8.8))) ==> □_[1.0, 5.0] (abs(mu) < 0.008))",adaptive,1.02462991737715E+018,1,2,-0.000601234058142,yes,[0.0 61.1 1100.0; 5.5 0.0 1100.0; 11.0 61.1 1100.0; 16.5 0.0 1100.0; 22.0 7.6375 1100.0; 27.5 30.55 1100.0; 33.0 0.0 1100.0; 38.5 30.55 1100.0; 44.0 30.55 1100.0; 49.5 30.55 1100.0; 55.0 30.55 1100.0],10 10 10 10 10,0.25,300
AFC27,AbstractFuelControl_M1,"□_[11.0, 50.0] ((((throttle < 8.8) && ◇_[0.0, 0.05] (40.0 < throttle)) || ((40.0 < throttle) && ◇_[0.0, 0.05] (throttle < 8.8))) ==> □_[1.0, 5.0] (abs(mu) < 0.008))",adaptive,7.94501896215366E+018,2,5,-0.000606189822121,yes,[0.0 61.1 1100.0; 5.5 30.55 1100.0; 11.0 19.09375 1100.0; 16.5 61.1 1100.0; 22.0 0.0 1100.0; 27.5 30.55 1100.0; 33.0 0.0 1100.0; 38.5 38.1875 1100.0; 44.0 0.0 1100.0; 49.5 0.0 1100.0; 55.0 0.0 1100.0],10 10 10 10 10,0.25,300
AFC27,AbstractFuelControl_M1,"□_[11.0, 50.0] ((((throttle < 8.8) && ◇_[0.0, 0.05] (40.0 < throttle)) || ((40.0 < throttle) && ◇_[0.0, 0.05] (throttle < 8.8))) ==> □_[1.0, 5.0] (abs(mu) < 0.008))",adaptive,-1.56750221751642E+018,1,2,-0.000611720678862,yes,[0.0 0.0 1100.0; 5.5 15.275 1100.0; 11.0 0.0 1100.0; 16.5 30.55 1100.0; 22.0 61.1 1100.0; 27.5 30.55 1100.0; 33.0 0.0 1100.0; 38.5 61.1 1100.0; 44.0 0.0 1100.0; 49.5 53.4625 1100.0; 55.0 53.4625 1100.0],10 10 10 10 10,0.25,300
AFC27,AbstractFuelControl_M1,"□_[11.0, 50.0] ((((throttle < 8.8) && ◇_[0.0, 0.05] (40.0 < throttle)) || ((40.0 < throttle) && ◇_[0.0, 0.05] (throttle < 8.8))) ==> □_[1.0, 5.0] (abs(mu) < 0.008))",adaptive,-1.0807391255147E+018,5,14,-0.000566667354184,yes,[0.0 0.0 1100.0; 5.5 7.6375 1100.0; 11.0 61.1 1100.0; 16.5 30.55 1100.0; 22.0 53.4625 1100.0; 27.5 0.0 1100.0; 33.0 61.1 1100.0; 38.5 30.55 1100.0; 44.0 61.1 1100.0; 49.5 0.0 1100.0; 55.0 0.0 1100.0],10 10 10 10 10,0.25,300
AFC27,AbstractFuelControl_M1,"□_[11.0, 50.0] ((((throttle < 8.8) && ◇_[0.0, 0.05] (40.0 < throttle)) || ((40.0 < throttle) && ◇_[0.0, 0.05] (throttle < 8.8))) ==> □_[1.0, 5.0] (abs(mu) < 0.008))",adaptive,-2.9234730679561E+018,4,11,-0.000599059540799,yes,[0.0 61.1 1100.0; 5.5 61.1 1100.0; 11.0 61.1 1100.0; 16.5 30.55 1100.0; 22.0 61.1 1100.0; 27.5 0.0 1100.0; 33.0 61.1 1100.0; 38.5 45.825 1100.0; 44.0 0.0 1100.0; 49.5 0.0 1100.0; 55.0 0.0 1100.0],10 10 10 10 10,0.25,300
AFC27,AbstractFuelControl_M1,"□_[11.0, 50.0] ((((throttle < 8.8) && ◇_[0.0, 0.05] (40.0 < throttle)) || ((40.0 < throttle) && ◇_[0.0, 0.05] (throttle < 8.8))) ==> □_[1.0, 5.0] (abs(mu) < 0.008))",adaptive,1.83460297299506E+018,2,5,-0.0005676979668,yes,[0.0 30.55 1100.0; 5.5 61.1 1100.0; 11.0 30.55 1100.0; 16.5 30.55 1100.0; 22.0 0.0 1100.0; 27.5 0.0 1100.0; 33.0 0.0 1100.0; 38.5 0.0 1100.0; 44.0 61.1 1100.0; 49.5 0.0 1100.0; 55.0 0.0 1100.0],10 10 10 10 10,0.25,300
AFC27,AbstractFuelControl_M1,"□_[11.0, 50.0] ((((throttle < 8.8) && ◇_[0.0, 0.05] (40.0 < throttle)) || ((40.0 < throttle) && ◇_[0.0, 0.05] (throttle < 8.8))) ==> □_[1.0, 5.0] (abs(mu) < 0.008))",adaptive,-7.10685944913628E+018,6,15,-0.000584830390993,yes,[0.0 45.825 1100.0; 5.5 38.1875 1100.0; 11.0 61.1 1100.0; 16.5 0.0 1100.0; 22.0 61.1 1100.0; 27.5 53.4625 1100.0; 33.0 0.0 1100.0; 38.5 30.55 1100.0; 44.0 61.1 1100.0; 49.5 30.55 1100.0; 55.0 30.55 1100.0],10 10 10 10 10,0.25,300
AFC27,AbstractFuelControl_M1,"□_[11.0, 50.0] ((((throttle < 8.8) && ◇_[0.0, 0.05] (40.0 < throttle)) || ((40.0 < throttle) && ◇_[0.0, 0.05] (throttle < 8.8))) ==> □_[1.0, 5.0] (abs(mu) < 0.008))",adaptive,-8.41949277277362E+018,2,5,-0.000605731067254,yes,[0.0 38.1875 1100.0; 5.5 0.0 1100.0; 11.0 61.1 1100.0; 16.5 0.0 1100.0; 22.0 15.275 1100.0; 27.5 30.55 1100.0; 33.0 22.9125 1100.0; 38.5 30.55 1100.0; 44.0 0.0 1100.0; 49.5 0.0 1100.0; 55.0 0.0 1100.0],10 10 10 10 10,0.25,300
AFC27,AbstractFuelControl_M1,"□_[11.0, 50.0] ((((throttle < 8.8) && ◇_[0.0, 0.05] (40.0 < throttle)) || ((40.0 < throttle) && ◇_[0.0, 0.05] (throttle < 8.8))) ==> □_[1.0, 5.0] (abs(mu) < 0.008))",adaptive,8.80731419975184E+018,3,8,-0.000573560429922,yes,[0.0 0.0 1100.0; 5.5 61.1 1100.0; 11.0 0.0 1100.0; 16.5 30.55 1100.0; 22.0 61.1 1100.0; 27.5 57.28125 1100.0; 33.0 0.0 1100.0; 38.5 7.6375 1100.0; 44.0 0.0 1100.0; 49.5 45.825 1100.0; 55.0 45.825 1100.0],10 10 10 10 10,0.25,300
AFC27,AbstractFuelControl_M1,"□_[11.0, 50.0] ((((throttle < 8.8) && ◇_[0.0, 0.05] (40.0 < throttle)) || ((40.0 < throttle) && ◇_[0.0, 0.05] (throttle < 8.8))) ==> □_[1.0, 5.0] (abs(mu) < 0.008))",adaptive,5.28264367539633E+018,2,5,-0.000603194568484,yes,[0.0 30.55 1100.0; 5.5 0.0 1100.0; 11.0 7.6375 1100.0; 16.5 45.825 1100.0; 22.0 7.6375 1100.0; 27.5 30.55 1100.0; 33.0 30.55 1100.0; 38.5 61.1 1100.0; 44.0 0.0 1100.0; 49.5 0.0 1100.0; 55.0 0.0 1100.0],10 10 10 10 10,0.25,300
AFC27,AbstractFuelControl_M1,"□_[11.0, 50.0] ((((throttle < 8.8) && ◇_[0.0, 0.05] (40.0 < throttle)) || ((40.0 < throttle) && ◇_[0.0, 0.05] (throttle < 8.8))) ==> □_[1.0, 5.0] (abs(mu) < 0.008))",adaptive,7.08951351860957E+018,2,5,-1.95104292533069E-05,yes,[0.0 0.0 1025.0; 5.5 0.0 1025.0; 11.0 0.0 1025.0; 16.5 30.55 1025.0; 22.0 61.1 1025.0; 27.5 61.1 1025.0; 33.0 0.0 1025.0; 38.5 42.00625 1025.0; 44.0 45.825 1025.0; 49.5 38.1875 1025.0; 55.0 38.1875 1025.0],10 10 10 10 10,0.25,300
AFC27,AbstractFuelControl_M1,"□_[11.0, 50.0] ((((throttle < 8.8) && ◇_[0.0, 0.05] (40.0 < throttle)) || ((40.0 < throttle) && ◇_[0.0, 0.05] (throttle < 8.8))) ==> □_[1.0, 5.0] (abs(mu) < 0.008))",adaptive,3.44474076346321E+018,2,5,-0.000193896369702,yes,[0.0 7.6375 1100.0; 5.5 61.1 1100.0; 11.0 61.1 1100.0; 16.5 61.1 1100.0; 22.0 45.825 1100.0; 27.5 0.0 1100.0; 33.0 0.0 1100.0; 38.5 30.55 1100.0; 44.0 30.55 1100.0; 49.5 61.1 1100.0; 55.0 61.1 1100.0],10 10 10 10 10,0.25,300
AFC27,AbstractFuelControl_M1,"□_[11.0, 50.0] ((((throttle < 8.8) && ◇_[0.0, 0.05] (40.0 < throttle)) || ((40.0 < throttle) && ◇_[0.0, 0.05] (throttle < 8.8))) ==> □_[1.0, 5.0] (abs(mu) < 0.008))",adaptive,-7.48294405833302E+018,3,8,-0.000200711902649,yes,[0.0 61.1 1050.0; 5.5 11.45625 1050.0; 11.0 61.1 1050.0; 16.5 61.1 1050.0; 22.0 0.0 1050.0; 27.5 30.55 1050.0; 33.0 61.1 1050.0; 38.5 61.1 1050.0; 44.0 22.9125 1050.0; 49.5 0.0 1050.0; 55.0 0.0 1050.0],10 10 10 10 10,0.25,300
AFC27,AbstractFuelControl_M1,"□_[11.0, 50.0] ((((throttle < 8.8) && ◇_[0.0, 0.05] (40.0 < throttle)) || ((40.0 < throttle) && ◇_[0.0, 0.05] (throttle < 8.8))) ==> □_[1.0, 5.0] (abs(mu) < 0.008))",adaptive,4.38064840893457E+018,1,2,-0.000606047360844,yes,[0.0 61.1 1100.0; 5.5 30.55 1100.0; 11.0 61.1 1100.0; 16.5 0.0 1100.0; 22.0 0.0 1100.0; 27.5 30.55 1100.0; 33.0 30.55 1100.0; 38.5 61.1 1100.0; 44.0 61.1 1100.0; 49.5 15.275 1100.0; 55.0 15.275 1100.0],10 10 10 10 10,0.25,300
AFC27,AbstractFuelControl_M1,"□_[11.0, 50.0] ((((throttle < 8.8) && ◇_[0.0, 0.05] (40.0 < throttle)) || ((40.0 < throttle) && ◇_[0.0, 0.05] (throttle < 8.8))) ==> □_[1.0, 5.0] (abs(mu) < 0.008))",adaptive,-7.32695839299313E+017,9,23,-0.000444831585805,yes,[0.0 0.0 1100.0; 5.5 61.1 1100.0; 11.0 0.0 1100.0; 16.5 30.55 1100.0; 22.0 61.1 1100.0; 27.5 0.0 1100.0; 33.0 38.1875 1100.0; 38.5 53.4625 1100.0; 44.0 0.0 1100.0; 49.5 61.1 1100.0; 55.0 61.1 1100.0],10 10 10 10 10,0.25,300
AFC27,AbstractFuelControl_M1,"□_[11.0, 50.0] ((((throttle < 8.8) && ◇_[0.0, 0.05] (40.0 < throttle)) || ((40.0 < throttle) && ◇_[0.0, 0.05] (throttle < 8.8))) ==> □_[1.0, 5.0] (abs(mu) < 0.008))",adaptive,1.03915751981393E+018,2,5,-0.000605701020509,yes,[0.0 61.1 1100.0; 5.5 30.55 1100.0; 11.0 61.1 1100.0; 16.5 0.0 1100.0; 22.0 30.55 1100.0; 27.5 61.1 1100.0; 33.0 0.0 1100.0; 38.5 30.55 1100.0; 44.0 0.0 1100.0; 49.5 0.0 1100.0; 55.0 0.0 1100.0],10 10 10 10 10,0.25,300
AFC27,AbstractFuelControl_M1,"□_[11.0, 50.0] ((((throttle < 8.8) && ◇_[0.0, 0.05] (40.0 < throttle)) || ((40.0 < throttle) && ◇_[0.0, 0.05] (throttle < 8.8))) ==> □_[1.0, 5.0] (abs(mu) < 0.008))",adaptive,-5.10695726743223E+018,6,15,-0.000600122471816,yes,[0.0 30.55 1100.0; 5.5 61.1 1100.0; 11.0 0.0 1100.0; 16.5 7.6375 1100.0; 22.0 15.275 1100.0; 27.5 30.55 1100.0; 33.0 30.55 1100.0; 38.5 61.1 1100.0; 44.0 0.0 1100.0; 49.5 30.55 1100.0; 55.0 30.55 1100.0],10 10 10 10 10,0.25,300
AFC27,AbstractFuelControl_M1,"□_[11.0, 50.0] ((((throttle < 8.8) && ◇_[0.0, 0.05] (40.0 < throttle)) || ((40.0 < throttle) && ◇_[0.0, 0.05] (throttle < 8.8))) ==> □_[1.0, 5.0] (abs(mu) < 0.008))",adaptive,5.41540153723962E+018,4,10,-0.000294637907187,yes,[0.0 0.0 1100.0; 5.5 30.55 1100.0; 11.0 30.55 1100.0; 16.5 45.825 1100.0; 22.0 0.0 1100.0; 27.5 0.0 1100.0; 33.0 0.0 1100.0; 38.5 30.55 1100.0; 44.0 0.0 1100.0; 49.5 45.825 1100.0; 55.0 45.825 1100.0],10 10 10 10 10,0.25,300
AFC27,AbstractFuelControl_M1,"□_[11.0, 50.0] ((((throttle < 8.8) && ◇_[0.0, 0.05] (40.0 < throttle)) || ((40.0 < throttle) && ◇_[0.0, 0.05] (throttle < 8.8))) ==> □_[1.0, 5.0] (abs(mu) < 0.008))",adaptive,-7.53337707382385E+018,5,13,-0.000584991591784,yes,[0.0 30.55 1100.0; 5.5 38.1875 1100.0; 11.0 0.0 1100.0; 16.5 30.55 1100.0; 22.0 61.1 1100.0; 27.5 0.0 1100.0; 33.0 0.0 1100.0; 38.5 22.9125 1100.0; 44.0 0.0 1100.0; 49.5 0.0 1100.0; 55.0 0.0 1100.0],10 10 10 10 10,0.25,300
AFC27,AbstractFuelControl_M1,"□_[11.0, 50.0] ((((throttle < 8.8) && ◇_[0.0, 0.05] (40.0 < throttle)) || ((40.0 < throttle) && ◇_[0.0, 0.05] (throttle < 8.8))) ==> □_[1.0, 5.0] (abs(mu) < 0.008))",adaptive,-2.91342143970513E+018,4,10,-0.000403463325489,yes,[0.0 0.0 1075.0; 5.5 45.825 1075.0; 11.0 61.1 1075.0; 16.5 0.0 1075.0; 22.0 30.55 1075.0; 27.5 30.55 1075.0; 33.0 0.0 1075.0; 38.5 0.0 1075.0; 44.0 61.1 1075.0; 49.5 0.0 1075.0; 55.0 0.0 1075.0],10 10 10 10 10,0.25,300
AFC27,AbstractFuelControl_M1,"□_[11.0, 50.0] ((((throttle < 8.8) && ◇_[0.0, 0.05] (40.0 < throttle)) || ((40.0 < throttle) && ◇_[0.0, 0.05] (throttle < 8.8))) ==> □_[1.0, 5.0] (abs(mu) < 0.008))",adaptive,-1.58984322505727E+018,10,26,-0.000606047360844,yes,[0.0 61.1 1100.0; 5.5 30.55 1100.0; 11.0 61.1 1100.0; 16.5 0.0 1100.0; 22.0 0.0 1100.0; 27.5 61.1 1100.0; 33.0 30.55 1100.0; 38.5 15.275 1100.0; 44.0 45.825 1100.0; 49.5 30.55 1100.0; 55.0 30.55 1100.0],10 10 10 10 10,0.25,300
AFC27,AbstractFuelControl_M1,"□_[11.0, 50.0] ((((throttle < 8.8) && ◇_[0.0, 0.05] (40.0 < throttle)) || ((40.0 < throttle) && ◇_[0.0, 0.05] (throttle < 8.8))) ==> □_[1.0, 5.0] (abs(mu) < 0.008))",adaptive,-3.89321589160995E+018,1,2,-0.000601316917686,yes,[0.0 0.0 1100.0; 5.5 61.1 1100.0; 11.0 30.55 1100.0; 16.5 45.825 1100.0; 22.0 61.1 1100.0; 27.5 15.275 1100.0; 33.0 61.1 1100.0; 38.5 0.0 1100.0; 44.0 61.1 1100.0; 49.5 30.55 1100.0; 55.0 30.55 1100.0],10 10 10 10 10,0.25,300
AFC27,AbstractFuelControl_M1,"□_[11.0, 50.0] ((((throttle < 8.8) && ◇_[0.0, 0.05] (40.0 < throttle)) || ((40.0 < throttle) && ◇_[0.0, 0.05] (throttle < 8.8))) ==> □_[1.0, 5.0] (abs(mu) < 0.008))",adaptive,-2.57908410204372E+018,1,2,-0.000602459082576,yes,[0.0 61.1 1100.0; 5.5 30.55 1100.0; 11.0 30.55 1100.0; 16.5 0.0 1100.0; 22.0 0.0 1100.0; 27.5 0.0 1100.0; 33.0 61.1 1100.0; 38.5 61.1 1100.0; 44.0 0.0 1100.0; 49.5 30.55 1100.0; 55.0 30.55 1100.0],10 10 10 10 10,0.25,300
AFC27,AbstractFuelControl_M1,"□_[11.0, 50.0] ((((throttle < 8.8) && ◇_[0.0, 0.05] (40.0 < throttle)) || ((40.0 < throttle) && ◇_[0.0, 0.05] (throttle < 8.8))) ==> □_[1.0, 5.0] (abs(mu) < 0.008))",adaptive,3.50294757131522E+018,1,2,-0.000265101179526,yes,[0.0 61.1 1100.0; 5.5 30.55 1100.0; 11.0 0.0 1100.0; 16.5 0.0 1100.0; 22.0 61.1 1100.0; 27.5 45.825 1100.0; 33.0 0.0 1100.0; 38.5 38.1875 1100.0; 44.0 30.55 1100.0; 49.5 38.1875 1100.0; 55.0 38.1875 1100.0],10 10 10 10 10,0.25,300
AFC27,AbstractFuelControl_M1,"□_[11.0, 50.0] ((((throttle < 8.8) && ◇_[0.0, 0.05] (40.0 < throttle)) || ((40.0 < throttle) && ◇_[0.0, 0.05] (throttle < 8.8))) ==> □_[1.0, 5.0] (abs(mu) < 0.008))",adaptive,-3.13514030557284E+018,1,2,-0.000477061193021,yes,[0.0 61.1 1100.0; 5.5 30.55 1100.0; 11.0 61.1 1100.0; 16.5 61.1 1100.0; 22.0 61.1 1100.0; 27.5 30.55 1100.0; 33.0 15.275 1100.0; 38.5 30.55 1100.0; 44.0 45.825 1100.0; 49.5 0.0 1100.0; 55.0 0.0 1100.0],10 10 10 10 10,0.25,300
AFC27,AbstractFuelControl_M1,"□_[11.0, 50.0] ((((throttle < 8.8) && ◇_[0.0, 0.05] (40.0 < throttle)) || ((40.0 < throttle) && ◇_[0.0, 0.05] (throttle < 8.8))) ==> □_[1.0, 5.0] (abs(mu) < 0.008))",adaptive,-8.62467803864983E+018,7,19,-0.000345434581229,yes,[0.0 61.1 1100.0; 5.5 30.55 1100.0; 11.0 0.0 1100.0; 16.5 45.825 1100.0; 22.0 0.0 1100.0; 27.5 30.55 1100.0; 33.0 38.1875 1100.0; 38.5 30.55 1100.0; 44.0 45.825 1100.0; 49.5 30.55 1100.0; 55.0 30.55 1100.0],10 10 10 10 10,0.25,300
AFC27,AbstractFuelControl_M1,"□_[11.0, 50.0] ((((throttle < 8.8) && ◇_[0.0, 0.05] (40.0 < throttle)) || ((40.0 < throttle) && ◇_[0.0, 0.05] (throttle < 8.8))) ==> □_[1.0, 5.0] (abs(mu) < 0.008))",adaptive,-1.58177464052938E+018,2,5,-0.000606051208583,yes,[0.0 61.1 1100.0; 5.5 30.55 1100.0; 11.0 30.55 1100.0; 16.5 61.1 1100.0; 22.0 61.1 1100.0; 27.5 0.0 1100.0; 33.0 61.1 1100.0; 38.5 61.1 1100.0; 44.0 30.55 1100.0; 49.5 61.1 1100.0; 55.0 61.1 1100.0],10 10 10 10 10,0.25,300
AFC27,AbstractFuelControl_M1,"□_[11.0, 50.0] ((((throttle < 8.8) && ◇_[0.0, 0.05] (40.0 < throttle)) || ((40.0 < throttle) && ◇_[0.0, 0.05] (throttle < 8.8))) ==> □_[1.0, 5.0] (abs(mu) < 0.008))",adaptive,-4.77819578037745E+018,26,72,-0.000326025931581,yes,[0.0 0.0 1100.0; 5.5 45.825 1100.0; 11.0 15.275 1100.0; 16.5 30.55 1100.0; 22.0 45.825 1100.0; 27.5 0.0 1100.0; 33.0 0.0 1100.0; 38.5 30.55 1100.0; 44.0 30.55 1100.0; 49.5 61.1 1100.0; 55.0 61.1 1100.0],10 10 10 10 10,0.25,300
AFC27,AbstractFuelControl_M1,"□_[11.0, 50.0] ((((throttle < 8.8) && ◇_[0.0, 0.05] (40.0 < throttle)) || ((40.0 < throttle) && ◇_[0.0, 0.05] (throttle < 8.8))) ==> □_[1.0, 5.0] (abs(mu) < 0.008))",adaptive,8.68622457184377E+018,3,8,-0.000594544215086,yes,[0.0 0.0 1100.0; 5.5 30.55 1100.0; 11.0 61.1 1100.0; 16.5 61.1 1100.0; 22.0 45.825 1100.0; 27.5 30.55 1100.0; 33.0 61.1 1100.0; 38.5 0.0 1100.0; 44.0 30.55 1100.0; 49.5 61.1 1100.0; 55.0 61.1 1100.0],10 10 10 10 10,0.25,300
AFC27,AbstractFuelControl_M1,"□_[11.0, 50.0] ((((throttle < 8.8) && ◇_[0.0, 0.05] (40.0 < throttle)) || ((40.0 < throttle) && ◇_[0.0, 0.05] (throttle < 8.8))) ==> □_[1.0, 5.0] (abs(mu) < 0.008))",adaptive,8.01040113529725E+018,1,2,-0.000599583967984,yes,[0.0 61.1 1100.0; 5.5 45.825 1100.0; 11.0 45.825 1100.0; 16.5 61.1 1100.0; 22.0 61.1 1100.0; 27.5 0.0 1100.0; 33.0 61.1 1100.0; 38.5 61.1 1100.0; 44.0 61.1 1100.0; 49.5 0.0 1100.0; 55.0 0.0 1100.0],10 10 10 10 10,0.25,300
AFC27,AbstractFuelControl_M1,"□_[11.0, 50.0] ((((throttle < 8.8) && ◇_[0.0, 0.05] (40.0 < throttle)) || ((40.0 < throttle) && ◇_[0.0, 0.05] (throttle < 8.8))) ==> □_[1.0, 5.0] (abs(mu) < 0.008))",adaptive,-5.2118628515975E+018,3,8,-0.000600257952179,yes,[0.0 0.0 1100.0; 5.5 30.55 1100.0; 11.0 45.825 1100.0; 16.5 61.1 1100.0; 22.0 30.55 1100.0; 27.5 61.1 1100.0; 33.0 0.0 1100.0; 38.5 30.55 1100.0; 44.0 30.55 1100.0; 49.5 45.825 1100.0; 55.0 45.825 1100.0],10 10 10 10 10,0.25,300
AFC27,AbstractFuelControl_M1,"□_[11.0, 50.0] ((((throttle < 8.8) && ◇_[0.0, 0.05] (40.0 < throttle)) || ((40.0 < throttle) && ◇_[0.0, 0.05] (throttle < 8.8))) ==> □_[1.0, 5.0] (abs(mu) < 0.008))",adaptive,-7.69490277294479E+018,4,12,-0.000603601117634,yes,[0.0 61.1 1100.0; 5.5 0.0 1100.0; 11.0 45.825 1100.0; 16.5 61.1 1100.0; 22.0 0.0 1100.0; 27.5 61.1 1100.0; 33.0 30.55 1100.0; 38.5 30.55 1100.0; 44.0 0.0 1100.0; 49.5 30.55 1100.0; 55.0 30.55 1100.0],10 10 10 10 10,0.25,300
AFC27,AbstractFuelControl_M1,"□_[11.0, 50.0] ((((throttle < 8.8) && ◇_[0.0, 0.05] (40.0 < throttle)) || ((40.0 < throttle) && ◇_[0.0, 0.05] (throttle < 8.8))) ==> □_[1.0, 5.0] (abs(mu) < 0.008))",adaptive,-2.20619085159767E+018,4,13,-0.000601119154562,yes,[0.0 61.1 1100.0; 5.5 30.55 1100.0; 11.0 61.1 1100.0; 16.5 22.9125 1100.0; 22.0 30.55 1100.0; 27.5 38.1875 1100.0; 33.0 61.1 1100.0; 38.5 0.0 1100.0; 44.0 61.1 1100.0; 49.5 30.55 1100.0; 55.0 30.55 1100.0],10 10 10 10 10,0.25,300
AFC27,AbstractFuelControl_M1,"□_[11.0, 50.0] ((((throttle < 8.8) && ◇_[0.0, 0.05] (40.0 < throttle)) || ((40.0 < throttle) && ◇_[0.0, 0.05] (throttle < 8.8))) ==> □_[1.0, 5.0] (abs(mu) < 0.008))",adaptive,5.55744785560096E+018,1,3,-0.000562213421114,yes,[0.0 61.1 1100.0; 5.5 61.1 1100.0; 11.0 30.55 1100.0; 16.5 61.1 1100.0; 22.0 30.55 1100.0; 27.5 0.0 1100.0; 33.0 61.1 1100.0; 38.5 0.0 1100.0; 44.0 30.55 1100.0; 49.5 0.0 1100.0; 55.0 0.0 1100.0],10 10 10 10 10,0.25,300
AFC27,AbstractFuelControl_M1,"□_[11.0, 50.0] ((((throttle < 8.8) && ◇_[0.0, 0.05] (40.0 < throttle)) || ((40.0 < throttle) && ◇_[0.0, 0.05] (throttle < 8.8))) ==> □_[1.0, 5.0] (abs(mu) < 0.008))",adaptive,7.99902815873605E+018,6,19,-0.000576202708683,yes,[0.0 15.275 1100.0; 5.5 38.1875 1100.0; 11.0 15.275 1100.0; 16.5 30.55 1100.0; 22.0 26.73125 1100.0; 27.5 61.1 1100.0; 33.0 0.0 1100.0; 38.5 30.55 1100.0; 44.0 30.55 1100.0; 49.5 61.1 1100.0; 55.0 61.1 1100.0],10 10 10 10 10,0.25,300
AFC27,AbstractFuelControl_M1,"□_[11.0, 50.0] ((((throttle < 8.8) && ◇_[0.0, 0.05] (40.0 < throttle)) || ((40.0 < throttle) && ◇_[0.0, 0.05] (throttle < 8.8))) ==> □_[1.0, 5.0] (abs(mu) < 0.008))",adaptive,5.56839869765281E+018,4,13,-0.000597447835011,yes,[0.0 45.825 1100.0; 5.5 61.1 1100.0; 11.0 30.55 1100.0; 16.5 61.1 1100.0; 22.0 30.55 1100.0; 27.5 61.1 1100.0; 33.0 0.0 1100.0; 38.5 61.1 1100.0; 44.0 15.275 1100.0; 49.5 61.1 1100.0; 55.0 61.1 1100.0],10 10 10 10 10,0.25,300
AFC27,AbstractFuelControl_M1,"□_[11.0, 50.0] ((((throttle < 8.8) && ◇_[0.0, 0.05] (40.0 < throttle)) || ((40.0 < throttle) && ◇_[0.0, 0.05] (throttle < 8.8))) ==> □_[1.0, 5.0] (abs(mu) < 0.008))",adaptive,8.39583918173366E+018,1,3,-0.00060330023765,yes,[0.0 30.55 1100.0; 5.5 0.0 1100.0; 11.0 30.55 1100.0; 16.5 45.825 1100.0; 22.0 30.55 1100.0; 27.5 45.825 1100.0; 33.0 30.55 1100.0; 38.5 61.1 1100.0; 44.0 0.0 1100.0; 49.5 61.1 1100.0; 55.0 61.1 1100.0],10 10 10 10 10,0.25,300
AFC27,AbstractFuelControl_M1,"□_[11.0, 50.0] ((((throttle < 8.8) && ◇_[0.0, 0.05] (40.0 < throttle)) || ((40.0 < throttle) && ◇_[0.0, 0.05] (throttle < 8.8))) ==> □_[1.0, 5.0] (abs(mu) < 0.008))",adaptive,-4.55488202794234E+017,2,6,-0.000601301520812,yes,[0.0 61.1 1100.0; 5.5 30.55 1100.0; 11.0 22.9125 1100.0; 16.5 42.00625 1100.0; 22.0 61.1 1100.0; 27.5 30.55 1100.0; 33.0 61.1 1100.0; 38.5 61.1 1100.0; 44.0 0.0 1100.0; 49.5 30.55 1100.0; 55.0 30.55 1100.0],10 10 10 10 10,0.25,300
AFC27,AbstractFuelControl_M1,"□_[11.0, 50.0] ((((throttle < 8.8) && ◇_[0.0, 0.05] (40.0 < throttle)) || ((40.0 < throttle) && ◇_[0.0, 0.05] (throttle < 8.8))) ==> □_[1.0, 5.0] (abs(mu) < 0.008))",adaptive,-5.80236284359101E+018,15,56,-0.000585925455945,yes,[0.0 30.55 1100.0; 5.5 0.0 1100.0; 11.0 30.55 1100.0; 16.5 61.1 1100.0; 22.0 0.0 1100.0; 27.5 30.55 1100.0; 33.0 0.0 1100.0; 38.5 0.0 1100.0; 44.0 61.1 1100.0; 49.5 30.55 1100.0; 55.0 30.55 1100.0],10 10 10 10 10,0.25,300
AFC29,AbstractFuelControl_M1,"□_[11.0, 50.0] (abs(mu) < 0.007)",adaptive,0,1,2,-0.000873161223691,yes,[0.0 61.1 937.5; 5.0 0.0 937.5; 10.0 61.1 937.5; 15.0 0.0 937.5; 20.0 30.55 937.5; 25.0 49.643750000000004 937.5; 30.0 30.55 937.5; 35.0 61.1 937.5; 40.0 15.275 937.5; 45.0 61.1 937.5; 50.0 61.1 937.5],10 10 10 10 10,0.25,300
AFC29,AbstractFuelControl_M1,"□_[11.0, 50.0] (abs(mu) < 0.007)",adaptive,-5.25674996954115E+018,1,2,-0.00274669803388,yes,[0.0 0.0 1100.0; 5.0 0.0 1100.0; 10.0 30.55 1100.0; 15.0 45.825 1100.0; 20.0 30.55 1100.0; 25.0 15.275 1100.0; 30.0 61.1 1100.0; 35.0 30.55 1100.0; 40.0 0.0 1100.0; 45.0 30.55 1100.0; 50.0 30.55 1100.0],10 10 10 10 10,0.25,300
AFC29,AbstractFuelControl_M1,"□_[11.0, 50.0] (abs(mu) < 0.007)",adaptive,-8.59901830095105E+018,1,2,-0.000349754082551,yes,[0.0 30.55 900.0; 5.0 30.55 900.0; 10.0 53.4625 900.0; 15.0 38.1875 900.0; 20.0 0.0 900.0; 25.0 19.09375 900.0; 30.0 30.55 900.0; 35.0 0.0 900.0; 40.0 15.275 900.0; 45.0 0.0 900.0; 50.0 0.0 900.0],10 10 10 10 10,0.25,300
AFC29,AbstractFuelControl_M1,"□_[11.0, 50.0] (abs(mu) < 0.007)",adaptive,1.02055488722829E+018,1,2,-0.000118661083204,yes,[0.0 0.0 900.0; 5.0 0.0 900.0; 10.0 0.0 900.0; 15.0 61.1 900.0; 20.0 30.55 900.0; 25.0 30.55 900.0; 30.0 15.275 900.0; 35.0 61.1 900.0; 40.0 61.1 900.0; 45.0 61.1 900.0; 50.0 61.1 900.0],10 10 10 10 10,0.25,300
AFC29,AbstractFuelControl_M1,"□_[11.0, 50.0] (abs(mu) < 0.007)",adaptive,-6.74199828598219E+018,1,2,-0.000121054797853,yes,[0.0 61.1 900.0; 5.0 0.0 900.0; 10.0 30.55 900.0; 15.0 30.55 900.0; 20.0 30.55 900.0; 25.0 15.275 900.0; 30.0 42.00625 900.0; 35.0 0.0 900.0; 40.0 61.1 900.0; 45.0 61.1 900.0; 50.0 61.1 900.0],10 10 10 10 10,0.25,300
AFC29,AbstractFuelControl_M1,"□_[11.0, 50.0] (abs(mu) < 0.007)",adaptive,8.80076524565114E+018,1,2,-0.000121701570398,yes,[0.0 0.0 900.0; 5.0 15.275 900.0; 10.0 61.1 900.0; 15.0 11.45625 900.0; 20.0 0.0 900.0; 25.0 61.1 900.0; 30.0 61.1 900.0; 35.0 61.1 900.0; 40.0 30.55 900.0; 45.0 15.275 900.0; 50.0 15.275 900.0],10 10 10 10 10,0.25,300
AFC29,AbstractFuelControl_M1,"□_[11.0, 50.0] (abs(mu) < 0.007)",adaptive,-8.21045390035186E+018,2,5,-0.001637719044629,yes,[0.0 0.0 1000.0; 5.0 61.1 1000.0; 10.0 0.0 1000.0; 15.0 30.55 1000.0; 20.0 30.55 1000.0; 25.0 30.55 1000.0; 30.0 0.0 1000.0; 35.0 30.55 1000.0; 40.0 0.0 1000.0; 45.0 22.9125 1000.0; 50.0 22.9125 1000.0],10 10 10 10 10,0.25,300
AFC29,AbstractFuelControl_M1,"□_[11.0, 50.0] (abs(mu) < 0.007)",adaptive,7.15180101256298E+018,1,2,-0.000136695174625,yes,[0.0 0.0 900.0; 5.0 45.825 900.0; 10.0 0.0 900.0; 15.0 61.1 900.0; 20.0 61.1 900.0; 25.0 30.55 900.0; 30.0 61.1 900.0; 35.0 30.55 900.0; 40.0 30.55 900.0; 45.0 0.0 900.0; 50.0 0.0 900.0],10 10 10 10 10,0.25,300
AFC29,AbstractFuelControl_M1,"□_[11.0, 50.0] (abs(mu) < 0.007)",adaptive,6.36095084678119E+018,1,2,-0.000375496658662,yes,[0.0 22.9125 900.0; 5.0 45.825 900.0; 10.0 61.1 900.0; 15.0 0.0 900.0; 20.0 0.0 900.0; 25.0 53.4625 900.0; 30.0 0.0 900.0; 35.0 0.0 900.0; 40.0 30.55 900.0; 45.0 61.1 900.0; 50.0 61.1 900.0],10 10 10 10 10,0.25,300
AFC29,AbstractFuelControl_M1,"□_[11.0, 50.0] (abs(mu) < 0.007)",adaptive,-1.8947846506065E+018,1,2,-0.000121528008099,yes,[0.0 61.1 900.0; 5.0 61.1 900.0; 10.0 61.1 900.0; 15.0 45.825 900.0; 20.0 61.1 900.0; 25.0 61.1 900.0; 30.0 15.275 900.0; 35.0 0.0 900.0; 40.0 61.1 900.0; 45.0 30.55 900.0; 50.0 30.55 900.0],10 10 10 10 10,0.25,300
AFC29,AbstractFuelControl_M1,"□_[11.0, 50.0] (abs(mu) < 0.007)",adaptive,-7.24061748742377E+018,1,2,-0.000368630717018,yes,[0.0 0.0 900.0; 5.0 30.55 900.0; 10.0 61.1 900.0; 15.0 45.825 900.0; 20.0 0.0 900.0; 25.0 0.0 900.0; 30.0 0.0 900.0; 35.0 0.0 900.0; 40.0 30.55 900.0; 45.0 61.1 900.0; 50.0 61.1 900.0],10 10 10 10 10,0.25,300
AFC29,AbstractFuelControl_M1,"□_[11.0, 50.0] (abs(mu) < 0.007)",adaptive,3.56077611342551E+018,2,5,-0.000231968498386,yes,[0.0 61.1 900.0; 5.0 0.0 900.0; 10.0 61.1 900.0; 15.0 0.0 900.0; 20.0 0.0 900.0; 25.0 0.0 900.0; 30.0 7.6375 900.0; 35.0 0.0 900.0; 40.0 0.0 900.0; 45.0 45.825 900.0; 50.0 45.825 900.0],10 10 10 10 10,0.25,300
AFC29,AbstractFuelControl_M1,"□_[11.0, 50.0] (abs(mu) < 0.007)",adaptive,4.34249961396072E+018,1,2,-0.001636318295671,yes,[0.0 61.1 1000.0; 5.0 30.55 1000.0; 10.0 0.0 1000.0; 15.0 22.9125 1000.0; 20.0 61.1 1000.0; 25.0 0.0 1000.0; 30.0 30.55 1000.0; 35.0 0.0 1000.0; 40.0 22.9125 1000.0; 45.0 61.1 1000.0; 50.0 61.1 1000.0],10 10 10 10 10,0.25,300
AFC29,AbstractFuelControl_M1,"□_[11.0, 50.0] (abs(mu) < 0.007)",adaptive,-3.15050321663282E+018,1,2,-0.000373752282111,yes,[0.0 0.0 900.0; 5.0 30.55 900.0; 10.0 38.1875 900.0; 15.0 30.55 900.0; 20.0 61.1 900.0; 25.0 0.0 900.0; 30.0 30.55 900.0; 35.0 61.1 900.0; 40.0 61.1 900.0; 45.0 61.1 900.0; 50.0 61.1 900.0],10 10 10 10 10,0.25,300
AFC29,AbstractFuelControl_M1,"□_[11.0, 50.0] (abs(mu) < 0.007)",adaptive,-6.0135367648598E+018,1,2,-0.001592021058981,yes,[0.0 0.0 1100.0; 5.0 61.1 1100.0; 10.0 30.55 1100.0; 15.0 61.1 1100.0; 20.0 53.4625 1100.0; 25.0 61.1 1100.0; 30.0 61.1 1100.0; 35.0 30.55 1100.0; 40.0 30.55 1100.0; 45.0 0.0 1100.0; 50.0 0.0 1100.0],10 10 10 10 10,0.25,300
AFC29,AbstractFuelControl_M1,"□_[11.0, 50.0] (abs(mu) < 0.007)",adaptive,-6.73751697030983E+018,1,2,-0.002222606367464,yes,[0.0 30.55 1050.0; 5.0 0.0 1050.0; 10.0 61.1 1050.0; 15.0 30.55 1050.0; 20.0 30.55 1050.0; 25.0 30.55 1050.0; 30.0 45.825 1050.0; 35.0 0.0 1050.0; 40.0 30.55 1050.0; 45.0 15.275 1050.0; 50.0 15.275 1050.0],10 10 10 10 10,0.25,300
AFC29,AbstractFuelControl_M1,"□_[11.0, 50.0] (abs(mu) < 0.007)",adaptive,-6.57386557690376E+018,1,2,-0.000377509881654,yes,[0.0 61.1 900.0; 5.0 30.55 900.0; 10.0 0.0 900.0; 15.0 30.55 900.0; 20.0 45.825 900.0; 25.0 0.0 900.0; 30.0 30.55 900.0; 35.0 0.0 900.0; 40.0 0.0 900.0; 45.0 15.275 900.0; 50.0 15.275 900.0],10 10 10 10 10,0.25,300
AFC29,AbstractFuelControl_M1,"□_[11.0, 50.0] (abs(mu) < 0.007)",adaptive,8.87081178346408E+018,1,2,-0.001642405222047,yes,[0.0 61.1 1000.0; 5.0 0.0 1000.0; 10.0 30.55 1000.0; 15.0 0.0 1000.0; 20.0 30.55 1000.0; 25.0 0.0 1000.0; 30.0 0.0 1000.0; 35.0 45.825 1000.0; 40.0 0.0 1000.0; 45.0 30.55 1000.0; 50.0 30.55 1000.0],10 10 10 10 10,0.25,300
AFC29,AbstractFuelControl_M1,"□_[11.0, 50.0] (abs(mu) < 0.007)",adaptive,-7.08180561351524E+018,1,2,-0.002747394898957,yes,[0.0 61.1 1100.0; 5.0 61.1 1100.0; 10.0 0.0 1100.0; 15.0 0.0 1100.0; 20.0 30.55 1100.0; 25.0 61.1 1100.0; 30.0 30.55 1100.0; 35.0 22.9125 1100.0; 40.0 0.0 1100.0; 45.0 30.55 1100.0; 50.0 30.55 1100.0],10 10 10 10 10,0.25,300
AFC29,AbstractFuelControl_M1,"□_[11.0, 50.0] (abs(mu) < 0.007)",adaptive,7.10228040153409E+018,1,2,-0.002468259011558,yes,[0.0 45.825 1100.0; 5.0 0.0 1100.0; 10.0 61.1 1100.0; 15.0 0.0 1100.0; 20.0 0.0 1100.0; 25.0 15.275 1100.0; 30.0 30.55 1100.0; 35.0 30.55 1100.0; 40.0 0.0 1100.0; 45.0 0.0 1100.0; 50.0 0.0 1100.0],10 10 10 10 10,0.25,300
AFC29,AbstractFuelControl_M1,"□_[11.0, 50.0] (abs(mu) < 0.007)",adaptive,3.59742353259285E+017,1,2,-0.002746681599729,yes,[0.0 0.0 1100.0; 5.0 61.1 1100.0; 10.0 30.55 1100.0; 15.0 0.0 1100.0; 20.0 61.1 1100.0; 25.0 26.73125 1100.0; 30.0 0.0 1100.0; 35.0 30.55 1100.0; 40.0 0.0 1100.0; 45.0 30.55 1100.0; 50.0 30.55 1100.0],10 10 10 10 10,0.25,300
AFC29,AbstractFuelControl_M1,"□_[11.0, 50.0] (abs(mu) < 0.007)",adaptive,7.41099387438471E+018,2,5,-0.002753344835113,yes,[0.0 61.1 1100.0; 5.0 0.0 1100.0; 10.0 61.1 1100.0; 15.0 30.55 1100.0; 20.0 45.825 1100.0; 25.0 0.0 1100.0; 30.0 0.0 1100.0; 35.0 0.0 1100.0; 40.0 30.55 1100.0; 45.0 0.0 1100.0; 50.0 0.0 1100.0],10 10 10 10 10,0.25,300
AFC29,AbstractFuelControl_M1,"□_[11.0, 50.0] (abs(mu) < 0.007)",adaptive,-6.99971404102067E+018,1,2,-0.002034185046361,yes,[0.0 45.825 1050.0; 5.0 61.1 1050.0; 10.0 61.1 1050.0; 15.0 61.1 1050.0; 20.0 61.1 1050.0; 25.0 61.1 1050.0; 30.0 0.0 1050.0; 35.0 61.1 1050.0; 40.0 0.0 1050.0; 45.0 61.1 1050.0; 50.0 61.1 1050.0],10 10 10 10 10,0.25,300
AFC29,AbstractFuelControl_M1,"□_[11.0, 50.0] (abs(mu) < 0.007)",adaptive,-2.11098964938158E+018,1,2,-0.002085857969753,yes,[0.0 0.0 1037.5; 5.0 0.0 1037.5; 10.0 0.0 1037.5; 15.0 0.0 1037.5; 20.0 30.55 1037.5; 25.0 30.55 1037.5; 30.0 45.825 1037.5; 35.0 7.6375 1037.5; 40.0 30.55 1037.5; 45.0 7.6375 1037.5; 50.0 7.6375 1037.5],10 10 10 10 10,0.25,300
AFC29,AbstractFuelControl_M1,"□_[11.0, 50.0] (abs(mu) < 0.007)",adaptive,6.27596167778314E+017,1,2,-0.00099682667377,yes,[0.0 0.0 962.5; 5.0 30.55 962.5; 10.0 0.0 962.5; 15.0 0.0 962.5; 20.0 61.1 962.5; 25.0 61.1 962.5; 30.0 30.55 962.5; 35.0 30.55 962.5; 40.0 30.55 962.5; 45.0 30.55 962.5; 50.0 30.55 962.5],10 10 10 10 10,0.25,300
AFC29,AbstractFuelControl_M1,"□_[11.0, 50.0] (abs(mu) < 0.007)",adaptive,-7.82998398565863E+018,2,5,-0.000363251758366,yes,[0.0 61.1 900.0; 5.0 0.0 900.0; 10.0 30.55 900.0; 15.0 45.825 900.0; 20.0 7.6375 900.0; 25.0 15.275 900.0; 30.0 0.0 900.0; 35.0 0.0 900.0; 40.0 30.55 900.0; 45.0 61.1 900.0; 50.0 61.1 900.0],10 10 10 10 10,0.25,300
AFC29,AbstractFuelControl_M1,"□_[11.0, 50.0] (abs(mu) < 0.007)",adaptive,-4.43196971841959E+017,1,3,-0.002684641852401,yes,[0.0 0.0 1100.0; 5.0 61.1 1100.0; 10.0 30.55 1100.0; 15.0 15.275 1100.0; 20.0 45.825 1100.0; 25.0 49.643750000000004 1100.0; 30.0 45.825 1100.0; 35.0 0.0 1100.0; 40.0 38.1875 1100.0; 45.0 61.1 1100.0; 50.0 61.1 1100.0],10 10 10 10 10,0.25,300
AFC29,AbstractFuelControl_M1,"□_[11.0, 50.0] (abs(mu) < 0.007)",adaptive,-1.23534116144924E+018,2,5,-0.001402182329395,yes,[0.0 3.81875 1100.0; 5.0 22.9125 1100.0; 10.0 61.1 1100.0; 15.0 30.55 1100.0; 20.0 7.6375 1100.0; 25.0 15.275 1100.0; 30.0 0.0 1100.0; 35.0 7.6375 1100.0; 40.0 61.1 1100.0; 45.0 61.1 1100.0; 50.0 61.1 1100.0],10 10 10 10 10,0.25,300
AFC29,AbstractFuelControl_M1,"□_[11.0, 50.0] (abs(mu) < 0.007)",adaptive,9.16084727312543E+018,1,2,-0.002104342337183,yes,[0.0 0.0 1050.0; 5.0 45.825 1050.0; 10.0 0.0 1050.0; 15.0 61.1 1050.0; 20.0 15.275 1050.0; 25.0 61.1 1050.0; 30.0 0.0 1050.0; 35.0 45.825 1050.0; 40.0 61.1 1050.0; 45.0 0.0 1050.0; 50.0 0.0 1050.0],10 10 10 10 10,0.25,300
AFC29,AbstractFuelControl_M1,"□_[11.0, 50.0] (abs(mu) < 0.007)",adaptive,2.59846453506727E+017,2,4,-0.001462534217456,yes,[0.0 0.0 1000.0; 5.0 38.1875 1000.0; 10.0 61.1 1000.0; 15.0 0.0 1000.0; 20.0 0.0 1000.0; 25.0 0.0 1000.0; 30.0 61.1 1000.0; 35.0 61.1 1000.0; 40.0 61.1 1000.0; 45.0 45.825 1000.0; 50.0 45.825 1000.0],10 10 10 10 10,0.25,300
AFC29,AbstractFuelControl_M1,"□_[11.0, 50.0] (abs(mu) < 0.007)",adaptive,-1.34243420826715E+017,1,2,-0.000837523607456,yes,[0.0 0.0 950.0; 5.0 30.55 950.0; 10.0 61.1 950.0; 15.0 0.0 950.0; 20.0 61.1 950.0; 25.0 15.275 950.0; 30.0 15.275 950.0; 35.0 7.6375 950.0; 40.0 30.55 950.0; 45.0 45.825 950.0; 50.0 45.825 950.0],10 10 10 10 10,0.25,300
AFC29,AbstractFuelControl_M1,"□_[11.0, 50.0] (abs(mu) < 0.007)",adaptive,-3.78454575271935E+018,1,2,-0.001460974139676,yes,[0.0 61.1 1000.0; 5.0 0.0 1000.0; 10.0 0.0 1000.0; 15.0 0.0 1000.0; 20.0 61.1 1000.0; 25.0 0.0 1000.0; 30.0 0.0 1000.0; 35.0 15.275 1000.0; 40.0 30.55 1000.0; 45.0 30.55 1000.0; 50.0 30.55 1000.0],10 10 10 10 10,0.25,300
AFC29,AbstractFuelControl_M1,"□_[11.0, 50.0] (abs(mu) < 0.007)",adaptive,3.14877447569867E+018,1,2,-0.001640235284038,yes,[0.0 30.55 1000.0; 5.0 30.55 1000.0; 10.0 0.0 1000.0; 15.0 45.825 1000.0; 20.0 0.0 1000.0; 25.0 30.55 1000.0; 30.0 45.825 1000.0; 35.0 30.55 1000.0; 40.0 15.275 1000.0; 45.0 0.0 1000.0; 50.0 0.0 1000.0],10 10 10 10 10,0.25,300
AFC29,AbstractFuelControl_M1,"□_[11.0, 50.0] (abs(mu) < 0.007)",adaptive,-5.6133705805291E+018,2,4,-0.000373135631395,yes,[0.0 0.0 900.0; 5.0 61.1 900.0; 10.0 61.1 900.0; 15.0 0.0 900.0; 20.0 30.55 900.0; 25.0 0.0 900.0; 30.0 0.0 900.0; 35.0 30.55 900.0; 40.0 30.55 900.0; 45.0 61.1 900.0; 50.0 61.1 900.0],10 10 10 10 10,0.25,300
AFC29,AbstractFuelControl_M1,"□_[11.0, 50.0] (abs(mu) < 0.007)",adaptive,2.68603365387112E+018,1,2,-0.002648030031661,yes,[0.0 30.55 1100.0; 5.0 30.55 1100.0; 10.0 0.0 1100.0; 15.0 0.0 1100.0; 20.0 45.825 1100.0; 25.0 61.1 1100.0; 30.0 0.0 1100.0; 35.0 61.1 1100.0; 40.0 61.1 1100.0; 45.0 45.825 1100.0; 50.0 45.825 1100.0],10 10 10 10 10,0.25,300
AFC29,AbstractFuelControl_M1,"□_[11.0, 50.0] (abs(mu) < 0.007)",adaptive,-2.25066575628365E+018,1,2,-0.001637603562496,yes,[0.0 0.0 1000.0; 5.0 61.1 1000.0; 10.0 38.1875 1000.0; 15.0 0.0 1000.0; 20.0 0.0 1000.0; 25.0 30.55 1000.0; 30.0 0.0 1000.0; 35.0 0.0 1000.0; 40.0 0.0 1000.0; 45.0 61.1 1000.0; 50.0 61.1 1000.0],10 10 10 10 10,0.25,300
AFC29,AbstractFuelControl_M1,"□_[11.0, 50.0] (abs(mu) < 0.007)",adaptive,8.29424257154011E+017,2,4,-0.000376827816382,yes,[0.0 61.1 900.0; 5.0 61.1 900.0; 10.0 22.9125 900.0; 15.0 0.0 900.0; 20.0 0.0 900.0; 25.0 49.643750000000004 900.0; 30.0 0.0 900.0; 35.0 30.55 900.0; 40.0 7.6375 900.0; 45.0 30.55 900.0; 50.0 30.55 900.0],10 10 10 10 10,0.25,300
AFC29,AbstractFuelControl_M1,"□_[11.0, 50.0] (abs(mu) < 0.007)",adaptive,-1.88421426581013E+018,1,2,-0.002715368459298,yes,[0.0 0.0 1100.0; 5.0 61.1 1100.0; 10.0 61.1 1100.0; 15.0 0.0 1100.0; 20.0 0.0 1100.0; 25.0 15.275 1100.0; 30.0 30.55 1100.0; 35.0 7.6375 1100.0; 40.0 0.0 1100.0; 45.0 22.9125 1100.0; 50.0 22.9125 1100.0],10 10 10 10 10,0.25,300
AFC29,AbstractFuelControl_M1,"□_[11.0, 50.0] (abs(mu) < 0.007)",adaptive,-1.32680919115925E+018,1,2,-0.000108630280121,yes,[0.0 57.28125 900.0; 5.0 30.55 900.0; 10.0 30.55 900.0; 15.0 0.0 900.0; 20.0 0.0 900.0; 25.0 0.0 900.0; 30.0 61.1 900.0; 35.0 15.275 900.0; 40.0 45.825 900.0; 45.0 61.1 900.0; 50.0 61.1 900.0],10 10 10 10 10,0.25,300
AFC29,AbstractFuelControl_M1,"□_[11.0, 50.0] (abs(mu) < 0.007)",adaptive,3.11678379210085E+018,1,2,-0.002753981857703,yes,[0.0 0.0 1100.0; 5.0 30.55 1100.0; 10.0 0.0 1100.0; 15.0 0.0 1100.0; 20.0 30.55 1100.0; 25.0 30.55 1100.0; 30.0 61.1 1100.0; 35.0 0.0 1100.0; 40.0 30.55 1100.0; 45.0 7.6375 1100.0; 50.0 7.6375 1100.0],10 10 10 10 10,0.25,300
AFC29,AbstractFuelControl_M1,"□_[11.0, 50.0] (abs(mu) < 0.007)",adaptive,4.08558819424746E+018,1,2,-0.0027546579826,yes,[0.0 45.825 1100.0; 5.0 30.55 1100.0; 10.0 30.55 1100.0; 15.0 45.825 1100.0; 20.0 45.825 1100.0; 25.0 0.0 1100.0; 30.0 30.55 1100.0; 35.0 61.1 1100.0; 40.0 61.1 1100.0; 45.0 61.1 1100.0; 50.0 61.1 1100.0],10 10 10 10 10,0.25,300
AFC29,AbstractFuelControl_M1,"□_[11.0, 50.0] (abs(mu) < 0.007)",adaptive,8.23627890617327E+018,1,2,-0.000368547544995,yes,[0.0 0.0 900.0; 5.0 30.55 900.0; 10.0 61.1 900.0; 15.0 45.825 900.0; 20.0 0.0 900.0; 25.0 61.1 900.0; 30.0 0.0 900.0; 35.0 0.0 900.0; 40.0 30.55 900.0; 45.0 61.1 900.0; 50.0 61.1 900.0],10 10 10 10 10,0.25,300
AFC29,AbstractFuelControl_M1,"□_[11.0, 50.0] (abs(mu) < 0.007)",adaptive,2.29595174723427E+018,1,2,-0.00018866149313,yes,[0.0 30.55 900.0; 5.0 38.1875 900.0; 10.0 61.1 900.0; 15.0 0.0 900.0; 20.0 0.0 900.0; 25.0 53.4625 900.0; 30.0 0.0 900.0; 35.0 0.0 900.0; 40.0 61.1 900.0; 45.0 22.9125 900.0; 50.0 22.9125 900.0],10 10 10 10 10,0.25,300
AFC29,AbstractFuelControl_M1,"□_[11.0, 50.0] (abs(mu) < 0.007)",adaptive,8.74969507006733E+018,1,2,-0.001423585502032,yes,[0.0 53.4625 1000.0; 5.0 30.55 1000.0; 10.0 61.1 1000.0; 15.0 61.1 1000.0; 20.0 0.0 1000.0; 25.0 15.275 1000.0; 30.0 30.55 1000.0; 35.0 30.55 1000.0; 40.0 30.55 1000.0; 45.0 49.643750000000004 1000.0; 50.0 49.643750000000004 1000.0],10 10 10 10 10,0.25,300
AFC29,AbstractFuelControl_M1,"□_[11.0, 50.0] (abs(mu) < 0.007)",adaptive,-2.61628048363887E+018,2,4,-0.000744332018079,yes,[0.0 61.1 1000.0; 5.0 30.55 1000.0; 10.0 15.275 1000.0; 15.0 30.55 1000.0; 20.0 30.55 1000.0; 25.0 61.1 1000.0; 30.0 30.55 1000.0; 35.0 30.55 1000.0; 40.0 30.55 1000.0; 45.0 0.0 1000.0; 50.0 0.0 1000.0],10 10 10 10 10,0.25,300
AFC29,AbstractFuelControl_M1,"□_[11.0, 50.0] (abs(mu) < 0.007)",adaptive,-4.29640889840975E+018,1,2,-0.00146196658725,yes,[0.0 61.1 1000.0; 5.0 0.0 1000.0; 10.0 61.1 1000.0; 15.0 61.1 1000.0; 20.0 45.825 1000.0; 25.0 30.55 1000.0; 30.0 38.1875 1000.0; 35.0 61.1 1000.0; 40.0 0.0 1000.0; 45.0 61.1 1000.0; 50.0 61.1 1000.0],10 10 10 10 10,0.25,300
AFC29,AbstractFuelControl_M1,"□_[11.0, 50.0] (abs(mu) < 0.007)",adaptive,8.55279252583133E+018,1,2,-0.001445740875035,yes,[0.0 61.1 1000.0; 5.0 61.1 1000.0; 10.0 15.275 1000.0; 15.0 30.55 1000.0; 20.0 15.275 1000.0; 25.0 30.55 1000.0; 30.0 0.0 1000.0; 35.0 61.1 1000.0; 40.0 30.55 1000.0; 45.0 30.55 1000.0; 50.0 30.55 1000.0],10 10 10 10 10,0.25,300
AFC29,AbstractFuelControl_M1,"□_[11.0, 50.0] (abs(mu) < 0.007)",adaptive,-5.40882992960697E+017,1,2,-0.002227780549862,yes,[0.0 61.1 1050.0; 5.0 0.0 1050.0; 10.0 0.0 1050.0; 15.0 0.0 1050.0; 20.0 45.825 1050.0; 25.0 0.0 1050.0; 30.0 61.1 1050.0; 35.0 30.55 1050.0; 40.0 0.0 1050.0; 45.0 30.55 1050.0; 50.0 30.55 1050.0],10 10 10 10 10,0.25,300
AFC29,AbstractFuelControl_M1,"□_[11.0, 50.0] (abs(mu) < 0.007)",adaptive,3.10367129142981E+018,1,2,-0.000222494040094,yes,[0.0 30.55 900.0; 5.0 30.55 900.0; 10.0 0.0 900.0; 15.0 0.0 900.0; 20.0 15.275 900.0; 25.0 61.1 900.0; 30.0 61.1 900.0; 35.0 61.1 900.0; 40.0 61.1 900.0; 45.0 30.55 900.0; 50.0 30.55 900.0],10 10 10 10 10,0.25,300
AFC29,AbstractFuelControl_M1,"□_[11.0, 50.0] (abs(mu) < 0.007)",adaptive,3.82049995846244E+018,1,2,-0.002755149187394,yes,[0.0 0.0 1100.0; 5.0 34.36875 1100.0; 10.0 45.825 1100.0; 15.0 45.825 1100.0; 20.0 61.1 1100.0; 25.0 61.1 1100.0; 30.0 15.275 1100.0; 35.0 0.0 1100.0; 40.0 30.55 1100.0; 45.0 45.825 1100.0; 50.0 45.825 1100.0],10 10 10 10 10,0.25,300
